{
  "qInfo": {
    "qId": "220479f0-9615-4689-b59d-75a03b0acdb4",
    "qType": "variable"
  },
  "qMetaDef": {},
  "qName": "vDepot",
  "qNumberPresentation": {
    "qType": "U",
    "qnDec": 10,
    "qUseThou": 0
  },
  "qDefinition": "=if(getselectedcount(Depot)>0,1,0)",
  "tags": []
}