{
  "qInfo": {
    "qId": "2e4266f8-fad0-4a7c-8334-462559422301",
    "qType": "variable"
  },
  "qMetaDef": {},
  "qName": "vRecruitmentType",
  "qNumberPresentation": {
    "qType": "U",
    "qnDec": 10,
    "qUseThou": 0
  },
  "qDefinition": "Randomized",
  "tags": []
}