{
  "qInfo": {
    "qId": "48d8e0f6-748a-4117-b668-f9047d1fa5a5",
    "qType": "variable"
  },
  "qMetaDef": {},
  "qName": "DISABLE_INSIGHTS",
  "qNumberPresentation": {
    "qType": "U",
    "qnDec": 10,
    "qUseThou": 0
  },
  "tags": []
}