{
  "qInfo": {
    "qId": "4d9a66bb-785d-4d53-a9ce-925dd0f78f7d",
    "qType": "variable"
  },
  "qMetaDef": {},
  "qName": "VarMaxDateSlicer",
  "qNumberPresentation": {
    "qType": "U",
    "qnDec": 10,
    "qUseThou": 0
  },
  "qDefinition": "=Date ( Max( {1} [Estimated generation date]) , 'DD-MM-YY')",
  "tags": []
}