{
  "qInfo": {
    "qId": "6966eee3-f506-4543-ade4-d55610472d91",
    "qType": "variable"
  },
  "qMetaDef": {},
  "qName": "varMinDate",
  "qNumberPresentation": {
    "qType": "U",
    "qnDec": 10,
    "qUseThou": 0
  },
  "qDefinition": "43374",
  "qIsScriptCreated": true
}