{
  "qInfo": {
    "qId": "6a455b0b-e25f-48fe-8267-c76aacfc9a77",
    "qType": "variable"
  },
  "qMetaDef": {},
  "qName": "varMaxDate",
  "qNumberPresentation": {
    "qType": "U",
    "qnDec": 10,
    "qUseThou": 0
  },
  "qDefinition": "44835",
  "qIsScriptCreated": true
}