{
  "qInfo": {
    "qId": "8f711a51-370d-4cab-bf4a-08fff34aac22",
    "qType": "variable"
  },
  "qMetaDef": {},
  "qName": "appID",
  "qNumberPresentation": {
    "qType": "U",
    "qnDec": 10,
    "qUseThou": 0
  },
  "qDefinition": "78aa10ca-aad2-44e1-9a92-848399a6d0a9",
  "qIsScriptCreated": true
}