{
  "qInfo": {
    "qId": "bb8e4a28-e3e2-467c-83ac-782868bfbb2e",
    "qType": "variable"
  },
  "qMetaDef": {},
  "qName": "vMinReevaluation",
  "qNumberPresentation": {
    "qType": "U",
    "qnDec": 10,
    "qUseThou": 0
  },
  "qDefinition": "=date(floor([Reevaluation date]))",
  "tags": []
}