{
  "qInfo": {
    "qId": "e74c17dd-ae88-4913-a55a-1eb4d06deacd",
    "qType": "variable"
  },
  "qMetaDef": {},
  "qName": "varMinDateSlicer",
  "qNumberPresentation": {
    "qType": "U",
    "qnDec": 10,
    "qUseThou": 0
  },
  "qDefinition": "=Date ( Min( {1} [Reevaluation date]) , 'DD-MM-YY' )",
  "tags": []
}