[
  {
    "qIsHidden": true,
    "qName": "%Date_ID",
    "qTags": [
      "$key",
      "$hidden",
      "$numeric",
      "$integer",
      "$timestamp",
      "$date"
    ],
    "qSrcTables": []
  },
  {
    "qIsHidden": true,
    "qName": "%is_past",
    "qTags": [
      "$hidden",
      "$ascii",
      "$text"
    ],
    "qSrcTables": []
  },
  {
    "qName": "Aggregated",
    "qTags": [
      "$ascii",
      "$text"
    ],
    "qSrcTables": [
      "Report"
    ]
  },
  {
    "qName": "Blue",
    "qTags": [
      "$numeric",
      "$integer"
    ],
    "qSrcTables": [
      "ColorTable"
    ]
  },
  {
    "qName": "Cost category",
    "qTags": [
      "$ascii",
      "$text"
    ],
    "qSrcTables": [
      "Report"
    ]
  },
  {
    "qName": "Costs Stat_MEAN",
    "qTags": [
      "$numeric"
    ],
    "qSrcTables": [
      "Report"
    ]
  },
  {
    "qName": "Country ID",
    "qTags": [
      "$key",
      "$ascii",
      "$text"
    ],
    "qSrcTables": [
      "corporate-warehouse",
      "corporate-country"
    ]
  },
  {
    "qName": "Country code",
    "qTags": [
      "$ascii",
      "$text"
    ],
    "qSrcTables": [
      "corporate-country"
    ]
  },
  {
    "qName": "Country label",
    "qTags": [
      "$ascii",
      "$text"
    ],
    "qSrcTables": [
      "corporate-country"
    ]
  },
  {
    "qName": "Cumulative",
    "qTags": [
      "$ascii",
      "$text"
    ],
    "qSrcTables": [
      "Report"
    ]
  },
  {
    "qName": "Custom fee",
    "qTags": [
      "$numeric"
    ],
    "qSrcTables": [
      "result-simulation_realization_summary"
    ]
  },
  {
    "qName": "DBlue",
    "qTags": [
      "$numeric",
      "$integer"
    ],
    "qSrcTables": [
      "DepotColorTable"
    ]
  },
  {
    "qName": "DC.Stat_MAX",
    "qTags": [
      "$numeric",
      "$integer"
    ],
    "qSrcTables": [
      "Report"
    ]
  },
  {
    "qName": "DC.Stat_MEAN",
    "qTags": [
      "$numeric",
      "$integer"
    ],
    "qSrcTables": [
      "Report"
    ]
  },
  {
    "qName": "DC.Stat_MIN",
    "qTags": [
      "$numeric",
      "$integer"
    ],
    "qSrcTables": [
      "Report"
    ]
  },
  {
    "qName": "DGreen",
    "qTags": [
      "$numeric",
      "$integer"
    ],
    "qSrcTables": [
      "DepotColorTable"
    ]
  },
  {
    "qName": "DHEX",
    "qTags": [
      "$ascii",
      "$text"
    ],
    "qSrcTables": [
      "DepotColorTable"
    ]
  },
  {
    "qName": "DRed",
    "qTags": [
      "$numeric",
      "$integer"
    ],
    "qSrcTables": [
      "DepotColorTable"
    ]
  },
  {
    "qName": "DataType",
    "qTags": [
      "$ascii",
      "$text"
    ],
    "qSrcTables": [
      "Report"
    ]
  },
  {
    "qName": "Date",
    "qTags": [
      "$numeric",
      "$integer",
      "$timestamp",
      "$date"
    ],
    "qSrcTables": [
      "MasterCalendar"
    ]
  },
  {
    "qName": "Demand Stat_MAX",
    "qTags": [
      "$numeric",
      "$integer"
    ],
    "qSrcTables": [
      "Report"
    ]
  },
  {
    "qName": "Demand Stat_MEAN",
    "qTags": [
      "$numeric",
      "$integer"
    ],
    "qSrcTables": [
      "Report"
    ]
  },
  {
    "qName": "Demand Stat_MIN",
    "qTags": [
      "$numeric",
      "$integer"
    ],
    "qSrcTables": [
      "Report"
    ]
  },
  {
    "qName": "Depot",
    "qTags": [
      "$ascii",
      "$text"
    ],
    "qSrcTables": [
      "corporate-warehouse-8"
    ]
  },
  {
    "qName": "Depot ID",
    "qTags": [
      "$key"
    ],
    "qSrcTables": [
      "Report",
      "corporate-warehouse-8",
      "DepotColorTable"
    ]
  },
  {
    "qName": "Depot code",
    "qTags": [
      "$ascii",
      "$text"
    ],
    "qSrcTables": [
      "corporate-warehouse-8"
    ]
  },
  {
    "qName": "Depot level",
    "qTags": [
      "$ascii",
      "$text"
    ],
    "qSrcTables": [
      "corporate-warehouse-8"
    ]
  },
  {
    "qName": "Depot shipping cost",
    "qTags": [
      "$numeric"
    ],
    "qSrcTables": [
      "result-simulation_realization_summary"
    ]
  },
  {
    "qName": "Depot_Country ID",
    "qTags": [
      "$ascii",
      "$text"
    ],
    "qSrcTables": [
      "corporate-warehouse-8"
    ]
  },
  {
    "qName": "Depotshipments",
    "qTags": [
      "$numeric",
      "$integer"
    ],
    "qSrcTables": [
      "result-simulation_realization_summary"
    ]
  },
  {
    "qName": "Destination",
    "qTags": [],
    "qSrcTables": [
      "corporate-warehouse-9"
    ]
  },
  {
    "qName": "Destination ID",
    "qTags": [
      "$key"
    ],
    "qSrcTables": [
      "Report",
      "corporate-warehouse-9"
    ]
  },
  {
    "qName": "Destination code",
    "qTags": [],
    "qSrcTables": [
      "corporate-warehouse-9"
    ]
  },
  {
    "qName": "Discontinuation probability",
    "qTags": [
      "$numeric"
    ],
    "qSrcTables": [
      "Report"
    ]
  },
  {
    "qName": "Dose level",
    "qTags": [
      "$ascii",
      "$text"
    ],
    "qSrcTables": [
      "study-dose_levelFROM"
    ]
  },
  {
    "qName": "Dose level ID",
    "qTags": [
      "$key",
      "$ascii",
      "$text"
    ],
    "qSrcTables": [
      "Report",
      "study-dose_levelFROM"
    ]
  },
  {
    "qName": "Dose level code",
    "qTags": [
      "$ascii",
      "$text"
    ],
    "qSrcTables": [
      "study-dose_levelFROM"
    ]
  },
  {
    "qName": "Dose level order",
    "qTags": [
      "$numeric",
      "$integer"
    ],
    "qSrcTables": [
      "study-dose_levelFROM"
    ]
  },
  {
    "qName": "Duplicated",
    "qTags": [
      "$ascii",
      "$text"
    ],
    "qSrcTables": [
      "Report"
    ]
  },
  {
    "qName": "Earliest arrival",
    "qTags": [
      "$numeric",
      "$integer",
      "$timestamp",
      "$date"
    ],
    "qSrcTables": [
      "Report"
    ]
  },
  {
    "qName": "Earliest departure",
    "qTags": [
      "$numeric",
      "$integer",
      "$timestamp",
      "$date"
    ],
    "qSrcTables": [
      "Report"
    ]
  },
  {
    "qName": "Expiry",
    "qTags": [
      "$numeric",
      "$integer",
      "$timestamp",
      "$date"
    ],
    "qSrcTables": [
      "Report"
    ]
  },
  {
    "qName": "Expiry.legend_description",
    "qTags": [
      "$ascii",
      "$text"
    ],
    "qSrcTables": [
      "Expiry_extension.Color_Legend"
    ]
  },
  {
    "qName": "Fixed/Optimized",
    "qTags": [
      "$ascii",
      "$text"
    ],
    "qSrcTables": [
      "Report"
    ]
  },
  {
    "qName": "Green",
    "qTags": [
      "$numeric",
      "$integer"
    ],
    "qSrcTables": [
      "ColorTable"
    ]
  },
  {
    "qName": "HEX",
    "qTags": [
      "$ascii",
      "$text"
    ],
    "qSrcTables": [
      "ColorTable"
    ]
  },
  {
    "qName": "IP availability at Central depot",
    "qTags": [
      "$numeric",
      "$integer",
      "$timestamp",
      "$date"
    ],
    "qSrcTables": [
      "Report"
    ]
  },
  {
    "qName": "IP availability at Central depot Month",
    "qTags": [
      "$numeric",
      "$integer",
      "$timestamp",
      "$date"
    ],
    "qSrcTables": [
      "Report"
    ]
  },
  {
    "qName": "IP availability at Central depot Quarter",
    "qTags": [
      "$ascii",
      "$text"
    ],
    "qSrcTables": [
      "Report"
    ]
  },
  {
    "qName": "IP availability at Central depot Year",
    "qTags": [
      "$numeric",
      "$integer"
    ],
    "qSrcTables": [
      "Report"
    ]
  },
  {
    "qName": "IRTSettings",
    "qTags": [
      "$ascii",
      "$text"
    ],
    "qSrcTables": [
      "Report"
    ]
  },
  {
    "qName": "Inventory Stat_MAX",
    "qTags": [
      "$numeric",
      "$integer"
    ],
    "qSrcTables": [
      "Report"
    ]
  },
  {
    "qName": "Inventory Stat_MEAN",
    "qTags": [
      "$numeric",
      "$integer"
    ],
    "qSrcTables": [
      "Report"
    ]
  },
  {
    "qName": "Inventory Stat_MIN",
    "qTags": [
      "$numeric",
      "$integer"
    ],
    "qSrcTables": [
      "Report"
    ]
  },
  {
    "qName": "Label group",
    "qTags": [
      "$ascii",
      "$text"
    ],
    "qSrcTables": [
      "study-label_group"
    ]
  },
  {
    "qName": "Label group ID",
    "qTags": [
      "$ascii",
      "$text"
    ],
    "qSrcTables": [
      "study-label_group"
    ]
  },
  {
    "qName": "Label group code",
    "qTags": [
      "$ascii",
      "$text"
    ],
    "qSrcTables": [
      "study-label_group"
    ]
  },
  {
    "qName": "Location",
    "qTags": [
      "$ascii",
      "$text"
    ],
    "qSrcTables": [
      "corporate-warehouse"
    ]
  },
  {
    "qName": "LotNumber",
    "qTags": [],
    "qSrcTables": [
      "lot-management_lot-number"
    ]
  },
  {
    "qName": "LotNumber code",
    "qTags": [],
    "qSrcTables": [
      "lot-management_lot-number"
    ]
  },
  {
    "qName": "LotNumberID",
    "qTags": [
      "$key",
      "$ascii",
      "$text"
    ],
    "qSrcTables": [
      "Report",
      "lot-management_lot-number"
    ]
  },
  {
    "qName": "Management cost",
    "qTags": [
      "$numeric"
    ],
    "qSrcTables": [
      "result-simulation_realization_summary"
    ]
  },
  {
    "qName": "Material cost",
    "qTags": [
      "$numeric"
    ],
    "qSrcTables": [
      "result-simulation_realization_summary"
    ]
  },
  {
    "qName": "Mean departure",
    "qTags": [
      "$numeric",
      "$integer",
      "$timestamp",
      "$date"
    ],
    "qSrcTables": [
      "Report"
    ]
  },
  {
    "qName": "Minimum storage period",
    "qTags": [
      "$numeric",
      "$integer"
    ],
    "qSrcTables": [
      "Report"
    ]
  },
  {
    "qName": "Missed visits",
    "qTags": [
      "$numeric",
      "$integer"
    ],
    "qSrcTables": [
      "result-simulation_realization_summary"
    ]
  },
  {
    "qName": "Missed visits percentage",
    "qTags": [
      "$numeric"
    ],
    "qSrcTables": [
      "result-simulation_realization_summary"
    ]
  },
  {
    "qName": "Month",
    "qTags": [
      "$ascii",
      "$text"
    ],
    "qSrcTables": [
      "MasterCalendar"
    ]
  },
  {
    "qName": "Months interval",
    "qTags": [
      "$numeric",
      "$integer"
    ],
    "qSrcTables": [
      "result-result_info"
    ]
  },
  {
    "qName": "N_Reas network",
    "qTags": [
      "$numeric",
      "$integer"
    ],
    "qSrcTables": [
      "result-result_info"
    ]
  },
  {
    "qName": "N_Reas study",
    "qTags": [
      "$numeric",
      "$integer"
    ],
    "qSrcTables": [
      "result-result_info"
    ]
  },
  {
    "qName": "Normal lead time",
    "qTags": [
      "$numeric",
      "$integer"
    ],
    "qSrcTables": [
      "Report"
    ]
  },
  {
    "qName": "Out of stocks",
    "qTags": [
      "$numeric",
      "$integer"
    ],
    "qSrcTables": [
      "result-simulation_realization_summary"
    ]
  },
  {
    "qName": "Overage",
    "qTags": [
      "$numeric"
    ],
    "qSrcTables": [
      "result-simulation_realization_summary"
    ]
  },
  {
    "qName": "PBlue",
    "qTags": [
      "$numeric",
      "$integer"
    ],
    "qSrcTables": [
      "PColorTable"
    ]
  },
  {
    "qName": "PGreen",
    "qTags": [
      "$numeric",
      "$integer"
    ],
    "qSrcTables": [
      "PColorTable"
    ]
  },
  {
    "qName": "PHEX",
    "qTags": [
      "$ascii",
      "$text"
    ],
    "qSrcTables": [
      "PColorTable"
    ]
  },
  {
    "qName": "PO.Future_dispensing",
    "qTags": [],
    "qSrcTables": [
      "ProductionOverage"
    ]
  },
  {
    "qName": "PO.Future_dispensing_MAX",
    "qTags": [],
    "qSrcTables": [
      "ProductionOverage"
    ]
  },
  {
    "qName": "PO.Future_dispensing_MIN",
    "qTags": [],
    "qSrcTables": [
      "ProductionOverage"
    ]
  },
  {
    "qName": "PO.Future_production",
    "qTags": [],
    "qSrcTables": [
      "ProductionOverage"
    ]
  },
  {
    "qName": "PO.Past_dispensing",
    "qTags": [],
    "qSrcTables": [
      "ProductionOverage"
    ]
  },
  {
    "qName": "PO.Past_production",
    "qTags": [],
    "qSrcTables": [
      "ProductionOverage"
    ]
  },
  {
    "qName": "PO.Quantity",
    "qTags": [],
    "qSrcTables": [
      "ProductionOverage"
    ]
  },
  {
    "qName": "PO.Quantity_MAX",
    "qTags": [],
    "qSrcTables": [
      "ProductionOverage"
    ]
  },
  {
    "qName": "PO.Quantity_MIN",
    "qTags": [],
    "qSrcTables": [
      "ProductionOverage"
    ]
  },
  {
    "qName": "PO.Waste",
    "qTags": [],
    "qSrcTables": [
      "ProductionOverage"
    ]
  },
  {
    "qName": "PO.Waste_MAX",
    "qTags": [],
    "qSrcTables": [
      "ProductionOverage"
    ]
  },
  {
    "qName": "PO.Waste_MIN",
    "qTags": [],
    "qSrcTables": [
      "ProductionOverage"
    ]
  },
  {
    "qName": "PRed",
    "qTags": [
      "$numeric",
      "$integer"
    ],
    "qSrcTables": [
      "PColorTable"
    ]
  },
  {
    "qName": "PS.Stat_MAX",
    "qTags": [
      "$numeric",
      "$integer"
    ],
    "qSrcTables": [
      "Report"
    ]
  },
  {
    "qName": "PS.Stat_MEAN",
    "qTags": [
      "$numeric",
      "$integer"
    ],
    "qSrcTables": [
      "Report"
    ]
  },
  {
    "qName": "PS.Stat_MIN",
    "qTags": [
      "$numeric",
      "$integer"
    ],
    "qSrcTables": [
      "Report"
    ]
  },
  {
    "qName": "PV.Stat_MAX",
    "qTags": [
      "$numeric"
    ],
    "qSrcTables": [
      "Report"
    ]
  },
  {
    "qName": "PV.Stat_MEAN",
    "qTags": [
      "$numeric"
    ],
    "qSrcTables": [
      "Report"
    ]
  },
  {
    "qName": "PV.Stat_MIN",
    "qTags": [
      "$numeric"
    ],
    "qSrcTables": [
      "Report"
    ]
  },
  {
    "qName": "PWM depot",
    "qTags": [
      "$numeric",
      "$integer"
    ],
    "qSrcTables": [
      "result-result_info"
    ]
  },
  {
    "qName": "PWM site",
    "qTags": [
      "$numeric",
      "$integer"
    ],
    "qSrcTables": [
      "result-result_info"
    ]
  },
  {
    "qName": "Package type",
    "qTags": [
      "$ascii",
      "$text"
    ],
    "qSrcTables": [
      "study-package_type"
    ]
  },
  {
    "qName": "Package type ID",
    "qTags": [
      "$key"
    ],
    "qSrcTables": [
      "Report",
      "ProductionOverage",
      "study-package_type",
      "ColorTable"
    ]
  },
  {
    "qName": "Package type code",
    "qTags": [
      "$ascii",
      "$text"
    ],
    "qSrcTables": [
      "study-package_type"
    ]
  },
  {
    "qName": "Packages demanded",
    "qTags": [
      "$numeric",
      "$integer",
      "$timestamp",
      "$date"
    ],
    "qSrcTables": [
      "result-simulation_realization_summary"
    ]
  },
  {
    "qName": "Packages in stock",
    "qTags": [
      "$numeric",
      "$integer"
    ],
    "qSrcTables": [
      "result-simulation_realization_summary"
    ]
  },
  {
    "qName": "Packages produced",
    "qTags": [
      "$numeric",
      "$integer",
      "$timestamp",
      "$date"
    ],
    "qSrcTables": [
      "result-simulation_realization_summary"
    ]
  },
  {
    "qName": "Packages used",
    "qTags": [
      "$numeric",
      "$integer",
      "$timestamp",
      "$date"
    ],
    "qSrcTables": [
      "result-simulation_realization_summary"
    ]
  },
  {
    "qName": "Packages wasted",
    "qTags": [
      "$numeric",
      "$integer"
    ],
    "qSrcTables": [
      "result-simulation_realization_summary"
    ]
  },
  {
    "qName": "Patient Demand",
    "qTags": [
      "$ascii",
      "$text"
    ],
    "qSrcTables": [
      "Report"
    ]
  },
  {
    "qName": "Patient factor",
    "qTags": [
      "$ascii",
      "$text"
    ],
    "qSrcTables": [
      "Report"
    ]
  },
  {
    "qName": "Patient factor ratio",
    "qTags": [
      "$numeric",
      "$integer"
    ],
    "qSrcTables": [
      "Report"
    ]
  },
  {
    "qName": "Patient group",
    "qTags": [
      "$ascii",
      "$text"
    ],
    "qSrcTables": [
      "study-patient_group"
    ]
  },
  {
    "qName": "Patient group ID",
    "qTags": [
      "$key",
      "$ascii",
      "$text"
    ],
    "qSrcTables": [
      "Report",
      "study-patient_group"
    ]
  },
  {
    "qName": "Patient group code",
    "qTags": [
      "$ascii",
      "$text"
    ],
    "qSrcTables": [
      "study-patient_group"
    ]
  },
  {
    "qName": "Patient group order",
    "qTags": [
      "$numeric",
      "$integer"
    ],
    "qSrcTables": [
      "study-patient_group"
    ]
  },
  {
    "qName": "Prediction window",
    "qTags": [
      "$numeric",
      "$integer"
    ],
    "qSrcTables": [
      "Report"
    ]
  },
  {
    "qName": "Product",
    "qTags": [
      "$ascii",
      "$text"
    ],
    "qSrcTables": [
      "study-product"
    ]
  },
  {
    "qName": "Product ID",
    "qTags": [
      "$key"
    ],
    "qSrcTables": [
      "Report",
      "study-product",
      "PColorTable"
    ]
  },
  {
    "qName": "Product code",
    "qTags": [
      "$ascii",
      "$text"
    ],
    "qSrcTables": [
      "study-product"
    ]
  },
  {
    "qName": "Quantity",
    "qTags": [
      "$numeric",
      "$integer"
    ],
    "qSrcTables": [
      "Report"
    ]
  },
  {
    "qName": "Quarter",
    "qTags": [
      "$ascii",
      "$text"
    ],
    "qSrcTables": [
      "MasterCalendar"
    ]
  },
  {
    "qName": "QuarterYear",
    "qTags": [
      "$ascii",
      "$text"
    ],
    "qSrcTables": [
      "MasterCalendar"
    ]
  },
  {
    "qName": "RL",
    "qTags": [
      "$numeric",
      "$integer"
    ],
    "qSrcTables": [
      "Report"
    ]
  },
  {
    "qName": "Red",
    "qTags": [
      "$numeric",
      "$integer"
    ],
    "qSrcTables": [
      "ColorTable"
    ]
  },
  {
    "qName": "Reevaluation date",
    "qTags": [],
    "qSrcTables": [
      "result-result_info"
    ]
  },
  {
    "qName": "Release date",
    "qTags": [
      "$numeric",
      "$integer",
      "$timestamp",
      "$date"
    ],
    "qSrcTables": [
      "Report"
    ]
  },
  {
    "qName": "Release date Month",
    "qTags": [
      "$numeric",
      "$integer",
      "$timestamp",
      "$date"
    ],
    "qSrcTables": [
      "Report"
    ]
  },
  {
    "qName": "Release date Quarter",
    "qTags": [
      "$ascii",
      "$text"
    ],
    "qSrcTables": [
      "Report"
    ]
  },
  {
    "qName": "Release date Year",
    "qTags": [
      "$numeric",
      "$integer"
    ],
    "qSrcTables": [
      "Report"
    ]
  },
  {
    "qName": "Result name",
    "qTags": [
      "$ascii",
      "$text"
    ],
    "qSrcTables": [
      "result-result_info"
    ]
  },
  {
    "qName": "Risk Stat_MEAN",
    "qTags": [
      "$numeric",
      "$integer"
    ],
    "qSrcTables": [
      "Report"
    ]
  },
  {
    "qName": "Risk measure",
    "qTags": [
      "$ascii",
      "$text"
    ],
    "qSrcTables": [
      "Report"
    ]
  },
  {
    "qName": "SBlue",
    "qTags": [
      "$numeric",
      "$integer"
    ],
    "qSrcTables": [
      "SupplierColorTable"
    ]
  },
  {
    "qName": "SGreen",
    "qTags": [
      "$numeric",
      "$integer"
    ],
    "qSrcTables": [
      "SupplierColorTable"
    ]
  },
  {
    "qName": "SHEX",
    "qTags": [
      "$ascii",
      "$text"
    ],
    "qSrcTables": [
      "SupplierColorTable"
    ]
  },
  {
    "qName": "SKU ID",
    "qTags": [
      "$ascii",
      "$text"
    ],
    "qSrcTables": [
      "study-product"
    ]
  },
  {
    "qName": "SR.Measure",
    "qTags": [
      "$ascii",
      "$text"
    ],
    "qSrcTables": [
      "Report"
    ]
  },
  {
    "qName": "SR.Stat_MAX",
    "qTags": [
      "$numeric",
      "$integer"
    ],
    "qSrcTables": [
      "Report"
    ]
  },
  {
    "qName": "SR.Stat_MEAN",
    "qTags": [
      "$numeric",
      "$integer"
    ],
    "qSrcTables": [
      "Report"
    ]
  },
  {
    "qName": "SR.Stat_MIN",
    "qTags": [
      "$numeric",
      "$integer"
    ],
    "qSrcTables": [
      "Report"
    ]
  },
  {
    "qName": "SRed",
    "qTags": [
      "$numeric",
      "$integer"
    ],
    "qSrcTables": [
      "SupplierColorTable"
    ]
  },
  {
    "qName": "SSCL",
    "qTags": [
      "$numeric",
      "$integer"
    ],
    "qSrcTables": [
      "result-result_info"
    ]
  },
  {
    "qName": "Schedule cost",
    "qTags": [
      "$numeric"
    ],
    "qSrcTables": [
      "Report"
    ]
  },
  {
    "qName": "Shipments Stat_MEAN",
    "qTags": [
      "$numeric",
      "$integer"
    ],
    "qSrcTables": [
      "Report"
    ]
  },
  {
    "qName": "Shipments measure",
    "qTags": [
      "$ascii",
      "$text"
    ],
    "qSrcTables": [
      "Report"
    ]
  },
  {
    "qName": "Shipped quantity",
    "qTags": [
      "$numeric",
      "$integer"
    ],
    "qSrcTables": [
      "Report"
    ]
  },
  {
    "qName": "Shipping cost",
    "qTags": [
      "$numeric"
    ],
    "qSrcTables": [
      "result-simulation_realization_summary"
    ]
  },
  {
    "qName": "Short window",
    "qTags": [
      "$numeric",
      "$integer"
    ],
    "qSrcTables": [
      "Report"
    ]
  },
  {
    "qName": "Site ID",
    "qTags": [
      "$key"
    ],
    "qSrcTables": [
      "Report",
      "corporate-warehouse-7",
      "SiteColorTable"
    ]
  },
  {
    "qName": "Site code",
    "qTags": [
      "$ascii",
      "$text"
    ],
    "qSrcTables": [
      "corporate-warehouse-7"
    ]
  },
  {
    "qName": "Site group",
    "qTags": [
      "$ascii",
      "$text"
    ],
    "qSrcTables": [
      "corporate-warehouse-7"
    ]
  },
  {
    "qName": "Site level",
    "qTags": [
      "$ascii",
      "$text"
    ],
    "qSrcTables": [
      "corporate-warehouse-7"
    ]
  },
  {
    "qName": "Site shipments",
    "qTags": [
      "$numeric",
      "$integer"
    ],
    "qSrcTables": [
      "result-simulation_realization_summary"
    ]
  },
  {
    "qName": "Site shipping cost",
    "qTags": [
      "$numeric",
      "$integer"
    ],
    "qSrcTables": [
      "result-simulation_realization_summary"
    ]
  },
  {
    "qName": "SiteBlue",
    "qTags": [
      "$numeric",
      "$integer"
    ],
    "qSrcTables": [
      "SiteColorTable"
    ]
  },
  {
    "qName": "SiteGreen",
    "qTags": [
      "$numeric",
      "$integer"
    ],
    "qSrcTables": [
      "SiteColorTable"
    ]
  },
  {
    "qName": "SiteHEX",
    "qTags": [
      "$ascii",
      "$text"
    ],
    "qSrcTables": [
      "SiteColorTable"
    ]
  },
  {
    "qName": "SiteRed",
    "qTags": [
      "$numeric",
      "$integer"
    ],
    "qSrcTables": [
      "SiteColorTable"
    ]
  },
  {
    "qName": "Site_Country ID",
    "qTags": [
      "$ascii",
      "$text"
    ],
    "qSrcTables": [
      "corporate-warehouse-7"
    ]
  },
  {
    "qName": "Storage cost",
    "qTags": [
      "$numeric"
    ],
    "qSrcTables": [
      "result-simulation_realization_summary"
    ]
  },
  {
    "qName": "Stratum",
    "qTags": [
      "$ascii",
      "$text"
    ],
    "qSrcTables": [
      "Report"
    ]
  },
  {
    "qName": "Supplier",
    "qTags": [
      "$ascii",
      "$text"
    ],
    "qSrcTables": [
      "corporate-supplier"
    ]
  },
  {
    "qName": "Supplier ID",
    "qTags": [
      "$key"
    ],
    "qSrcTables": [
      "Report",
      "corporate-supplier",
      "SupplierColorTable"
    ]
  },
  {
    "qName": "Supplier code",
    "qTags": [
      "$ascii",
      "$text"
    ],
    "qSrcTables": [
      "corporate-supplier"
    ]
  },
  {
    "qName": "Supplier level",
    "qTags": [
      "$ascii",
      "$text"
    ],
    "qSrcTables": [
      "corporate-supplier"
    ]
  },
  {
    "qName": "TL",
    "qTags": [
      "$numeric",
      "$integer"
    ],
    "qSrcTables": [
      "Report"
    ]
  },
  {
    "qName": "TODose level ID",
    "qTags": [
      "$key",
      "$ascii",
      "$text"
    ],
    "qSrcTables": [
      "Report",
      "study-dose_levelTO"
    ]
  },
  {
    "qName": "TODose level code",
    "qTags": [
      "$ascii",
      "$text"
    ],
    "qSrcTables": [
      "study-dose_levelTO"
    ]
  },
  {
    "qName": "TODose level label",
    "qTags": [
      "$ascii",
      "$text"
    ],
    "qSrcTables": [
      "study-dose_levelTO"
    ]
  },
  {
    "qName": "TODose level order",
    "qTags": [
      "$numeric",
      "$integer"
    ],
    "qSrcTables": [
      "study-dose_levelTO"
    ]
  },
  {
    "qName": "TOVisit ID",
    "qTags": [
      "$key",
      "$ascii",
      "$text"
    ],
    "qSrcTables": [
      "Report",
      "study-visitTO"
    ]
  },
  {
    "qName": "TOVisit code",
    "qTags": [
      "$ascii",
      "$text"
    ],
    "qSrcTables": [
      "study-visitTO"
    ]
  },
  {
    "qName": "TOVisit label",
    "qTags": [
      "$ascii",
      "$text"
    ],
    "qSrcTables": [
      "study-visitTO"
    ]
  },
  {
    "qName": "TOVisit order",
    "qTags": [
      "$numeric",
      "$integer"
    ],
    "qSrcTables": [
      "study-visitTO"
    ]
  },
  {
    "qName": "TOstudy-dose_level.study-tag",
    "qTags": [
      "$ascii",
      "$text"
    ],
    "qSrcTables": [
      "study-dose_levelTO"
    ]
  },
  {
    "qName": "TOstudy-visit.study-tag",
    "qTags": [
      "$ascii",
      "$text"
    ],
    "qSrcTables": [
      "study-visitTO"
    ]
  },
  {
    "qName": "Temperature ID",
    "qTags": [
      "$key",
      "$ascii",
      "$text"
    ],
    "qSrcTables": [
      "Report",
      "corporate-temperature"
    ]
  },
  {
    "qName": "Temperature code",
    "qTags": [
      "$ascii",
      "$text"
    ],
    "qSrcTables": [
      "corporate-temperature"
    ]
  },
  {
    "qName": "Temperature type",
    "qTags": [
      "$ascii",
      "$text"
    ],
    "qSrcTables": [
      "corporate-temperature"
    ]
  },
  {
    "qName": "Titration probability",
    "qTags": [
      "$numeric"
    ],
    "qSrcTables": [
      "Report"
    ]
  },
  {
    "qName": "Total Quantity needed",
    "qTags": [],
    "qSrcTables": [
      "Report"
    ]
  },
  {
    "qName": "Total Quantity shipped",
    "qTags": [],
    "qSrcTables": [
      "Report"
    ]
  },
  {
    "qName": "Total cost",
    "qTags": [
      "$numeric"
    ],
    "qSrcTables": [
      "result-simulation_realization_summary"
    ]
  },
  {
    "qName": "Treatment arm",
    "qTags": [
      "$ascii",
      "$text"
    ],
    "qSrcTables": [
      "study-treatment_arm"
    ]
  },
  {
    "qName": "TreatmentArm ID",
    "qTags": [
      "$key",
      "$ascii",
      "$text"
    ],
    "qSrcTables": [
      "Report",
      "study-treatment_arm"
    ]
  },
  {
    "qName": "TreatmentArm code",
    "qTags": [
      "$ascii",
      "$text"
    ],
    "qSrcTables": [
      "study-treatment_arm"
    ]
  },
  {
    "qName": "TreatmentArm order",
    "qTags": [
      "$numeric",
      "$integer"
    ],
    "qSrcTables": [
      "study-treatment_arm"
    ]
  },
  {
    "qName": "Type_No",
    "qTags": [
      "$numeric",
      "$integer"
    ],
    "qSrcTables": [
      "Quantity_Legend"
    ]
  },
  {
    "qName": "Type_Quantity",
    "qTags": [
      "$ascii",
      "$text"
    ],
    "qSrcTables": [
      "Quantity_Legend"
    ]
  },
  {
    "qName": "Urgent lead time",
    "qTags": [],
    "qSrcTables": [
      "Report"
    ]
  },
  {
    "qName": "Visit",
    "qTags": [
      "$ascii",
      "$text"
    ],
    "qSrcTables": [
      "study-visit"
    ]
  },
  {
    "qName": "Visit ID",
    "qTags": [
      "$key",
      "$ascii",
      "$text"
    ],
    "qSrcTables": [
      "Report",
      "study-visit"
    ]
  },
  {
    "qName": "Visit code",
    "qTags": [
      "$ascii",
      "$text"
    ],
    "qSrcTables": [
      "study-visit"
    ]
  },
  {
    "qName": "Visit order",
    "qTags": [
      "$numeric",
      "$integer"
    ],
    "qSrcTables": [
      "study-visit"
    ]
  },
  {
    "qName": "Warehouse ID",
    "qTags": [
      "$key",
      "$ascii",
      "$text"
    ],
    "qSrcTables": [
      "Report",
      "corporate-warehouse"
    ]
  },
  {
    "qName": "Warehouse code",
    "qTags": [
      "$ascii",
      "$text"
    ],
    "qSrcTables": [
      "corporate-warehouse"
    ]
  },
  {
    "qName": "Warehouse level",
    "qTags": [
      "$ascii",
      "$text"
    ],
    "qSrcTables": [
      "corporate-warehouse"
    ]
  },
  {
    "qName": "Year",
    "qTags": [
      "$numeric",
      "$integer"
    ],
    "qSrcTables": [
      "MasterCalendar"
    ]
  },
  {
    "qName": "executive_summary_field",
    "qTags": [
      "$ascii",
      "$text"
    ],
    "qSrcTables": [
      "Glossary"
    ]
  },
  {
    "qName": "executive_summary_field_description",
    "qTags": [
      "$ascii",
      "$text"
    ],
    "qSrcTables": [
      "Glossary"
    ]
  },
  {
    "qName": "executive_summary_field_order",
    "qTags": [
      "$numeric",
      "$integer"
    ],
    "qSrcTables": [
      "Glossary"
    ]
  },
  {
    "qName": "executive_summary_overage_field",
    "qTags": [
      "$ascii",
      "$text"
    ],
    "qSrcTables": [
      "Glossary_Overage"
    ]
  },
  {
    "qName": "executive_summary_overage_field_description",
    "qTags": [
      "$ascii",
      "$text"
    ],
    "qSrcTables": [
      "Glossary_Overage"
    ]
  },
  {
    "qName": "executive_summary_overage_field_order",
    "qTags": [
      "$numeric",
      "$integer"
    ],
    "qSrcTables": [
      "Glossary_Overage"
    ]
  },
  {
    "qName": "executive_summary_overage_past_field",
    "qTags": [
      "$ascii",
      "$text"
    ],
    "qSrcTables": [
      "Glossary_Overage_Past"
    ]
  },
  {
    "qName": "executive_summary_overage_past_field_description",
    "qTags": [
      "$ascii",
      "$text"
    ],
    "qSrcTables": [
      "Glossary_Overage_Past"
    ]
  },
  {
    "qName": "executive_summary_overage_past_field_order",
    "qTags": [
      "$numeric",
      "$integer"
    ],
    "qSrcTables": [
      "Glossary_Overage_Past"
    ]
  },
  {
    "qName": "expiry_No",
    "qTags": [
      "$numeric",
      "$integer"
    ],
    "qSrcTables": [
      "Expiry_extension.Color_Legend"
    ]
  },
  {
    "qName": "is_demand",
    "qTags": [
      "$ascii",
      "$text"
    ],
    "qSrcTables": [
      "Report"
    ]
  },
  {
    "qName": "is_site",
    "qTags": [
      "$ascii",
      "$text"
    ],
    "qSrcTables": [
      "Report"
    ]
  },
  {
    "qName": "result-package_type_inventory_level-site_label",
    "qTags": [
      "$ascii",
      "$text"
    ],
    "qSrcTables": [
      "Report"
    ]
  },
  {
    "qName": "result-production_schedule-production",
    "qTags": [
      "$ascii",
      "$text"
    ],
    "qSrcTables": [
      "Report"
    ]
  },
  {
    "qName": "result-relevant_past_production-id",
    "qTags": [],
    "qSrcTables": [
      "Report"
    ]
  },
  {
    "qName": "result-result_info-id",
    "qTags": [
      "$ascii",
      "$text"
    ],
    "qSrcTables": [
      "result-result_info"
    ]
  },
  {
    "qName": "result-result_info.result-tag",
    "qTags": [
      "$ascii",
      "$text"
    ],
    "qSrcTables": [
      "result-result_info"
    ]
  },
  {
    "qName": "result-simulation_summary-id",
    "qTags": [
      "$ascii",
      "$text"
    ],
    "qSrcTables": [
      "result-simulation_realization_summary"
    ]
  },
  {
    "qName": "result-simulation_summary.result-tag",
    "qTags": [
      "$ascii",
      "$text"
    ],
    "qSrcTables": [
      "result-simulation_realization_summary"
    ]
  },
  {
    "qName": "result-warehouse_inventory_level-site_label",
    "qTags": [
      "$ascii",
      "$text"
    ],
    "qSrcTables": [
      "Report"
    ]
  },
  {
    "qName": "study-dose_level.study-tag",
    "qTags": [
      "$ascii",
      "$text"
    ],
    "qSrcTables": [
      "study-dose_levelFROM"
    ]
  },
  {
    "qName": "study-label_group.study-tag",
    "qTags": [
      "$ascii",
      "$text"
    ],
    "qSrcTables": [
      "study-label_group"
    ]
  },
  {
    "qName": "study-package_type.study-tag",
    "qTags": [
      "$ascii",
      "$text"
    ],
    "qSrcTables": [
      "study-package_type"
    ]
  },
  {
    "qName": "study-patient_group.study-tag",
    "qTags": [
      "$ascii",
      "$text"
    ],
    "qSrcTables": [
      "study-patient_group"
    ]
  },
  {
    "qName": "study-product.study-tag",
    "qTags": [
      "$ascii",
      "$text"
    ],
    "qSrcTables": [
      "study-product"
    ]
  },
  {
    "qName": "study-treatment_arm.study-tag",
    "qTags": [
      "$ascii",
      "$text"
    ],
    "qSrcTables": [
      "study-treatment_arm"
    ]
  },
  {
    "qName": "study-visit.study-tag",
    "qTags": [
      "$ascii",
      "$text"
    ],
    "qSrcTables": [
      "study-visit"
    ]
  }
]