{
  "qProperty": {
    "qInfo": {
      "qId": "22822288-cccc-4e8d-8695-3e6dde7d2cf6",
      "qType": "sheet"
    },
    "qMetaDef": {
      "title": "Patient titrations & dose levels",
      "description": ""
    },
    "rank": 2.98809814453125,
    "thumbnail": {
      "qStaticContentUrlDef": {
        "qUrl": "/appcontent/f939c40e-e294-4d8d-8f15-8283cc8a6343/Patient enrollment-02.jpg"
      }
    },
    "columns": 36,
    "rows": 18,
    "cells": [
      {
        "name": "a5dd2a90-307c-48c1-baa2-de3425eeaaea",
        "type": "table",
        "col": 20,
        "row": 0,
        "colspan": 11,
        "rowspan": 15,
        "bounds": {
          "y": 0,
          "x": 54.166666666666664,
          "width": 33.33333333333333,
          "height": 83.33333333333334
        }
      },
      {
        "name": "5fe6c459-1d21-4655-9868-a66be28da12d",
        "type": "linechart",
        "col": 0,
        "row": 0,
        "colspan": 19,
        "rowspan": 15,
        "bounds": {
          "y": 0,
          "x": 0,
          "width": 54.166666666666664,
          "height": 83.33333333333334
        }
      },
      {
        "name": "SXtD",
        "type": "action-button",
        "col": 32,
        "row": 13,
        "colspan": 4,
        "rowspan": 1,
        "bounds": {
          "y": 72.22222222222221,
          "x": 88.88888888888889,
          "width": 11.11111111111111,
          "height": 5.555555555555555
        }
      },
      {
        "name": "zrjXJc",
        "type": "action-button",
        "col": 32,
        "row": 14,
        "colspan": 4,
        "rowspan": 1,
        "bounds": {
          "y": 77.77777777777779,
          "x": 88.88888888888889,
          "width": 11.11111111111111,
          "height": 5.555555555555555
        }
      },
      {
        "name": "YnYz",
        "type": "action-button",
        "col": 4,
        "row": 16,
        "colspan": 4,
        "rowspan": 1,
        "bounds": {
          "y": 88.88888888888889,
          "x": 11.11111111111111,
          "width": 11.11111111111111,
          "height": 5.555555555555555
        }
      },
      {
        "name": "ameYRnP",
        "type": "action-button",
        "col": 8,
        "row": 16,
        "colspan": 4,
        "rowspan": 1,
        "bounds": {
          "y": 88.88888888888889,
          "x": 22.22222222222222,
          "width": 11.11111111111111,
          "height": 5.555555555555555
        }
      },
      {
        "name": "EXVXp",
        "type": "action-button",
        "col": 12,
        "row": 16,
        "colspan": 4,
        "rowspan": 1,
        "bounds": {
          "y": 88.88888888888889,
          "x": 33.33333333333333,
          "width": 11.11111111111111,
          "height": 5.555555555555555
        }
      },
      {
        "name": "HxvmRFm",
        "type": "action-button",
        "col": 12,
        "row": 17,
        "colspan": 4,
        "rowspan": 1,
        "bounds": {
          "y": 94.44444444444444,
          "x": 33.33333333333333,
          "width": 11.11111111111111,
          "height": 5.555555555555555
        }
      },
      {
        "name": "xgrbucP",
        "type": "action-button",
        "col": 16,
        "row": 16,
        "colspan": 4,
        "rowspan": 1,
        "bounds": {
          "y": 88.88888888888889,
          "x": 44.44444444444444,
          "width": 11.11111111111111,
          "height": 5.555555555555555
        }
      },
      {
        "name": "SKpmZp",
        "type": "action-button",
        "col": 16,
        "row": 17,
        "colspan": 4,
        "rowspan": 1,
        "bounds": {
          "y": 94.44444444444444,
          "x": 44.44444444444444,
          "width": 11.11111111111111,
          "height": 5.555555555555555
        }
      },
      {
        "name": "TdmSkk",
        "type": "action-button",
        "col": 20,
        "row": 16,
        "colspan": 4,
        "rowspan": 1,
        "bounds": {
          "y": 88.88888888888889,
          "x": 55.55555555555556,
          "width": 11.11111111111111,
          "height": 5.555555555555555
        }
      },
      {
        "name": "mrWBPn",
        "type": "action-button",
        "col": 20,
        "row": 17,
        "colspan": 4,
        "rowspan": 1,
        "bounds": {
          "y": 94.44444444444444,
          "x": 55.55555555555556,
          "width": 11.11111111111111,
          "height": 5.555555555555555
        }
      },
      {
        "name": "PQFdd",
        "type": "action-button",
        "col": 24,
        "row": 16,
        "colspan": 4,
        "rowspan": 1,
        "bounds": {
          "y": 88.88888888888889,
          "x": 66.66666666666666,
          "width": 11.11111111111111,
          "height": 5.555555555555555
        }
      },
      {
        "name": "WkUYUM",
        "type": "action-button",
        "col": 24,
        "row": 17,
        "colspan": 4,
        "rowspan": 1,
        "bounds": {
          "y": 94.44444444444444,
          "x": 66.66666666666666,
          "width": 11.11111111111111,
          "height": 5.555555555555555
        }
      },
      {
        "name": "PDLmWFg",
        "type": "filterpane",
        "col": 32,
        "row": 0,
        "colspan": 4,
        "rowspan": 1,
        "bounds": {
          "y": 0,
          "x": 88.88888888888889,
          "width": 11.11111111111111,
          "height": 5.555555555555555
        }
      },
      {
        "name": "tksMf",
        "type": "filterpane",
        "col": 32,
        "row": 1,
        "colspan": 4,
        "rowspan": 1,
        "bounds": {
          "y": 5.555555555555555,
          "x": 88.88888888888889,
          "width": 11.11111111111111,
          "height": 5.555555555555555
        }
      },
      {
        "name": "qcsCWFj",
        "type": "filterpane",
        "col": 32,
        "row": 2,
        "colspan": 4,
        "rowspan": 1,
        "bounds": {
          "y": 11.11111111111111,
          "x": 88.88888888888889,
          "width": 11.11111111111111,
          "height": 5.555555555555555
        }
      },
      {
        "name": "ZkygpZ",
        "type": "kpi",
        "col": 32,
        "row": 9,
        "colspan": 4,
        "rowspan": 3,
        "bounds": {
          "y": 50,
          "x": 88.88888888888889,
          "width": 11.11111111111111,
          "height": 16.666666666666664
        }
      },
      {
        "name": "YTJyFjA",
        "type": "filterpane",
        "col": 32,
        "row": 3,
        "colspan": 4,
        "rowspan": 1,
        "bounds": {
          "y": 16.666666666666664,
          "x": 88.88888888888889,
          "width": 11.11111111111111,
          "height": 5.555555555555555
        }
      },
      {
        "name": "YQVDUtJ",
        "type": "action-button",
        "col": 32,
        "row": 17,
        "colspan": 4,
        "rowspan": 1,
        "bounds": {
          "y": 94.44444444444444,
          "x": 88.88888888888889,
          "width": 11.11111111111111,
          "height": 5.555555555555555
        }
      },
      {
        "name": "TuAQVM",
        "type": "action-button",
        "col": 32,
        "row": 16,
        "colspan": 4,
        "rowspan": 1,
        "bounds": {
          "y": 88.88888888888889,
          "x": 88.88888888888889,
          "width": 11.11111111111111,
          "height": 5.555555555555555
        }
      },
      {
        "name": "ptNdWB",
        "type": "action-button",
        "col": 28,
        "row": 16,
        "colspan": 4,
        "rowspan": 1,
        "bounds": {
          "y": 88.88888888888889,
          "x": 77.77777777777779,
          "width": 11.11111111111111,
          "height": 5.555555555555555
        }
      },
      {
        "name": "wrjM",
        "type": "action-button",
        "col": 28,
        "row": 17,
        "colspan": 4,
        "rowspan": 1,
        "bounds": {
          "y": 94.44444444444444,
          "x": 77.77777777777779,
          "width": 11.11111111111111,
          "height": 5.555555555555555
        }
      }
    ],
    "qChildListDef": {
      "qData": {
        "title": "/title"
      }
    },
    "gridResolution": "large"
  },
  "qChildren": [
    {
      "qProperty": {
        "qInfo": {
          "qId": "5fe6c459-1d21-4655-9868-a66be28da12d",
          "qType": "linechart"
        },
        "qMetaDef": {},
        "qHyperCubeDef": {
          "qDimensions": [
            {
              "qDef": {
                "qGrouping": "N",
                "qFieldDefs": [
                  "=Visit"
                ],
                "qFieldLabels": [
                  "Visit"
                ],
                "qSortCriterias": [
                  {
                    "qSortByLoadOrder": 1,
                    "qSortByExpression": 1,
                    "qExpression": {
                      "qv": "=[Visit order]"
                    }
                  }
                ],
                "qNumberPresentations": [],
                "qActiveField": 0,
                "autoSort": false,
                "cId": "jrZUsrj",
                "othersLabel": "Others"
              },
              "qOtherTotalSpec": {
                "qOtherMode": "OTHER_OFF",
                "qOtherCounted": {
                  "qv": "10"
                },
                "qOtherLimit": {
                  "qv": "0"
                },
                "qOtherLimitMode": "OTHER_GE_LIMIT",
                "qForceBadValueKeeping": true,
                "qApplyEvenWhenPossiblyWrongResult": true,
                "qOtherSortMode": "OTHER_SORT_DESCENDING",
                "qTotalMode": "TOTAL_OFF",
                "qReferencedExpression": {}
              },
              "qOtherLabel": {
                "qv": "Others"
              },
              "qTotalLabel": {},
              "qCalcCond": {},
              "qAttributeExpressions": [],
              "qAttributeDimensions": [],
              "qCalcCondition": {
                "qCond": {},
                "qMsg": {}
              }
            },
            {
              "qDef": {
                "qGrouping": "N",
                "qFieldDefs": [
                  "Dose level"
                ],
                "qFieldLabels": [
                  "Dose level"
                ],
                "qSortCriterias": [
                  {
                    "qSortByAscii": 1,
                    "qSortByLoadOrder": 1,
                    "qSortByExpression": 1,
                    "qExpression": {
                      "qv": "[Dose level order]"
                    }
                  }
                ],
                "qNumberPresentations": [],
                "qActiveField": 0,
                "autoSort": false,
                "cId": "jGwfV",
                "othersLabel": "Others"
              },
              "qOtherTotalSpec": {
                "qOtherMode": "OTHER_OFF",
                "qOtherCounted": {
                  "qv": "10"
                },
                "qOtherLimit": {
                  "qv": "0"
                },
                "qOtherLimitMode": "OTHER_GE_LIMIT",
                "qForceBadValueKeeping": true,
                "qApplyEvenWhenPossiblyWrongResult": true,
                "qOtherSortMode": "OTHER_SORT_DESCENDING",
                "qTotalMode": "TOTAL_OFF",
                "qReferencedExpression": {}
              },
              "qOtherLabel": {
                "qv": "Others"
              },
              "qTotalLabel": {},
              "qCalcCond": {},
              "qAttributeExpressions": [],
              "qAttributeDimensions": [
                {
                  "qDef": "[Dose level]",
                  "qSortBy": {
                    "qSortByAscii": 1,
                    "qExpression": {}
                  },
                  "qAttribute": true,
                  "id": "colorByAlternative",
                  "label": "Dose level"
                }
              ],
              "qCalcCondition": {
                "qCond": {},
                "qMsg": {}
              }
            }
          ],
          "qMeasures": [
            {
              "qDef": {
                "qLabel": "Simulation results",
                "qTags": [],
                "qGrouping": "N",
                "qDef": "Sum({<[DataType]={'Patient at state'}>}[PS.Stat_MEAN])",
                "qNumFormat": {
                  "qType": "F",
                  "qnDec": 2,
                  "qUseThou": 0,
                  "qFmt": "#,##0.0",
                  "qDec": ".",
                  "qThou": ","
                },
                "qAccumulate": 0,
                "qActiveExpression": 0,
                "qExpressions": [],
                "autoSort": true,
                "cId": "GWzM",
                "numFormatFromTemplate": true,
                "isCustomFormatted": false
              },
              "qSortBy": {
                "qSortByNumeric": -1,
                "qSortByLoadOrder": 1,
                "qExpression": {}
              },
              "qAttributeExpressions": [],
              "qAttributeDimensions": [],
              "qCalcCond": {},
              "qCalcCondition": {
                "qCond": {},
                "qMsg": {}
              },
              "qTrendLines": [],
              "qMiniChartDef": {
                "qSortBy": {
                  "qExpression": {}
                },
                "qOtherTotalSpec": {
                  "qOtherMode": "OTHER_OFF",
                  "qOtherCounted": {},
                  "qOtherLimit": {},
                  "qOtherLimitMode": "OTHER_GT_LIMIT",
                  "qForceBadValueKeeping": true,
                  "qApplyEvenWhenPossiblyWrongResult": true,
                  "qOtherSortMode": "OTHER_SORT_DESCENDING",
                  "qTotalMode": "TOTAL_OFF",
                  "qReferencedExpression": {}
                },
                "qMaxNumberPoints": -1,
                "qAttributeExpressions": []
              }
            }
          ],
          "qInterColumnSortOrder": [
            0,
            2,
            1
          ],
          "qSuppressMissing": true,
          "qInitialDataFetch": [
            {
              "qLeft": 0,
              "qTop": 0,
              "qWidth": 17,
              "qHeight": 500
            }
          ],
          "qReductionMode": "N",
          "qMode": "K",
          "qPseudoDimPos": -1,
          "qNoOfLeftDims": -1,
          "qAlwaysFullyExpanded": true,
          "qMaxStackedCells": 5000,
          "qCalcCond": {
            "qv": "vL.ShowConditionFile "
          },
          "qTitle": {},
          "qCalcCondition": {
            "qCond": {},
            "qMsg": {
              "qv": "='Please select a single Source File'"
            }
          },
          "qColumnOrder": [],
          "qExpansionState": [],
          "qDynamicScript": [],
          "customErrorMessage": {
            "calcCond": ""
          },
          "qLayoutExclude": {
            "qHyperCubeDef": {
              "qDimensions": [],
              "qMeasures": [],
              "qInterColumnSortOrder": [],
              "qInitialDataFetch": [],
              "qReductionMode": "N",
              "qMode": "S",
              "qPseudoDimPos": -1,
              "qNoOfLeftDims": -1,
              "qMaxStackedCells": 5000,
              "qCalcCond": {},
              "qTitle": {},
              "qCalcCondition": {
                "qCond": {},
                "qMsg": {}
              },
              "qColumnOrder": [],
              "qExpansionState": [],
              "qDynamicScript": []
            }
          }
        },
        "refLine": {
          "refLines": []
        },
        "showTitles": true,
        "title": "Total number of patients at each visit per dose level",
        "subtitle": "",
        "footnote": "",
        "showDetails": false,
        "lineType": "line",
        "stackedArea": false,
        "separateStacking": true,
        "scrollStartPos": 0,
        "nullMode": "zero",
        "dataPoint": {
          "show": false,
          "showLabels": false
        },
        "gridLine": {
          "auto": true,
          "spacing": 2
        },
        "color": {
          "auto": false,
          "mode": "byDimension",
          "useBaseColors": "off",
          "paletteColor": {
            "index": -1,
            "color": "#00acc2"
          },
          "useDimColVal": false,
          "persistent": true,
          "expressionIsColor": true,
          "expressionLabel": "",
          "measureScheme": "sg",
          "reverseScheme": false,
          "dimensionScheme": "100",
          "autoMinMax": true,
          "measureMin": 0,
          "measureMax": 10,
          "singleColor": 3,
          "byMeasureDef": {
            "label": "Simulated patient drop-out",
            "key": "DpLDxQ",
            "type": "libraryItem"
          },
          "altLabel": "Dose level",
          "byDimDef": {
            "label": "Dose level",
            "key": "[Dose level]",
            "type": "expression"
          },
          "useMeasureGradient": false
        },
        "legend": {
          "show": true,
          "dock": "right",
          "showTitle": true
        },
        "dimensionAxis": {
          "continuousAuto": true,
          "show": "labels",
          "label": "auto",
          "dock": "near"
        },
        "preferContinuousAxis": true,
        "measureAxis": {
          "show": "labels",
          "dock": "near",
          "spacing": 1,
          "autoMinMax": true,
          "minMax": "min",
          "min": 0,
          "max": 10,
          "logarithmic": false
        },
        "visualization": "linechart"
      },
      "qChildren": []
    },
    {
      "qProperty": {
        "qInfo": {
          "qId": "SXtD",
          "qType": "action-button"
        },
        "qMetaDef": {},
        "actions": [],
        "navigation": {
          "action": "goToSheet",
          "sheet": "09982e36-83c0-4f62-ad70-722b2e6a4544",
          "story": "",
          "websiteUrl": "",
          "sameWindow": false
        },
        "useEnabledCondition": false,
        "enabledCondition": 1,
        "showTitles": false,
        "title": "",
        "subtitle": "",
        "footnote": "",
        "disableNavMenu": true,
        "showDetails": false,
        "style": {
          "label": {
            "qStringExpression": {
              "qExpr": "=\r\nRepeat(chr(160),8)\n&\n'Drop-out'\n&\nRepeat(chr(160),8)"
            }
          },
          "font": {
            "size": 0.58,
            "useColorExpression": false,
            "color": {
              "index": 1,
              "color": "#ffffff"
            },
            "colorExpression": "",
            "style": {
              "bold": false,
              "italic": false,
              "underline": false
            },
            "align": "center"
          },
          "background": {
            "useColorExpression": false,
            "color": {
              "index": -1,
              "color": "#0AABC2"
            },
            "colorExpression": "",
            "useImage": false,
            "size": "auto",
            "position": "centerCenter",
            "url": {
              "qStaticContentUrlDef": {}
            }
          },
          "border": {
            "useBorder": false,
            "radius": 0,
            "width": 0.055,
            "useColorExpression": false,
            "color": {
              "index": -1,
              "color": "#0AABC2"
            },
            "colorExpression": ""
          },
          "icon": {
            "useIcon": false,
            "iconType": "",
            "position": "left"
          }
        },
        "visualization": "action-button",
        "props": {
          "fullWidth": "auto",
          "useEnabledCondition": null
        },
        "qLayoutExclude": {
          "disabled": {}
        },
        "masterVersion": 0.96
      },
      "qChildren": []
    },
    {
      "qProperty": {
        "qInfo": {
          "qId": "a5dd2a90-307c-48c1-baa2-de3425eeaaea",
          "qType": "pivot-table"
        },
        "qMetaDef": {},
        "qHyperCubeDef": {
          "qDimensions": [
            {
              "qDef": {
                "qGrouping": "N",
                "qFieldDefs": [
                  "=Visit"
                ],
                "qFieldLabels": [
                  "Visit"
                ],
                "qSortCriterias": [
                  {
                    "qSortByAscii": 1,
                    "qSortByLoadOrder": 1,
                    "qSortByExpression": 1,
                    "qExpression": {
                      "qv": "[Visit order]"
                    }
                  }
                ],
                "qNumberPresentations": [],
                "qActiveField": 0,
                "autoSort": false,
                "cId": "XdpEUD",
                "othersLabel": "Others",
                "representation": {
                  "type": "text"
                }
              },
              "qOtherTotalSpec": {
                "qOtherMode": "OTHER_OFF",
                "qOtherCounted": {
                  "qv": "10"
                },
                "qOtherLimit": {
                  "qv": "0"
                },
                "qOtherLimitMode": "OTHER_GE_LIMIT",
                "qForceBadValueKeeping": true,
                "qApplyEvenWhenPossiblyWrongResult": true,
                "qOtherSortMode": "OTHER_SORT_DESCENDING",
                "qTotalMode": "TOTAL_OFF",
                "qReferencedExpression": {}
              },
              "qOtherLabel": {
                "qv": "Others"
              },
              "qTotalLabel": {
                "qv": "Totals"
              },
              "qCalcCond": {},
              "qAttributeExpressions": [],
              "qAttributeDimensions": [],
              "qCalcCondition": {
                "qCond": {},
                "qMsg": {}
              },
              "othersLabel": "Others"
            },
            {
              "qDef": {
                "qGrouping": "N",
                "qFieldDefs": [
                  "=[Dose level]"
                ],
                "qFieldLabels": [
                  "Dose level"
                ],
                "qSortCriterias": [
                  {
                    "qSortByAscii": 1,
                    "qSortByLoadOrder": 1,
                    "qSortByExpression": 1,
                    "qExpression": {
                      "qv": "[Dose level order]"
                    }
                  }
                ],
                "qNumberPresentations": [],
                "qActiveField": 0,
                "autoSort": false,
                "cId": "CLdJWm",
                "othersLabel": "Others"
              },
              "qOtherTotalSpec": {
                "qOtherMode": "OTHER_OFF",
                "qOtherCounted": {
                  "qv": "10"
                },
                "qOtherLimit": {
                  "qv": "0"
                },
                "qOtherLimitMode": "OTHER_GE_LIMIT",
                "qForceBadValueKeeping": true,
                "qApplyEvenWhenPossiblyWrongResult": true,
                "qOtherSortMode": "OTHER_SORT_DESCENDING",
                "qTotalMode": "TOTAL_OFF",
                "qReferencedExpression": {}
              },
              "qOtherLabel": {
                "qv": "Others"
              },
              "qTotalLabel": {
                "qv": "Totals"
              },
              "qCalcCond": {},
              "qAttributeExpressions": [],
              "qAttributeDimensions": [],
              "qCalcCondition": {
                "qCond": {},
                "qMsg": {}
              }
            }
          ],
          "qMeasures": [
            {
              "qDef": {
                "qLabel": "Titration",
                "qTags": [],
                "qGrouping": "N",
                "qDef": "Sum({<[DataType]={'Patient at state'}>}[PS.Stat_MEAN])",
                "qNumFormat": {
                  "qType": "F",
                  "qnDec": 2,
                  "qUseThou": 0,
                  "qFmt": "#,##0.0",
                  "qDec": ".",
                  "qThou": ","
                },
                "qAccumulate": 0,
                "qActiveExpression": 0,
                "qExpressions": [],
                "autoSort": true,
                "cId": "mzmPsxj",
                "numFormatFromTemplate": true
              },
              "qSortBy": {
                "qSortByNumeric": -1,
                "qSortByLoadOrder": 1,
                "qExpression": {}
              },
              "qAttributeExpressions": [
                {
                  "qAttribute": true
                },
                {
                  "qAttribute": true
                }
              ],
              "qAttributeDimensions": [],
              "qCalcCond": {},
              "qCalcCondition": {
                "qCond": {},
                "qMsg": {}
              },
              "qTrendLines": [],
              "qMiniChartDef": {
                "qSortBy": {
                  "qExpression": {}
                },
                "qOtherTotalSpec": {
                  "qOtherMode": "OTHER_OFF",
                  "qOtherCounted": {},
                  "qOtherLimit": {},
                  "qOtherLimitMode": "OTHER_GT_LIMIT",
                  "qForceBadValueKeeping": true,
                  "qApplyEvenWhenPossiblyWrongResult": true,
                  "qOtherSortMode": "OTHER_SORT_DESCENDING",
                  "qTotalMode": "TOTAL_OFF",
                  "qReferencedExpression": {}
                },
                "qMaxNumberPoints": -1,
                "qAttributeExpressions": []
              }
            }
          ],
          "qInterColumnSortOrder": [
            0,
            1
          ],
          "qSuppressMissing": true,
          "qInitialDataFetch": [
            {
              "qLeft": 0,
              "qTop": 0,
              "qWidth": 50,
              "qHeight": 50
            }
          ],
          "qReductionMode": "N",
          "qMode": "P",
          "qPseudoDimPos": -1,
          "qNoOfLeftDims": 1,
          "qMaxStackedCells": 5000,
          "qShowTotalsAbove": true,
          "qIndentMode": true,
          "qCalcCond": {
            "qv": "vL.ShowConditionFile"
          },
          "qTitle": {},
          "qCalcCondition": {
            "qCond": {},
            "qMsg": {}
          },
          "qColumnOrder": [],
          "qExpansionState": [],
          "qDynamicScript": [],
          "columnOrder": [
            0,
            1
          ],
          "columnWidths": [],
          "customErrorMessage": {
            "calcCond": "Please select a single Source File"
          },
          "qLayoutExclude": {
            "qHyperCubeDef": {
              "qDimensions": [],
              "qMeasures": [],
              "qInterColumnSortOrder": [],
              "qInitialDataFetch": [],
              "qReductionMode": "N",
              "qMode": "S",
              "qPseudoDimPos": -1,
              "qNoOfLeftDims": -1,
              "qMaxStackedCells": 5000,
              "qCalcCond": {},
              "qTitle": {},
              "qCalcCondition": {
                "qCond": {},
                "qMsg": {}
              },
              "qColumnOrder": [],
              "qExpansionState": [],
              "qDynamicScript": []
            }
          }
        },
        "showTitles": false,
        "title": "",
        "subtitle": "",
        "footnote": "",
        "showDetails": false,
        "visualization": "pivot-table",
        "qLayoutExclude": {}
      },
      "qChildren": []
    },
    {
      "qProperty": {
        "qInfo": {
          "qId": "YQVDUtJ",
          "qType": "action-button"
        },
        "qExtendsId": "a5032de1-0a03-439f-94ac-a5c37e909828",
        "qMetaDef": {}
      },
      "qChildren": []
    },
    {
      "qProperty": {
        "qInfo": {
          "qId": "YTJyFjA",
          "qType": "filterpane"
        },
        "qMetaDef": {},
        "qChildListDef": {
          "qData": {
            "info": "/qInfo"
          }
        },
        "showTitles": false,
        "title": "",
        "subtitle": "",
        "footnote": "",
        "showDetails": false,
        "visualization": "filterpane",
        "disableNavMenu": true
      },
      "qChildren": [
        {
          "qProperty": {
            "qInfo": {
              "qId": "BAWdyMr",
              "qType": "listbox"
            },
            "qMetaDef": {},
            "qListObjectDef": {
              "qDef": {
                "qGrouping": "N",
                "qFieldDefs": [
                  "Patient group"
                ],
                "qFieldLabels": [
                  "Patient group"
                ],
                "qSortCriterias": [
                  {
                    "qSortByState": 1,
                    "qSortByNumeric": 1,
                    "qSortByAscii": 1,
                    "qSortByLoadOrder": 1,
                    "qExpression": {}
                  }
                ],
                "qNumberPresentations": [],
                "qActiveField": 0,
                "autoSort": true,
                "cId": "EhpTj"
              },
              "qFrequencyMode": "N",
              "qShowAlternatives": true,
              "qInitialDataFetch": [],
              "qExpressions": [],
              "qOtherTotalSpec": {}
            },
            "showTitles": true,
            "title": "Patient group",
            "subtitle": "",
            "footnote": "",
            "showDetails": false,
            "visualization": "listbox"
          },
          "qChildren": []
        }
      ]
    },
    {
      "qProperty": {
        "qInfo": {
          "qId": "EXVXp",
          "qType": "action-button"
        },
        "qExtendsId": "d793bc06-1d34-4f28-93d5-c811aff834c6",
        "qMetaDef": {}
      },
      "qChildren": []
    },
    {
      "qProperty": {
        "qInfo": {
          "qId": "YnYz",
          "qType": "action-button"
        },
        "qExtendsId": "e7f2b7a0-f9c6-4cf7-822a-93e727092303",
        "qMetaDef": {}
      },
      "qChildren": []
    },
    {
      "qProperty": {
        "qInfo": {
          "qId": "SKpmZp",
          "qType": "action-button"
        },
        "qExtendsId": "469552b2-e1da-4e46-adc8-841b21953423",
        "qMetaDef": {}
      },
      "qChildren": []
    },
    {
      "qProperty": {
        "qInfo": {
          "qId": "HxvmRFm",
          "qType": "action-button"
        },
        "qExtendsId": "a3f087e9-5fd0-4550-83e7-5912e78059d9",
        "qMetaDef": {}
      },
      "qChildren": []
    },
    {
      "qProperty": {
        "qInfo": {
          "qId": "xgrbucP",
          "qType": "action-button"
        },
        "qExtendsId": "c7bacc9f-48b2-40d1-a72f-15847f9d1730",
        "qMetaDef": {}
      },
      "qChildren": []
    },
    {
      "qProperty": {
        "qInfo": {
          "qId": "ZkygpZ",
          "qType": "kpi"
        },
        "qExtendsId": "8fb06240-3f4a-48a4-9410-0d8fde5ec557",
        "qMetaDef": {}
      },
      "qChildren": []
    },
    {
      "qProperty": {
        "qInfo": {
          "qId": "TdmSkk",
          "qType": "action-button"
        },
        "qExtendsId": "5b76aa91-d61e-45dc-80a6-f9a23fb743da",
        "qMetaDef": {}
      },
      "qChildren": []
    },
    {
      "qProperty": {
        "qInfo": {
          "qId": "mrWBPn",
          "qType": "action-button"
        },
        "qExtendsId": "e0741351-8b64-408f-badc-1916cc00f892",
        "qMetaDef": {}
      },
      "qChildren": []
    },
    {
      "qProperty": {
        "qInfo": {
          "qId": "PQFdd",
          "qType": "action-button"
        },
        "qExtendsId": "f816eca2-4aa1-4d47-bd67-d8b7e83811fd",
        "qMetaDef": {}
      },
      "qChildren": []
    },
    {
      "qProperty": {
        "qInfo": {
          "qId": "wrjM",
          "qType": "action-button"
        },
        "qExtendsId": "14144e52-ada2-4389-aef8-c1d4bfac7cf0",
        "qMetaDef": {}
      },
      "qChildren": []
    },
    {
      "qProperty": {
        "qInfo": {
          "qId": "TuAQVM",
          "qType": "action-button"
        },
        "qExtendsId": "15a86c5c-c517-4220-a6cd-1e7034fcc389",
        "qMetaDef": {}
      },
      "qChildren": []
    },
    {
      "qProperty": {
        "qInfo": {
          "qId": "ameYRnP",
          "qType": "action-button"
        },
        "qExtendsId": "3cbdcc59-c724-4e20-9f1e-a19dd316980c",
        "qMetaDef": {}
      },
      "qChildren": []
    },
    {
      "qProperty": {
        "qInfo": {
          "qId": "ptNdWB",
          "qType": "action-button"
        },
        "qMetaDef": {},
        "actions": [],
        "navigation": {
          "action": "goToSheet",
          "sheet": "e5505282-94d5-4bc1-b80e-1792df8f1e85",
          "story": "",
          "websiteUrl": "",
          "sameWindow": false
        },
        "useEnabledCondition": false,
        "enabledCondition": 1,
        "showTitles": false,
        "title": "",
        "subtitle": "",
        "footnote": "",
        "disableNavMenu": true,
        "showDetails": false,
        "style": {
          "label": "Depot shipments",
          "font": {
            "size": 0.62,
            "useColorExpression": false,
            "color": {
              "index": -1,
              "color": null
            },
            "colorExpression": "",
            "style": {
              "bold": false,
              "italic": false,
              "underline": false
            },
            "align": "center"
          },
          "background": {
            "useColorExpression": false,
            "color": {
              "index": -1,
              "color": "#8CBB13"
            },
            "colorExpression": "",
            "useImage": false,
            "size": "auto",
            "position": "centerCenter",
            "url": {
              "qStaticContentUrlDef": {}
            }
          },
          "border": {
            "useBorder": false,
            "radius": 0,
            "width": 0,
            "useColorExpression": false,
            "color": {
              "index": -1,
              "color": null
            },
            "colorExpression": ""
          },
          "icon": {
            "useIcon": false,
            "iconType": "",
            "position": "left"
          }
        },
        "visualization": "action-button",
        "props": {
          "fullWidth": "auto",
          "useEnabledCondition": null
        },
        "qLayoutExclude": {
          "disabled": {}
        }
      },
      "qChildren": []
    },
    {
      "qProperty": {
        "qInfo": {
          "qId": "PDLmWFg",
          "qType": "filterpane"
        },
        "qMetaDef": {},
        "qChildListDef": {
          "qData": {
            "info": "/qInfo"
          }
        },
        "showTitles": false,
        "title": "",
        "subtitle": "",
        "footnote": "",
        "showDetails": false,
        "visualization": "filterpane",
        "disableNavMenu": true
      },
      "qChildren": [
        {
          "qProperty": {
            "qInfo": {
              "qId": "e69195b4-99e4-4e8e-9534-1f728e0670bd",
              "qType": "listbox"
            },
            "qMetaDef": {},
            "qListObjectDef": {
              "qDef": {
                "qGrouping": "N",
                "qFieldDefs": [
                  "Dose level"
                ],
                "qFieldLabels": [
                  "Dose Level label"
                ],
                "qSortCriterias": [
                  {
                    "qSortByState": 1,
                    "qSortByNumeric": 1,
                    "qSortByAscii": 1,
                    "qSortByLoadOrder": 1,
                    "qExpression": {}
                  }
                ],
                "qNumberPresentations": [],
                "qActiveField": 0,
                "autoSort": true,
                "cId": "GnkTRVJ"
              },
              "qFrequencyMode": "N",
              "qShowAlternatives": true,
              "qInitialDataFetch": [],
              "qExpressions": [],
              "qOtherTotalSpec": {}
            },
            "showTitles": true,
            "title": "Dose level",
            "subtitle": "",
            "footnote": "",
            "showDetails": false,
            "visualization": "listbox"
          },
          "qChildren": []
        }
      ]
    },
    {
      "qProperty": {
        "qInfo": {
          "qId": "tksMf",
          "qType": "filterpane"
        },
        "qMetaDef": {},
        "qChildListDef": {
          "qData": {
            "info": "/qInfo"
          }
        },
        "showTitles": false,
        "title": "",
        "subtitle": "",
        "footnote": "",
        "showDetails": false,
        "visualization": "filterpane",
        "disableNavMenu": true
      },
      "qChildren": [
        {
          "qProperty": {
            "qInfo": {
              "qId": "ac4ee39a-3adb-4af8-bdb6-57d6fd4a5f6f",
              "qType": "listbox"
            },
            "qMetaDef": {},
            "qListObjectDef": {
              "qDef": {
                "qGrouping": "N",
                "qFieldDefs": [
                  "Treatment arm"
                ],
                "qFieldLabels": [
                  "TreatmentArm label"
                ],
                "qSortCriterias": [
                  {
                    "qSortByState": 1,
                    "qSortByNumeric": 1,
                    "qSortByAscii": 1,
                    "qSortByLoadOrder": 1,
                    "qExpression": {}
                  }
                ],
                "qNumberPresentations": [],
                "qActiveField": 0,
                "autoSort": true,
                "cId": "aQJAp"
              },
              "qFrequencyMode": "N",
              "qShowAlternatives": true,
              "qInitialDataFetch": [],
              "qExpressions": [],
              "qOtherTotalSpec": {}
            },
            "showTitles": true,
            "title": "Treatment arm",
            "subtitle": "",
            "footnote": "",
            "showDetails": false,
            "visualization": "listbox"
          },
          "qChildren": []
        }
      ]
    },
    {
      "qProperty": {
        "qInfo": {
          "qId": "qcsCWFj",
          "qType": "filterpane"
        },
        "qMetaDef": {},
        "qChildListDef": {
          "qData": {
            "info": "/qInfo"
          }
        },
        "showTitles": false,
        "title": "",
        "subtitle": "",
        "footnote": "",
        "showDetails": false,
        "visualization": "filterpane",
        "disableNavMenu": true
      },
      "qChildren": [
        {
          "qProperty": {
            "qInfo": {
              "qId": "3279fcbe-3aa0-4b83-a69b-e716045138b8",
              "qType": "listbox"
            },
            "qMetaDef": {},
            "qListObjectDef": {
              "qDef": {
                "qGrouping": "N",
                "qFieldDefs": [
                  "Stratum"
                ],
                "qFieldLabels": [
                  "Stratum"
                ],
                "qSortCriterias": [
                  {
                    "qSortByState": 1,
                    "qSortByNumeric": 1,
                    "qSortByAscii": 1,
                    "qSortByLoadOrder": 1,
                    "qExpression": {}
                  }
                ],
                "qNumberPresentations": [],
                "qActiveField": 0,
                "autoSort": true,
                "cId": "gFNyLpT"
              },
              "qFrequencyMode": "N",
              "qShowAlternatives": true,
              "qInitialDataFetch": [],
              "qExpressions": [],
              "qOtherTotalSpec": {}
            },
            "showTitles": true,
            "title": "Stratum",
            "subtitle": "",
            "footnote": "",
            "showDetails": false,
            "visualization": "listbox"
          },
          "qChildren": []
        }
      ]
    },
    {
      "qProperty": {
        "qInfo": {
          "qId": "WkUYUM",
          "qType": "action-button"
        },
        "qExtendsId": "01a07fb3-b3e2-4d95-b9b1-224d283755c2",
        "qMetaDef": {}
      },
      "qChildren": []
    },
    {
      "qProperty": {
        "qInfo": {
          "qId": "zrjXJc",
          "qType": "action-button"
        },
        "qMetaDef": {},
        "actions": [],
        "navigation": {
          "action": "goToSheet",
          "sheet": "22822288-cccc-4e8d-8695-3e6dde7d2cf6",
          "story": "",
          "websiteUrl": "",
          "sameWindow": false
        },
        "useEnabledCondition": false,
        "enabledCondition": 1,
        "showTitles": false,
        "title": "",
        "subtitle": "",
        "footnote": "",
        "disableNavMenu": true,
        "showDetails": false,
        "style": {
          "label": {
            "qStringExpression": {
              "qExpr": "=\r\nRepeat(chr(160),7)\n&\n'Titrations'\n&\nRepeat(chr(160),7)"
            }
          },
          "font": {
            "size": 0.63,
            "useColorExpression": false,
            "color": {
              "index": -1,
              "color": "#0AABC2"
            },
            "colorExpression": "",
            "style": {
              "bold": false,
              "italic": false,
              "underline": false
            },
            "align": "center"
          },
          "background": {
            "useColorExpression": false,
            "color": {
              "index": 1,
              "color": "#ffffff"
            },
            "colorExpression": "",
            "useImage": false,
            "size": "auto",
            "position": "centerCenter",
            "url": {
              "qStaticContentUrlDef": {}
            }
          },
          "border": {
            "useBorder": true,
            "radius": 0,
            "width": 0.055,
            "useColorExpression": false,
            "color": {
              "index": -1,
              "color": "#0AABC2"
            },
            "colorExpression": ""
          },
          "icon": {
            "useIcon": false,
            "iconType": "",
            "position": "left"
          }
        },
        "visualization": "action-button",
        "props": {
          "fullWidth": "auto",
          "useEnabledCondition": null
        },
        "qLayoutExclude": {
          "disabled": {}
        },
        "masterVersion": 0.96
      },
      "qChildren": []
    }
  ]
}