{
  "qProperty": {
    "qInfo": {
      "qId": "41e37e66-f49e-40e4-96c4-2ef874b8258b",
      "qType": "sheet"
    },
    "qMetaDef": {
      "title": "Forecasted site shipments",
      "description": ""
    },
    "rank": 3.25,
    "thumbnail": {
      "qStaticContentUrlDef": {
        "qUrl": "/appcontent/f939c40e-e294-4d8d-8f15-8283cc8a6343/Distribution Management-03.jpg"
      }
    },
    "columns": 36,
    "rows": 18,
    "cells": [
      {
        "name": "291631d0-3a9e-4bca-9146-16d739f3894f",
        "type": "pivot-table",
        "col": 14,
        "row": 0,
        "colspan": 17,
        "rowspan": 7,
        "bounds": {
          "y": 0,
          "x": 37.5,
          "width": 50,
          "height": 41.66666666666667
        }
      },
      {
        "name": "dKWHczb",
        "type": "action-button",
        "col": 4,
        "row": 16,
        "colspan": 4,
        "rowspan": 1,
        "bounds": {
          "y": 88.88888888888889,
          "x": 11.11111111111111,
          "width": 11.11111111111111,
          "height": 5.555555555555555
        }
      },
      {
        "name": "SAMLR",
        "type": "action-button",
        "col": 8,
        "row": 16,
        "colspan": 4,
        "rowspan": 1,
        "bounds": {
          "y": 88.88888888888889,
          "x": 22.22222222222222,
          "width": 11.11111111111111,
          "height": 5.555555555555555
        }
      },
      {
        "name": "ufrzQ",
        "type": "action-button",
        "col": 12,
        "row": 16,
        "colspan": 4,
        "rowspan": 1,
        "bounds": {
          "y": 88.88888888888889,
          "x": 33.33333333333333,
          "width": 11.11111111111111,
          "height": 5.555555555555555
        }
      },
      {
        "name": "cmmaPs",
        "type": "action-button",
        "col": 12,
        "row": 17,
        "colspan": 4,
        "rowspan": 1,
        "bounds": {
          "y": 94.44444444444444,
          "x": 33.33333333333333,
          "width": 11.11111111111111,
          "height": 5.555555555555555
        }
      },
      {
        "name": "jRxxfvC",
        "type": "action-button",
        "col": 16,
        "row": 16,
        "colspan": 4,
        "rowspan": 1,
        "bounds": {
          "y": 88.88888888888889,
          "x": 44.44444444444444,
          "width": 11.11111111111111,
          "height": 5.555555555555555
        }
      },
      {
        "name": "BSDAfFy",
        "type": "action-button",
        "col": 16,
        "row": 17,
        "colspan": 4,
        "rowspan": 1,
        "bounds": {
          "y": 94.44444444444444,
          "x": 44.44444444444444,
          "width": 11.11111111111111,
          "height": 5.555555555555555
        }
      },
      {
        "name": "GYKHN",
        "type": "action-button",
        "col": 20,
        "row": 16,
        "colspan": 4,
        "rowspan": 1,
        "bounds": {
          "y": 88.88888888888889,
          "x": 55.55555555555556,
          "width": 11.11111111111111,
          "height": 5.555555555555555
        }
      },
      {
        "name": "SrWPaK",
        "type": "action-button",
        "col": 20,
        "row": 17,
        "colspan": 4,
        "rowspan": 1,
        "bounds": {
          "y": 94.44444444444444,
          "x": 55.55555555555556,
          "width": 11.11111111111111,
          "height": 5.555555555555555
        }
      },
      {
        "name": "JVustes",
        "type": "action-button",
        "col": 24,
        "row": 16,
        "colspan": 4,
        "rowspan": 1,
        "bounds": {
          "y": 88.88888888888889,
          "x": 66.66666666666666,
          "width": 11.11111111111111,
          "height": 5.555555555555555
        }
      },
      {
        "name": "aXQKvpv",
        "type": "action-button",
        "col": 24,
        "row": 17,
        "colspan": 4,
        "rowspan": 1,
        "bounds": {
          "y": 94.44444444444444,
          "x": 66.66666666666666,
          "width": 11.11111111111111,
          "height": 5.555555555555555
        }
      },
      {
        "name": "NtAwBf",
        "type": "filterpane",
        "col": 32,
        "row": 0,
        "colspan": 4,
        "rowspan": 1,
        "bounds": {
          "y": 0,
          "x": 88.88888888888889,
          "width": 11.11111111111111,
          "height": 5.555555555555555
        }
      },
      {
        "name": "pcSP",
        "type": "pivot-table",
        "col": 14,
        "row": 8,
        "colspan": 17,
        "rowspan": 7,
        "bounds": {
          "y": 41.66666666666667,
          "x": 37.5,
          "width": 50,
          "height": 41.66666666666667
        }
      },
      {
        "name": "ePMu",
        "type": "qlik-sankey-chart-ext",
        "col": 0,
        "row": 0,
        "colspan": 13,
        "rowspan": 15,
        "bounds": {
          "y": 0,
          "x": 0,
          "width": 37.5,
          "height": 83.33333333333334
        }
      },
      {
        "name": "fcdrr",
        "type": "action-button",
        "col": 32,
        "row": 17,
        "colspan": 4,
        "rowspan": 1,
        "bounds": {
          "y": 94.44444444444444,
          "x": 88.88888888888889,
          "width": 11.11111111111111,
          "height": 5.555555555555555
        }
      },
      {
        "name": "GXNp",
        "type": "action-button",
        "col": 32,
        "row": 16,
        "colspan": 4,
        "rowspan": 1,
        "bounds": {
          "y": 88.88888888888889,
          "x": 88.88888888888889,
          "width": 11.11111111111111,
          "height": 5.555555555555555
        }
      },
      {
        "name": "tbJPpY",
        "type": "action-button",
        "col": 28,
        "row": 16,
        "colspan": 4,
        "rowspan": 1,
        "bounds": {
          "y": 88.88888888888889,
          "x": 77.77777777777779,
          "width": 11.11111111111111,
          "height": 5.555555555555555
        }
      },
      {
        "name": "RwxDhjj",
        "type": "action-button",
        "col": 28,
        "row": 17,
        "colspan": 4,
        "rowspan": 1,
        "bounds": {
          "y": 94.44444444444444,
          "x": 77.77777777777779,
          "width": 11.11111111111111,
          "height": 5.555555555555555
        }
      }
    ],
    "qChildListDef": {
      "qData": {
        "title": "/title"
      }
    },
    "gridResolution": "large"
  },
  "qChildren": [
    {
      "qProperty": {
        "qInfo": {
          "qId": "pcSP",
          "qType": "pivot-table"
        },
        "qMetaDef": {},
        "qHyperCubeDef": {
          "qDimensions": [
            {
              "qDef": {
                "qGrouping": "N",
                "qFieldDefs": [
                  "=Month"
                ],
                "qFieldLabels": [
                  "Month"
                ],
                "qSortCriterias": [
                  {
                    "qSortByNumeric": 1,
                    "qSortByLoadOrder": 1,
                    "qExpression": {}
                  }
                ],
                "qNumberPresentations": [],
                "qActiveField": 0,
                "autoSort": false,
                "cId": "WPXtyrh",
                "othersLabel": "Others"
              },
              "qOtherTotalSpec": {
                "qOtherMode": "OTHER_OFF",
                "qOtherCounted": {
                  "qv": "10"
                },
                "qOtherLimit": {
                  "qv": "0"
                },
                "qOtherLimitMode": "OTHER_GE_LIMIT",
                "qForceBadValueKeeping": true,
                "qApplyEvenWhenPossiblyWrongResult": true,
                "qOtherSortMode": "OTHER_SORT_DESCENDING",
                "qTotalMode": "TOTAL_EXPR",
                "qReferencedExpression": {}
              },
              "qOtherLabel": {
                "qv": "Others"
              },
              "qTotalLabel": {
                "qv": "Totals"
              },
              "qCalcCond": {},
              "qAttributeExpressions": [],
              "qAttributeDimensions": [],
              "qCalcCondition": {
                "qCond": {},
                "qMsg": {}
              }
            },
            {
              "qDef": {
                "qGrouping": "N",
                "qFieldDefs": [
                  "=[Site group]"
                ],
                "qFieldLabels": [
                  "Site group"
                ],
                "qSortCriterias": [
                  {
                    "qSortByNumeric": 1,
                    "qSortByAscii": 1,
                    "qSortByLoadOrder": 1,
                    "qExpression": {}
                  }
                ],
                "qNumberPresentations": [],
                "qActiveField": 0,
                "autoSort": true,
                "cId": "UWevXP",
                "othersLabel": "Others"
              },
              "qNullSuppression": true,
              "qOtherTotalSpec": {
                "qOtherMode": "OTHER_OFF",
                "qOtherCounted": {
                  "qv": "10"
                },
                "qOtherLimit": {
                  "qv": "0"
                },
                "qOtherLimitMode": "OTHER_GE_LIMIT",
                "qForceBadValueKeeping": true,
                "qApplyEvenWhenPossiblyWrongResult": true,
                "qOtherSortMode": "OTHER_SORT_DESCENDING",
                "qTotalMode": "TOTAL_EXPR",
                "qReferencedExpression": {}
              },
              "qOtherLabel": {
                "qv": "Others"
              },
              "qTotalLabel": {
                "qv": "Totals"
              },
              "qCalcCond": {},
              "qAttributeExpressions": [],
              "qAttributeDimensions": [],
              "qCalcCondition": {
                "qCond": {},
                "qMsg": {}
              }
            },
            {
              "qDef": {
                "qGrouping": "N",
                "qFieldDefs": [
                  "=if(DataType='Shipments',[Temperature type])"
                ],
                "qFieldLabels": [
                  "Temperature type"
                ],
                "qSortCriterias": [
                  {
                    "qSortByNumeric": 1,
                    "qSortByAscii": 1,
                    "qSortByLoadOrder": 1,
                    "qExpression": {}
                  }
                ],
                "qNumberPresentations": [],
                "qActiveField": 0,
                "autoSort": true,
                "cId": "mAhjPx",
                "othersLabel": "Others"
              },
              "qNullSuppression": true,
              "qOtherTotalSpec": {
                "qOtherMode": "OTHER_OFF",
                "qOtherCounted": {
                  "qv": "10"
                },
                "qOtherLimit": {
                  "qv": "0"
                },
                "qOtherLimitMode": "OTHER_GE_LIMIT",
                "qForceBadValueKeeping": true,
                "qApplyEvenWhenPossiblyWrongResult": true,
                "qOtherSortMode": "OTHER_SORT_DESCENDING",
                "qTotalMode": "TOTAL_OFF",
                "qReferencedExpression": {}
              },
              "qOtherLabel": {
                "qv": "Others"
              },
              "qTotalLabel": {
                "qv": "Totals"
              },
              "qCalcCond": {},
              "qAttributeExpressions": [],
              "qAttributeDimensions": [],
              "qCalcCondition": {
                "qCond": {},
                "qMsg": {}
              }
            }
          ],
          "qMeasures": [
            {
              "qDef": {
                "qTags": [],
                "qGrouping": "N",
                "qDef": "Sum({<[Shipments measure]={'Number of shipments'},[is_site]={'true'}>}[Shipments Stat_MEAN]) ",
                "qNumFormat": {
                  "qType": "F",
                  "qnDec": 2,
                  "qUseThou": 0,
                  "qFmt": "#,##0.00",
                  "qDec": ".",
                  "qThou": ","
                },
                "qAccumulate": 0,
                "qActiveExpression": 0,
                "qExpressions": [],
                "autoSort": true,
                "cId": "RaEWfA",
                "numFormatFromTemplate": true
              },
              "qSortBy": {
                "qSortByNumeric": -1,
                "qSortByLoadOrder": 1,
                "qExpression": {}
              },
              "qAttributeExpressions": [
                {
                  "qAttribute": true
                },
                {
                  "qAttribute": true
                }
              ],
              "qAttributeDimensions": [],
              "qCalcCond": {},
              "qCalcCondition": {
                "qCond": {},
                "qMsg": {}
              },
              "qTrendLines": [],
              "qMiniChartDef": {
                "qSortBy": {
                  "qExpression": {}
                },
                "qOtherTotalSpec": {
                  "qOtherMode": "OTHER_OFF",
                  "qOtherCounted": {},
                  "qOtherLimit": {},
                  "qOtherLimitMode": "OTHER_GT_LIMIT",
                  "qForceBadValueKeeping": true,
                  "qApplyEvenWhenPossiblyWrongResult": true,
                  "qOtherSortMode": "OTHER_SORT_DESCENDING",
                  "qTotalMode": "TOTAL_OFF",
                  "qReferencedExpression": {}
                },
                "qMaxNumberPoints": -1,
                "qAttributeExpressions": []
              }
            }
          ],
          "qInterColumnSortOrder": [
            0,
            1,
            2
          ],
          "qSuppressMissing": true,
          "qInitialDataFetch": [
            {
              "qLeft": 0,
              "qTop": 0,
              "qWidth": 50,
              "qHeight": 50
            }
          ],
          "qReductionMode": "N",
          "qMode": "P",
          "qPseudoDimPos": -1,
          "qNoOfLeftDims": 1,
          "qMaxStackedCells": 5000,
          "qShowTotalsAbove": true,
          "qIndentMode": true,
          "qCalcCond": {},
          "qTitle": {},
          "qCalcCondition": {
            "qCond": {},
            "qMsg": {}
          },
          "qColumnOrder": [],
          "qExpansionState": [],
          "qDynamicScript": [],
          "columnWidths": [],
          "customErrorMessage": {
            "calcCond": "Please select a single Source file and a single Scenario"
          },
          "qLayoutExclude": {
            "qHyperCubeDef": {
              "qDimensions": [],
              "qMeasures": [],
              "qInterColumnSortOrder": [],
              "qInitialDataFetch": [],
              "qReductionMode": "N",
              "qMode": "S",
              "qPseudoDimPos": -1,
              "qNoOfLeftDims": -1,
              "qMaxStackedCells": 5000,
              "qCalcCond": {},
              "qTitle": {},
              "qCalcCondition": {
                "qCond": {},
                "qMsg": {}
              },
              "qColumnOrder": [],
              "qExpansionState": [],
              "qDynamicScript": []
            }
          }
        },
        "showTitles": true,
        "title": "Detail of forecasted #site shipments (#shipments)",
        "subtitle": "",
        "footnote": "",
        "showDetails": false,
        "visualization": "pivot-table"
      },
      "qChildren": []
    },
    {
      "qProperty": {
        "qInfo": {
          "qId": "291631d0-3a9e-4bca-9146-16d739f3894f",
          "qType": "pivot-table"
        },
        "qMetaDef": {},
        "qHyperCubeDef": {
          "qDimensions": [
            {
              "qDef": {
                "qGrouping": "N",
                "qFieldDefs": [
                  "=Month"
                ],
                "qFieldLabels": [
                  "Month"
                ],
                "qSortCriterias": [
                  {
                    "qSortByNumeric": 1,
                    "qSortByLoadOrder": 1,
                    "qExpression": {}
                  }
                ],
                "qNumberPresentations": [],
                "qActiveField": 0,
                "autoSort": false,
                "cId": "WPXtyrh",
                "othersLabel": "Others"
              },
              "qOtherTotalSpec": {
                "qOtherMode": "OTHER_OFF",
                "qOtherCounted": {
                  "qv": "10"
                },
                "qOtherLimit": {
                  "qv": "0"
                },
                "qOtherLimitMode": "OTHER_GE_LIMIT",
                "qForceBadValueKeeping": true,
                "qApplyEvenWhenPossiblyWrongResult": true,
                "qOtherSortMode": "OTHER_SORT_DESCENDING",
                "qTotalMode": "TOTAL_EXPR",
                "qReferencedExpression": {}
              },
              "qOtherLabel": {
                "qv": "Others"
              },
              "qTotalLabel": {
                "qv": "Totals"
              },
              "qCalcCond": {},
              "qAttributeExpressions": [],
              "qAttributeDimensions": [],
              "qCalcCondition": {
                "qCond": {},
                "qMsg": {}
              }
            },
            {
              "qDef": {
                "qGrouping": "N",
                "qFieldDefs": [
                  "=[Site group]"
                ],
                "qFieldLabels": [
                  "Site group"
                ],
                "qSortCriterias": [
                  {
                    "qSortByNumeric": 1,
                    "qSortByAscii": 1,
                    "qSortByLoadOrder": 1,
                    "qExpression": {}
                  }
                ],
                "qNumberPresentations": [],
                "qActiveField": 0,
                "autoSort": true,
                "cId": "UWevXP",
                "othersLabel": "Others"
              },
              "qNullSuppression": true,
              "qOtherTotalSpec": {
                "qOtherMode": "OTHER_OFF",
                "qOtherCounted": {
                  "qv": "10"
                },
                "qOtherLimit": {
                  "qv": "0"
                },
                "qOtherLimitMode": "OTHER_GE_LIMIT",
                "qForceBadValueKeeping": true,
                "qApplyEvenWhenPossiblyWrongResult": true,
                "qOtherSortMode": "OTHER_SORT_DESCENDING",
                "qTotalMode": "TOTAL_EXPR",
                "qReferencedExpression": {}
              },
              "qOtherLabel": {
                "qv": "Others"
              },
              "qTotalLabel": {
                "qv": "Totals"
              },
              "qCalcCond": {},
              "qAttributeExpressions": [],
              "qAttributeDimensions": [],
              "qCalcCondition": {
                "qCond": {},
                "qMsg": {}
              }
            },
            {
              "qDef": {
                "qGrouping": "N",
                "qFieldDefs": [
                  "=Product"
                ],
                "qFieldLabels": [
                  "Product"
                ],
                "qSortCriterias": [
                  {
                    "qSortByNumeric": 1,
                    "qSortByAscii": 1,
                    "qSortByLoadOrder": 1,
                    "qExpression": {}
                  }
                ],
                "qNumberPresentations": [],
                "qActiveField": 0,
                "autoSort": true,
                "cId": "mAhjPx",
                "othersLabel": "Others"
              },
              "qNullSuppression": true,
              "qOtherTotalSpec": {
                "qOtherMode": "OTHER_OFF",
                "qOtherCounted": {
                  "qv": "10"
                },
                "qOtherLimit": {
                  "qv": "0"
                },
                "qOtherLimitMode": "OTHER_GE_LIMIT",
                "qForceBadValueKeeping": true,
                "qApplyEvenWhenPossiblyWrongResult": true,
                "qOtherSortMode": "OTHER_SORT_DESCENDING",
                "qTotalMode": "TOTAL_OFF",
                "qReferencedExpression": {}
              },
              "qOtherLabel": {
                "qv": "Others"
              },
              "qTotalLabel": {
                "qv": "Totals"
              },
              "qCalcCond": {},
              "qAttributeExpressions": [],
              "qAttributeDimensions": [],
              "qCalcCondition": {
                "qCond": {},
                "qMsg": {}
              }
            }
          ],
          "qMeasures": [
            {
              "qDef": {
                "qTags": [],
                "qGrouping": "N",
                "qDef": "Sum({<[Shipments measure]={'Quantities shipped'},[is_site]={'true'}>}[Shipments Stat_MEAN])",
                "qNumFormat": {
                  "qType": "F",
                  "qnDec": 2,
                  "qUseThou": 0,
                  "qFmt": "#,##0.00",
                  "qDec": ".",
                  "qThou": ","
                },
                "qAccumulate": 0,
                "qActiveExpression": 0,
                "qExpressions": [],
                "autoSort": true,
                "cId": "RaEWfA",
                "numFormatFromTemplate": true
              },
              "qSortBy": {
                "qSortByNumeric": -1,
                "qSortByLoadOrder": 1,
                "qExpression": {}
              },
              "qAttributeExpressions": [
                {
                  "qAttribute": true
                },
                {
                  "qAttribute": true
                }
              ],
              "qAttributeDimensions": [],
              "qCalcCond": {},
              "qCalcCondition": {
                "qCond": {},
                "qMsg": {}
              },
              "qTrendLines": [],
              "qMiniChartDef": {
                "qSortBy": {
                  "qExpression": {}
                },
                "qOtherTotalSpec": {
                  "qOtherMode": "OTHER_OFF",
                  "qOtherCounted": {},
                  "qOtherLimit": {},
                  "qOtherLimitMode": "OTHER_GT_LIMIT",
                  "qForceBadValueKeeping": true,
                  "qApplyEvenWhenPossiblyWrongResult": true,
                  "qOtherSortMode": "OTHER_SORT_DESCENDING",
                  "qTotalMode": "TOTAL_OFF",
                  "qReferencedExpression": {}
                },
                "qMaxNumberPoints": -1,
                "qAttributeExpressions": []
              }
            }
          ],
          "qInterColumnSortOrder": [
            0,
            1,
            2
          ],
          "qSuppressMissing": true,
          "qInitialDataFetch": [
            {
              "qLeft": 0,
              "qTop": 0,
              "qWidth": 50,
              "qHeight": 50
            }
          ],
          "qReductionMode": "N",
          "qMode": "P",
          "qPseudoDimPos": -1,
          "qNoOfLeftDims": 1,
          "qMaxStackedCells": 5000,
          "qShowTotalsAbove": true,
          "qIndentMode": true,
          "qCalcCond": {},
          "qTitle": {},
          "qCalcCondition": {
            "qCond": {},
            "qMsg": {}
          },
          "qColumnOrder": [],
          "qExpansionState": [],
          "qDynamicScript": [],
          "columnWidths": [],
          "customErrorMessage": {
            "calcCond": "Please select a single Source file and a single Scenario"
          },
          "qLayoutExclude": {
            "qHyperCubeDef": {
              "qDimensions": [],
              "qMeasures": [],
              "qInterColumnSortOrder": [],
              "qInitialDataFetch": [],
              "qReductionMode": "N",
              "qMode": "S",
              "qPseudoDimPos": -1,
              "qNoOfLeftDims": -1,
              "qMaxStackedCells": 5000,
              "qCalcCond": {},
              "qTitle": {},
              "qCalcCondition": {
                "qCond": {},
                "qMsg": {}
              },
              "qColumnOrder": [],
              "qExpansionState": [],
              "qDynamicScript": []
            }
          }
        },
        "showTitles": true,
        "title": "Detail of forecasted quantities shipped to sites (#products)",
        "subtitle": "",
        "footnote": "",
        "showDetails": false,
        "visualization": "pivot-table"
      },
      "qChildren": []
    },
    {
      "qProperty": {
        "qInfo": {
          "qId": "ePMu",
          "qType": "qlik-sankey-chart-ext"
        },
        "qMetaDef": {},
        "qHyperCubeDef": {
          "qDimensions": [
            {
              "qDef": {
                "qGrouping": "N",
                "qFieldDefs": [
                  "Supplier"
                ],
                "qFieldLabels": [
                  "Supplier"
                ],
                "qSortCriterias": [
                  {
                    "qSortByNumeric": 1,
                    "qSortByAscii": 1,
                    "qSortByLoadOrder": 1,
                    "qExpression": {}
                  }
                ],
                "qNumberPresentations": [],
                "qActiveField": 0,
                "autoSort": true,
                "cId": "BBnMER",
                "othersLabel": "Others"
              },
              "qOtherTotalSpec": {
                "qOtherMode": "OTHER_OFF",
                "qOtherCounted": {
                  "qv": "10"
                },
                "qOtherLimit": {
                  "qv": "0"
                },
                "qOtherLimitMode": "OTHER_GE_LIMIT",
                "qForceBadValueKeeping": true,
                "qApplyEvenWhenPossiblyWrongResult": true,
                "qOtherSortMode": "OTHER_SORT_DESCENDING",
                "qTotalMode": "TOTAL_OFF",
                "qReferencedExpression": {}
              },
              "qOtherLabel": {
                "qv": "Others"
              },
              "qTotalLabel": {},
              "qCalcCond": {},
              "qAttributeExpressions": [
                {
                  "qExpression": "RGB(SRed,SGreen,SBlue)",
                  "qAttribute": true
                }
              ],
              "qAttributeDimensions": [],
              "qCalcCondition": {
                "qCond": {},
                "qMsg": {}
              }
            },
            {
              "qDef": {
                "qGrouping": "N",
                "qFieldDefs": [
                  "Site group"
                ],
                "qFieldLabels": [
                  ""
                ],
                "qSortCriterias": [
                  {
                    "qSortByNumeric": 1,
                    "qSortByAscii": 1,
                    "qSortByLoadOrder": 1,
                    "qExpression": {}
                  }
                ],
                "qNumberPresentations": [],
                "qActiveField": 0,
                "autoSort": true,
                "cId": "pUwbwuc",
                "othersLabel": "Others"
              },
              "qOtherTotalSpec": {
                "qOtherMode": "OTHER_OFF",
                "qOtherCounted": {
                  "qv": "10"
                },
                "qOtherLimit": {
                  "qv": "0"
                },
                "qOtherLimitMode": "OTHER_GE_LIMIT",
                "qForceBadValueKeeping": true,
                "qApplyEvenWhenPossiblyWrongResult": true,
                "qOtherSortMode": "OTHER_SORT_DESCENDING",
                "qTotalMode": "TOTAL_OFF",
                "qReferencedExpression": {}
              },
              "qOtherLabel": {
                "qv": "Others"
              },
              "qTotalLabel": {},
              "qCalcCond": {},
              "qAttributeExpressions": [
                {
                  "qExpression": "RGB(SiteRed,SiteGreen,SiteBlue)",
                  "qAttribute": true
                }
              ],
              "qAttributeDimensions": [],
              "qCalcCondition": {
                "qCond": {},
                "qMsg": {}
              }
            }
          ],
          "qMeasures": [
            {
              "qDef": {
                "qLabel": "quantities shipped",
                "qTags": [],
                "qGrouping": "N",
                "qDef": "Sum({<[DataType]={'Shipments'},[is_site]={'true'},[Shipments measure]={'Quantities shipped'}>}[Shipments Stat_MEAN])",
                "qNumFormat": {
                  "qType": "F",
                  "qnDec": 2,
                  "qUseThou": 0,
                  "qFmt": "#,##0",
                  "qDec": ".",
                  "qThou": ","
                },
                "qAccumulate": 0,
                "qActiveExpression": 0,
                "qExpressions": [],
                "autoSort": true,
                "cId": "dsLJq",
                "numFormatFromTemplate": true,
                "isCustomFormatted": false
              },
              "qSortBy": {
                "qSortByNumeric": -1,
                "qSortByLoadOrder": 1,
                "qExpression": {}
              },
              "qAttributeExpressions": [
                {
                  "qAttribute": true
                }
              ],
              "qAttributeDimensions": [],
              "qCalcCond": {},
              "qCalcCondition": {
                "qCond": {},
                "qMsg": {}
              },
              "qTrendLines": [],
              "qMiniChartDef": {
                "qSortBy": {
                  "qExpression": {}
                },
                "qOtherTotalSpec": {
                  "qOtherMode": "OTHER_OFF",
                  "qOtherCounted": {},
                  "qOtherLimit": {},
                  "qOtherLimitMode": "OTHER_GT_LIMIT",
                  "qForceBadValueKeeping": true,
                  "qApplyEvenWhenPossiblyWrongResult": true,
                  "qOtherSortMode": "OTHER_SORT_DESCENDING",
                  "qTotalMode": "TOTAL_OFF",
                  "qReferencedExpression": {}
                },
                "qMaxNumberPoints": -1,
                "qAttributeExpressions": []
              }
            }
          ],
          "qInterColumnSortOrder": [
            0,
            2,
            1
          ],
          "qSuppressMissing": true,
          "qInitialDataFetch": [
            {
              "qLeft": 0,
              "qTop": 0,
              "qWidth": 6,
              "qHeight": 1666
            }
          ],
          "qReductionMode": "N",
          "qMode": "S",
          "qPseudoDimPos": -1,
          "qNoOfLeftDims": -1,
          "qMaxStackedCells": 5000,
          "qCalcCond": {},
          "qTitle": {},
          "qCalcCondition": {
            "qCond": {},
            "qMsg": {}
          },
          "qColumnOrder": [],
          "qExpansionState": [],
          "qDynamicScript": [],
          "qLayoutExclude": {
            "qHyperCubeDef": {
              "qDimensions": [],
              "qMeasures": [],
              "qInterColumnSortOrder": [],
              "qInitialDataFetch": [],
              "qReductionMode": "N",
              "qMode": "S",
              "qPseudoDimPos": -1,
              "qNoOfLeftDims": -1,
              "qMaxStackedCells": 5000,
              "qCalcCond": {},
              "qTitle": {},
              "qCalcCondition": {
                "qCond": {},
                "qMsg": {}
              },
              "qColumnOrder": [],
              "qExpansionState": [],
              "qDynamicScript": []
            }
          }
        },
        "showTitles": true,
        "title": "",
        "subtitle": "",
        "footnote": "",
        "showDetails": false,
        "node": {
          "padding": 0.2,
          "width": 0.2
        },
        "link": {
          "opacity": 0.5,
          "shadow": false,
          "color": 3,
          "colorBy": "custom"
        },
        "visualization": "qlik-sankey-chart-ext",
        "version": "0.6.3",
        "extensionMeta": {
          "translationKey": "",
          "icon": "stream",
          "iconChar": "g",
          "isLibraryItem": true,
          "visible": true,
          "name": "Sankey chart",
          "description": "A flow diagram visually emphasizing major transfers or flows within defined system boundaries. (0.6.3)",
          "template": "qlik-sankey-chart-ext",
          "isThirdParty": true,
          "author": "",
          "bundle": {
            "id": "qlik-visualization-bundle",
            "name": "Qlik Visualization bundle",
            "description": "This is a set of supported extensions that expands the visualization capabilities of Qlik Sense. These can be used in addition to the native objects found under 'Charts'. For support conditions and limitations, see the documentation."
          },
          "installer": "QlikExtensionBundler",
          "preview": "sankey-preview.png",
          "type": "visualization",
          "version": "0.6.3",
          "previewIconURL": "../extensions/qlik-sankey-chart-ext/sankey-preview.png"
        }
      },
      "qChildren": []
    },
    {
      "qProperty": {
        "qInfo": {
          "qId": "aXQKvpv",
          "qType": "action-button"
        },
        "qExtendsId": "01a07fb3-b3e2-4d95-b9b1-224d283755c2",
        "qMetaDef": {}
      },
      "qChildren": []
    },
    {
      "qProperty": {
        "qInfo": {
          "qId": "ufrzQ",
          "qType": "action-button"
        },
        "qExtendsId": "d793bc06-1d34-4f28-93d5-c811aff834c6",
        "qMetaDef": {}
      },
      "qChildren": []
    },
    {
      "qProperty": {
        "qInfo": {
          "qId": "dKWHczb",
          "qType": "action-button"
        },
        "qExtendsId": "e7f2b7a0-f9c6-4cf7-822a-93e727092303",
        "qMetaDef": {}
      },
      "qChildren": []
    },
    {
      "qProperty": {
        "qInfo": {
          "qId": "BSDAfFy",
          "qType": "action-button"
        },
        "qExtendsId": "469552b2-e1da-4e46-adc8-841b21953423",
        "qMetaDef": {}
      },
      "qChildren": []
    },
    {
      "qProperty": {
        "qInfo": {
          "qId": "cmmaPs",
          "qType": "action-button"
        },
        "qExtendsId": "a3f087e9-5fd0-4550-83e7-5912e78059d9",
        "qMetaDef": {}
      },
      "qChildren": []
    },
    {
      "qProperty": {
        "qInfo": {
          "qId": "NtAwBf",
          "qType": "filterpane"
        },
        "qMetaDef": {},
        "qChildListDef": {
          "qData": {
            "info": "/qInfo"
          }
        },
        "showTitles": false,
        "title": "",
        "subtitle": "",
        "footnote": "",
        "showDetails": false,
        "visualization": "filterpane",
        "disableNavMenu": true
      },
      "qChildren": [
        {
          "qProperty": {
            "qInfo": {
              "qId": "UbvJcB",
              "qType": "listbox"
            },
            "qMetaDef": {},
            "qListObjectDef": {
              "qDef": {
                "qGrouping": "N",
                "qFieldDefs": [
                  "=Supplier\r\n"
                ],
                "qFieldLabels": [
                  "=[Supplier label]\r\n"
                ],
                "qSortCriterias": [
                  {
                    "qSortByState": 1,
                    "qSortByNumeric": 1,
                    "qSortByAscii": 1,
                    "qSortByLoadOrder": 1,
                    "qExpression": {}
                  }
                ],
                "qNumberPresentations": [],
                "qActiveField": 0,
                "autoSort": true,
                "cId": "tDpdNR"
              },
              "qFrequencyMode": "N",
              "qShowAlternatives": true,
              "qInitialDataFetch": [],
              "qExpressions": [],
              "qOtherTotalSpec": {}
            },
            "showTitles": true,
            "title": "Supplier",
            "subtitle": "",
            "footnote": "",
            "showDetails": false,
            "visualization": "listbox"
          },
          "qChildren": []
        }
      ]
    },
    {
      "qProperty": {
        "qInfo": {
          "qId": "jRxxfvC",
          "qType": "action-button"
        },
        "qExtendsId": "c7bacc9f-48b2-40d1-a72f-15847f9d1730",
        "qMetaDef": {}
      },
      "qChildren": []
    },
    {
      "qProperty": {
        "qInfo": {
          "qId": "GYKHN",
          "qType": "action-button"
        },
        "qExtendsId": "5b76aa91-d61e-45dc-80a6-f9a23fb743da",
        "qMetaDef": {}
      },
      "qChildren": []
    },
    {
      "qProperty": {
        "qInfo": {
          "qId": "SrWPaK",
          "qType": "action-button"
        },
        "qExtendsId": "75c865db-db7d-412e-a30f-6731d768f815",
        "qMetaDef": {}
      },
      "qChildren": []
    },
    {
      "qProperty": {
        "qInfo": {
          "qId": "JVustes",
          "qType": "action-button"
        },
        "qExtendsId": "f816eca2-4aa1-4d47-bd67-d8b7e83811fd",
        "qMetaDef": {}
      },
      "qChildren": []
    },
    {
      "qProperty": {
        "qInfo": {
          "qId": "GXNp",
          "qType": "action-button"
        },
        "qExtendsId": "15a86c5c-c517-4220-a6cd-1e7034fcc389",
        "qMetaDef": {}
      },
      "qChildren": []
    },
    {
      "qProperty": {
        "qInfo": {
          "qId": "RwxDhjj",
          "qType": "action-button"
        },
        "qExtendsId": "fedea0a4-3408-46bc-9d02-82b74e45cd8d",
        "qMetaDef": {}
      },
      "qChildren": []
    },
    {
      "qProperty": {
        "qInfo": {
          "qId": "SAMLR",
          "qType": "action-button"
        },
        "qExtendsId": "3cbdcc59-c724-4e20-9f1e-a19dd316980c",
        "qMetaDef": {}
      },
      "qChildren": []
    },
    {
      "qProperty": {
        "qInfo": {
          "qId": "tbJPpY",
          "qType": "action-button"
        },
        "qMetaDef": {},
        "actions": [],
        "navigation": {
          "action": "goToSheet",
          "sheet": "e5505282-94d5-4bc1-b80e-1792df8f1e85",
          "story": "",
          "websiteUrl": "",
          "sameWindow": false
        },
        "useEnabledCondition": false,
        "enabledCondition": 1,
        "showTitles": false,
        "title": "",
        "subtitle": "",
        "footnote": "",
        "disableNavMenu": true,
        "showDetails": false,
        "style": {
          "label": "Depot shipments",
          "font": {
            "size": 0.62,
            "useColorExpression": false,
            "color": {
              "index": -1,
              "color": null
            },
            "colorExpression": "",
            "style": {
              "bold": false,
              "italic": false,
              "underline": false
            },
            "align": "center"
          },
          "background": {
            "useColorExpression": false,
            "color": {
              "index": -1,
              "color": "#8CBB13"
            },
            "colorExpression": "",
            "useImage": false,
            "size": "auto",
            "position": "centerCenter",
            "url": {
              "qStaticContentUrlDef": {}
            }
          },
          "border": {
            "useBorder": false,
            "radius": 0,
            "width": 0,
            "useColorExpression": false,
            "color": {
              "index": -1,
              "color": null
            },
            "colorExpression": ""
          },
          "icon": {
            "useIcon": false,
            "iconType": "",
            "position": "left"
          }
        },
        "visualization": "action-button",
        "props": {
          "fullWidth": "auto",
          "useEnabledCondition": null
        },
        "qLayoutExclude": {
          "disabled": {}
        }
      },
      "qChildren": []
    },
    {
      "qProperty": {
        "qInfo": {
          "qId": "fcdrr",
          "qType": "action-button"
        },
        "qExtendsId": "a5032de1-0a03-439f-94ac-a5c37e909828",
        "qMetaDef": {}
      },
      "qChildren": []
    }
  ]
}