{
  "qProperty": {
    "qInfo": {
      "qId": "6fa1a7b4-dddc-41dd-8ceb-bf61282c6817",
      "qType": "sheet"
    },
    "qMetaDef": {
      "title": "IRT settings",
      "description": ""
    },
    "rank": 2.75,
    "thumbnail": {
      "qStaticContentUrlDef": {
        "qUrl": "/appcontent/f939c40e-e294-4d8d-8f15-8283cc8a6343/IRT settings-03.jpg"
      }
    },
    "columns": 36,
    "rows": 18,
    "cells": [
      {
        "name": "tVvvjZ",
        "type": "linechart",
        "col": 0,
        "row": 0,
        "colspan": 18,
        "rowspan": 13,
        "bounds": {
          "y": 0,
          "x": 0,
          "width": 50,
          "height": 75
        }
      },
      {
        "name": "PjTPhB",
        "type": "linechart",
        "col": 18,
        "row": 0,
        "colspan": 13,
        "rowspan": 7,
        "bounds": {
          "y": 0,
          "x": 50,
          "width": 37.5,
          "height": 41.66666666666667
        }
      },
      {
        "name": "LQYQX",
        "type": "filterpane",
        "col": 32,
        "row": 0,
        "colspan": 4,
        "rowspan": 1,
        "bounds": {
          "y": 0,
          "x": 88.88888888888889,
          "width": 11.11111111111111,
          "height": 5.555555555555555
        }
      },
      {
        "name": "mvjRDEH",
        "type": "action-button",
        "col": 4,
        "row": 16,
        "colspan": 4,
        "rowspan": 1,
        "bounds": {
          "y": 88.88888888888889,
          "x": 11.11111111111111,
          "width": 11.11111111111111,
          "height": 5.555555555555555
        }
      },
      {
        "name": "edLYF",
        "type": "action-button",
        "col": 8,
        "row": 16,
        "colspan": 4,
        "rowspan": 1,
        "bounds": {
          "y": 88.88888888888889,
          "x": 22.22222222222222,
          "width": 11.11111111111111,
          "height": 5.555555555555555
        }
      },
      {
        "name": "YZreuk",
        "type": "action-button",
        "col": 12,
        "row": 16,
        "colspan": 4,
        "rowspan": 1,
        "bounds": {
          "y": 88.88888888888889,
          "x": 33.33333333333333,
          "width": 11.11111111111111,
          "height": 5.555555555555555
        }
      },
      {
        "name": "RCKc",
        "type": "action-button",
        "col": 12,
        "row": 17,
        "colspan": 4,
        "rowspan": 1,
        "bounds": {
          "y": 94.44444444444444,
          "x": 33.33333333333333,
          "width": 11.11111111111111,
          "height": 5.555555555555555
        }
      },
      {
        "name": "eSDHk",
        "type": "action-button",
        "col": 16,
        "row": 16,
        "colspan": 4,
        "rowspan": 1,
        "bounds": {
          "y": 88.88888888888889,
          "x": 44.44444444444444,
          "width": 11.11111111111111,
          "height": 5.555555555555555
        }
      },
      {
        "name": "khJWh",
        "type": "action-button",
        "col": 16,
        "row": 17,
        "colspan": 4,
        "rowspan": 1,
        "bounds": {
          "y": 94.44444444444444,
          "x": 44.44444444444444,
          "width": 11.11111111111111,
          "height": 5.555555555555555
        }
      },
      {
        "name": "jsFTL",
        "type": "action-button",
        "col": 20,
        "row": 16,
        "colspan": 4,
        "rowspan": 1,
        "bounds": {
          "y": 88.88888888888889,
          "x": 55.55555555555556,
          "width": 11.11111111111111,
          "height": 5.555555555555555
        }
      },
      {
        "name": "LptgzbW",
        "type": "action-button",
        "col": 20,
        "row": 17,
        "colspan": 4,
        "rowspan": 1,
        "bounds": {
          "y": 94.44444444444444,
          "x": 55.55555555555556,
          "width": 11.11111111111111,
          "height": 5.555555555555555
        }
      },
      {
        "name": "nsWHKH",
        "type": "action-button",
        "col": 24,
        "row": 16,
        "colspan": 4,
        "rowspan": 1,
        "bounds": {
          "y": 88.88888888888889,
          "x": 66.66666666666666,
          "width": 11.11111111111111,
          "height": 5.555555555555555
        }
      },
      {
        "name": "HtJEXq",
        "type": "action-button",
        "col": 24,
        "row": 17,
        "colspan": 4,
        "rowspan": 1,
        "bounds": {
          "y": 94.44444444444444,
          "x": 66.66666666666666,
          "width": 11.11111111111111,
          "height": 5.555555555555555
        }
      },
      {
        "name": "UTzjyt",
        "type": "filterpane",
        "col": 32,
        "row": 1,
        "colspan": 4,
        "rowspan": 1,
        "bounds": {
          "y": 5.555555555555555,
          "x": 88.88888888888889,
          "width": 11.11111111111111,
          "height": 5.555555555555555
        }
      },
      {
        "name": "AKzaw",
        "type": "text-image",
        "col": 0,
        "row": 14,
        "colspan": 18,
        "rowspan": 1,
        "bounds": {
          "y": 75,
          "x": 0,
          "width": 50,
          "height": 8.333333333333332
        }
      },
      {
        "name": "YrJx",
        "type": "kpi",
        "col": 32,
        "row": 6,
        "colspan": 4,
        "rowspan": 3,
        "bounds": {
          "y": 33.33333333333333,
          "x": 88.88888888888889,
          "width": 11.11111111111111,
          "height": 16.666666666666664
        }
      },
      {
        "name": "hFpfbwU",
        "type": "filterpane",
        "col": 32,
        "row": 2,
        "colspan": 4,
        "rowspan": 1,
        "bounds": {
          "y": 11.11111111111111,
          "x": 88.88888888888889,
          "width": 11.11111111111111,
          "height": 5.555555555555555
        }
      },
      {
        "name": "MUPmwm",
        "type": "pivot-table",
        "col": 18,
        "row": 8,
        "colspan": 13,
        "rowspan": 7,
        "bounds": {
          "y": 41.66666666666667,
          "x": 50,
          "width": 37.5,
          "height": 41.66666666666667
        }
      },
      {
        "name": "xWjWzm",
        "type": "action-button",
        "col": 32,
        "row": 17,
        "colspan": 4,
        "rowspan": 1,
        "bounds": {
          "y": 94.44444444444444,
          "x": 88.88888888888889,
          "width": 11.11111111111111,
          "height": 5.555555555555555
        }
      },
      {
        "name": "NyxVZ",
        "type": "action-button",
        "col": 32,
        "row": 16,
        "colspan": 4,
        "rowspan": 1,
        "bounds": {
          "y": 88.88888888888889,
          "x": 88.88888888888889,
          "width": 11.11111111111111,
          "height": 5.555555555555555
        }
      },
      {
        "name": "JRqVJ",
        "type": "action-button",
        "col": 28,
        "row": 16,
        "colspan": 4,
        "rowspan": 1,
        "bounds": {
          "y": 88.88888888888889,
          "x": 77.77777777777779,
          "width": 11.11111111111111,
          "height": 5.555555555555555
        }
      },
      {
        "name": "EYSpC",
        "type": "action-button",
        "col": 28,
        "row": 17,
        "colspan": 4,
        "rowspan": 1,
        "bounds": {
          "y": 94.44444444444444,
          "x": 77.77777777777779,
          "width": 11.11111111111111,
          "height": 5.555555555555555
        }
      }
    ],
    "qChildListDef": {
      "qData": {
        "title": "/title"
      }
    },
    "gridResolution": "large"
  },
  "qChildren": [
    {
      "qProperty": {
        "qInfo": {
          "qId": "LQYQX",
          "qType": "filterpane"
        },
        "qMetaDef": {},
        "qChildListDef": {
          "qData": {
            "info": "/qInfo"
          }
        },
        "showTitles": false,
        "title": "",
        "subtitle": "",
        "footnote": "",
        "showDetails": false,
        "visualization": "filterpane",
        "disableNavMenu": true
      },
      "qChildren": [
        {
          "qProperty": {
            "qInfo": {
              "qId": "15f19599-db87-4206-b53b-1993980687e7",
              "qType": "listbox"
            },
            "qMetaDef": {},
            "qListObjectDef": {
              "qDef": {
                "qGrouping": "N",
                "qFieldDefs": [
                  "=[Site group]"
                ],
                "qFieldLabels": [
                  "=[Site Group]"
                ],
                "qSortCriterias": [
                  {
                    "qSortByState": 1,
                    "qSortByNumeric": 1,
                    "qSortByAscii": 1,
                    "qSortByLoadOrder": 1,
                    "qExpression": {}
                  }
                ],
                "qNumberPresentations": [],
                "qActiveField": 0,
                "autoSort": true,
                "cId": "bVYWAx"
              },
              "qFrequencyMode": "N",
              "qShowAlternatives": true,
              "qInitialDataFetch": [],
              "qExpressions": [],
              "qOtherTotalSpec": {}
            },
            "showTitles": true,
            "title": "Site group",
            "subtitle": "",
            "footnote": "",
            "showDetails": false,
            "visualization": "listbox"
          },
          "qChildren": []
        }
      ]
    },
    {
      "qProperty": {
        "qInfo": {
          "qId": "tVvvjZ",
          "qType": "linechart"
        },
        "qMetaDef": {},
        "qHyperCubeDef": {
          "qDimensions": [
            {
              "qDef": {
                "qGrouping": "N",
                "qFieldDefs": [
                  "=Date"
                ],
                "qFieldLabels": [
                  "Date"
                ],
                "qSortCriterias": [
                  {
                    "qSortByNumeric": 1,
                    "qSortByAscii": 1,
                    "qSortByLoadOrder": 1,
                    "qExpression": {}
                  }
                ],
                "qNumberPresentations": [],
                "qActiveField": 0,
                "autoSort": true,
                "cId": "kYBPZK",
                "othersLabel": "Others"
              },
              "qOtherTotalSpec": {
                "qOtherMode": "OTHER_OFF",
                "qOtherCounted": {
                  "qv": "10"
                },
                "qOtherLimit": {
                  "qv": "0"
                },
                "qOtherLimitMode": "OTHER_GE_LIMIT",
                "qForceBadValueKeeping": true,
                "qApplyEvenWhenPossiblyWrongResult": true,
                "qOtherSortMode": "OTHER_SORT_DESCENDING",
                "qTotalMode": "TOTAL_OFF",
                "qReferencedExpression": {}
              },
              "qOtherLabel": {
                "qv": "Others"
              },
              "qTotalLabel": {},
              "qCalcCond": {},
              "qAttributeExpressions": [],
              "qAttributeDimensions": [],
              "qCalcCondition": {
                "qCond": {},
                "qMsg": {}
              },
              "othersLabel": "Others"
            }
          ],
          "qMeasures": [
            {
              "qLibraryId": "CXSNx",
              "qDef": {
                "qTags": [],
                "qGrouping": "N",
                "qNumFormat": {
                  "qType": "F",
                  "qnDec": 2,
                  "qUseThou": 0,
                  "qFmt": "#,##0",
                  "qDec": ".",
                  "qThou": ","
                },
                "qAccumulate": 0,
                "qActiveExpression": 0,
                "qExpressions": [],
                "autoSort": true,
                "cId": "JQXBka",
                "numFormatFromTemplate": true,
                "isCustomFormatted": false
              },
              "qSortBy": {
                "qSortByNumeric": -1,
                "qSortByLoadOrder": 1,
                "qExpression": {}
              },
              "qAttributeExpressions": [],
              "qAttributeDimensions": [],
              "qCalcCond": {},
              "qCalcCondition": {
                "qCond": {},
                "qMsg": {}
              },
              "qTrendLines": [],
              "qMiniChartDef": {
                "qSortBy": {
                  "qExpression": {}
                },
                "qOtherTotalSpec": {
                  "qOtherMode": "OTHER_OFF",
                  "qOtherCounted": {},
                  "qOtherLimit": {},
                  "qOtherLimitMode": "OTHER_GT_LIMIT",
                  "qForceBadValueKeeping": true,
                  "qApplyEvenWhenPossiblyWrongResult": true,
                  "qOtherSortMode": "OTHER_SORT_DESCENDING",
                  "qTotalMode": "TOTAL_OFF",
                  "qReferencedExpression": {}
                },
                "qMaxNumberPoints": -1,
                "qAttributeExpressions": []
              }
            },
            {
              "qLibraryId": "Snxhp",
              "qDef": {
                "qTags": [],
                "qGrouping": "N",
                "qNumFormat": {
                  "qType": "F",
                  "qnDec": 2,
                  "qUseThou": 0,
                  "qFmt": "#,##0",
                  "qDec": ".",
                  "qThou": ","
                },
                "qAccumulate": 0,
                "qActiveExpression": 0,
                "qExpressions": [],
                "autoSort": true,
                "cId": "KKRGsG",
                "numFormatFromTemplate": true,
                "isCustomFormatted": false
              },
              "qSortBy": {
                "qSortByNumeric": -1,
                "qSortByLoadOrder": 1,
                "qExpression": {}
              },
              "qAttributeExpressions": [],
              "qAttributeDimensions": [],
              "qCalcCond": {},
              "qCalcCondition": {
                "qCond": {},
                "qMsg": {}
              },
              "qTrendLines": [],
              "qMiniChartDef": {
                "qSortBy": {
                  "qExpression": {}
                },
                "qOtherTotalSpec": {
                  "qOtherMode": "OTHER_OFF",
                  "qOtherCounted": {},
                  "qOtherLimit": {},
                  "qOtherLimitMode": "OTHER_GT_LIMIT",
                  "qForceBadValueKeeping": true,
                  "qApplyEvenWhenPossiblyWrongResult": true,
                  "qOtherSortMode": "OTHER_SORT_DESCENDING",
                  "qTotalMode": "TOTAL_OFF",
                  "qReferencedExpression": {}
                },
                "qMaxNumberPoints": -1,
                "qAttributeExpressions": []
              }
            }
          ],
          "qInterColumnSortOrder": [
            0,
            1,
            2
          ],
          "qSuppressMissing": true,
          "qInitialDataFetch": [
            {
              "qLeft": 0,
              "qTop": 0,
              "qWidth": 17,
              "qHeight": 500
            }
          ],
          "qReductionMode": "N",
          "qMode": "S",
          "qPseudoDimPos": -1,
          "qNoOfLeftDims": -1,
          "qAlwaysFullyExpanded": true,
          "qMaxStackedCells": 5000,
          "qCalcCond": {},
          "qTitle": {},
          "qCalcCondition": {
            "qCond": {},
            "qMsg": {}
          },
          "qColumnOrder": [],
          "qExpansionState": [],
          "qDynamicScript": [],
          "customErrorMessage": {
            "calcCond": "Please select a single Source file and a single Scenario"
          },
          "qLayoutExclude": {
            "qHyperCubeDef": {
              "qDimensions": [],
              "qMeasures": [],
              "qInterColumnSortOrder": [],
              "qInitialDataFetch": [],
              "qReductionMode": "N",
              "qMode": "S",
              "qPseudoDimPos": -1,
              "qNoOfLeftDims": -1,
              "qMaxStackedCells": 5000,
              "qCalcCond": {},
              "qTitle": {},
              "qCalcCondition": {
                "qCond": {},
                "qMsg": {}
              },
              "qColumnOrder": [],
              "qExpansionState": [],
              "qDynamicScript": []
            }
          }
        },
        "refLine": {
          "refLines": [
            {
              "show": true,
              "label": "",
              "paletteColor": {
                "index": 14,
                "color": "#545352"
              },
              "refLineExpr": {
                "value": 0,
                "label": "0"
              },
              "cId": "sGnknh"
            }
          ]
        },
        "showTitles": true,
        "title": "Resupply levels evolution",
        "subtitle": "",
        "footnote": {
          "qStringExpression": {
            "qExpr": "='*Please select a single site group & product to see the resupply levels'"
          }
        },
        "showDetails": false,
        "lineType": "area",
        "stackedArea": false,
        "separateStacking": true,
        "scrollStartPos": 0,
        "nullMode": "zero",
        "dataPoint": {
          "show": false,
          "showLabels": false
        },
        "gridLine": {
          "auto": true,
          "spacing": 2
        },
        "color": {
          "auto": true,
          "mode": "byMeasure",
          "useBaseColors": "off",
          "paletteColor": {
            "index": 6
          },
          "useDimColVal": true,
          "persistent": false,
          "expressionIsColor": false,
          "expressionLabel": "",
          "measureScheme": "sg",
          "reverseScheme": false,
          "dimensionScheme": "12",
          "autoMinMax": true,
          "measureMin": 0,
          "measureMax": 10,
          "singleColor": 3,
          "dimensionId": "",
          "byMeasureDef": {
            "label": "Trigger level",
            "key": "Vgpjqc",
            "type": "libraryItem"
          },
          "altLabel": "Trigger level",
          "colorExpression": "Measure",
          "useMeasureGradient": false
        },
        "legend": {
          "show": true,
          "dock": "top",
          "showTitle": true
        },
        "dimensionAxis": {
          "continuousAuto": false,
          "show": "labels",
          "label": "auto",
          "dock": "near"
        },
        "preferContinuousAxis": true,
        "measureAxis": {
          "show": "all",
          "dock": "near",
          "spacing": 0.5,
          "autoMinMax": true,
          "minMax": "min",
          "min": 0,
          "max": 10,
          "logarithmic": false
        },
        "visualization": "linechart",
        "qLayoutExclude": {}
      },
      "qChildren": []
    },
    {
      "qProperty": {
        "qInfo": {
          "qId": "PjTPhB",
          "qType": "pivot-table"
        },
        "qMetaDef": {},
        "qHyperCubeDef": {
          "qDimensions": [
            {
              "qDef": {
                "qGrouping": "N",
                "qFieldDefs": [
                  "=[Site group]"
                ],
                "qFieldLabels": [
                  "Site group"
                ],
                "qSortCriterias": [
                  {
                    "qSortByAscii": 1,
                    "qSortByLoadOrder": 1,
                    "qExpression": {}
                  }
                ],
                "qNumberPresentations": [],
                "qActiveField": 0,
                "autoSort": false,
                "cId": "kYBPZK",
                "othersLabel": "Others"
              },
              "qNullSuppression": true,
              "qOtherTotalSpec": {
                "qOtherMode": "OTHER_OFF",
                "qOtherCounted": {
                  "qv": "10"
                },
                "qOtherLimit": {
                  "qv": "0"
                },
                "qOtherLimitMode": "OTHER_GE_LIMIT",
                "qForceBadValueKeeping": true,
                "qApplyEvenWhenPossiblyWrongResult": true,
                "qOtherSortMode": "OTHER_SORT_DESCENDING",
                "qTotalMode": "TOTAL_OFF",
                "qReferencedExpression": {}
              },
              "qOtherLabel": {
                "qv": "Others"
              },
              "qTotalLabel": {},
              "qCalcCond": {},
              "qAttributeExpressions": [],
              "qAttributeDimensions": [],
              "qCalcCondition": {
                "qCond": {},
                "qMsg": {}
              },
              "othersLabel": "Others"
            },
            {
              "qDef": {
                "qGrouping": "N",
                "qFieldDefs": [
                  "Product"
                ],
                "qFieldLabels": [
                  "Product"
                ],
                "qSortCriterias": [
                  {
                    "qSortByNumeric": 1,
                    "qSortByAscii": 1,
                    "qSortByLoadOrder": 1,
                    "qExpression": {}
                  }
                ],
                "qNumberPresentations": [],
                "qActiveField": 0,
                "autoSort": true,
                "cId": "aZtUHGd",
                "othersLabel": "Others"
              },
              "qOtherTotalSpec": {
                "qOtherMode": "OTHER_OFF",
                "qOtherCounted": {
                  "qv": "10"
                },
                "qOtherLimit": {
                  "qv": "0"
                },
                "qOtherLimitMode": "OTHER_GE_LIMIT",
                "qForceBadValueKeeping": true,
                "qApplyEvenWhenPossiblyWrongResult": true,
                "qOtherSortMode": "OTHER_SORT_DESCENDING",
                "qTotalMode": "TOTAL_OFF",
                "qReferencedExpression": {}
              },
              "qOtherLabel": {
                "qv": "Others"
              },
              "qTotalLabel": {
                "qv": "Totals"
              },
              "qCalcCond": {},
              "qAttributeExpressions": [],
              "qAttributeDimensions": [],
              "qCalcCondition": {
                "qCond": {},
                "qMsg": {}
              }
            }
          ],
          "qMeasures": [
            {
              "qDef": {
                "qLabel": "Trigger level",
                "qTags": [],
                "qGrouping": "N",
                "qDef": "Max({< [DataType]={'Trigger & Resupply'}>}[TL])",
                "qNumFormat": {
                  "qType": "F",
                  "qnDec": 2,
                  "qUseThou": 0,
                  "qFmt": "#,##0",
                  "qDec": ".",
                  "qThou": ","
                },
                "qAccumulate": 0,
                "qActiveExpression": 0,
                "qExpressions": [],
                "autoSort": true,
                "cId": "DSzbP",
                "numFormatFromTemplate": true,
                "isCustomFormatted": false
              },
              "qSortBy": {
                "qSortByNumeric": -1,
                "qSortByLoadOrder": 1,
                "qExpression": {}
              },
              "qAttributeExpressions": [
                {
                  "qAttribute": true
                },
                {
                  "qAttribute": true
                }
              ],
              "qAttributeDimensions": [],
              "qCalcCond": {},
              "qCalcCondition": {
                "qCond": {},
                "qMsg": {}
              },
              "qTrendLines": [],
              "qMiniChartDef": {
                "qSortBy": {
                  "qExpression": {}
                },
                "qOtherTotalSpec": {
                  "qOtherMode": "OTHER_OFF",
                  "qOtherCounted": {},
                  "qOtherLimit": {},
                  "qOtherLimitMode": "OTHER_GT_LIMIT",
                  "qForceBadValueKeeping": true,
                  "qApplyEvenWhenPossiblyWrongResult": true,
                  "qOtherSortMode": "OTHER_SORT_DESCENDING",
                  "qTotalMode": "TOTAL_OFF",
                  "qReferencedExpression": {}
                },
                "qMaxNumberPoints": -1,
                "qAttributeExpressions": []
              }
            },
            {
              "qDef": {
                "qLabel": "Resupply level",
                "qTags": [],
                "qGrouping": "N",
                "qDef": "Max({< [DataType]={'Trigger & Resupply'}>}[RL])",
                "qNumFormat": {
                  "qType": "F",
                  "qnDec": 2,
                  "qUseThou": 0,
                  "qFmt": "#,##0",
                  "qDec": ".",
                  "qThou": ","
                },
                "qAccumulate": 0,
                "qActiveExpression": 0,
                "qExpressions": [],
                "autoSort": true,
                "cId": "FdhThh",
                "numFormatFromTemplate": true,
                "isCustomFormatted": false
              },
              "qSortBy": {
                "qSortByNumeric": -1,
                "qSortByLoadOrder": 1,
                "qExpression": {}
              },
              "qAttributeExpressions": [
                {
                  "qAttribute": true
                },
                {
                  "qAttribute": true
                }
              ],
              "qAttributeDimensions": [],
              "qCalcCond": {},
              "qCalcCondition": {
                "qCond": {},
                "qMsg": {}
              },
              "qTrendLines": [],
              "qMiniChartDef": {
                "qSortBy": {
                  "qExpression": {}
                },
                "qOtherTotalSpec": {
                  "qOtherMode": "OTHER_OFF",
                  "qOtherCounted": {},
                  "qOtherLimit": {},
                  "qOtherLimitMode": "OTHER_GT_LIMIT",
                  "qForceBadValueKeeping": true,
                  "qApplyEvenWhenPossiblyWrongResult": true,
                  "qOtherSortMode": "OTHER_SORT_DESCENDING",
                  "qTotalMode": "TOTAL_OFF",
                  "qReferencedExpression": {}
                },
                "qMaxNumberPoints": -1,
                "qAttributeExpressions": []
              }
            }
          ],
          "qInterColumnSortOrder": [
            0,
            1,
            -1
          ],
          "qSuppressMissing": true,
          "qInitialDataFetch": [
            {
              "qLeft": 0,
              "qTop": 0,
              "qWidth": 50,
              "qHeight": 50
            }
          ],
          "qReductionMode": "N",
          "qMode": "P",
          "qPseudoDimPos": -1,
          "qNoOfLeftDims": 1,
          "qAlwaysFullyExpanded": true,
          "qMaxStackedCells": 5000,
          "qShowTotalsAbove": true,
          "qIndentMode": true,
          "qCalcCond": {},
          "qTitle": {},
          "qCalcCondition": {
            "qCond": {},
            "qMsg": {}
          },
          "qColumnOrder": [],
          "qExpansionState": [],
          "qDynamicScript": [],
          "customErrorMessage": {
            "calcCond": "Please select a single Source file and a single Scenario"
          },
          "qLayoutExclude": {
            "qHyperCubeDef": {
              "qDimensions": [],
              "qMeasures": [
                {
                  "qDef": {
                    "qLabel": "Resupply level",
                    "qTags": [],
                    "qGrouping": "N",
                    "qDef": "Max({< [SC.DataType]={'TriggerResupply'}, [SC.Measure]={'RL'}>}[SC.Stat_VALUE])",
                    "qNumFormat": {
                      "qType": "F",
                      "qnDec": 2,
                      "qUseThou": 0,
                      "qFmt": "#,##0.00",
                      "qDec": ".",
                      "qThou": ","
                    },
                    "qAccumulate": 0,
                    "qActiveExpression": 0,
                    "qExpressions": [],
                    "autoSort": true,
                    "cId": "WDbXg",
                    "numFormatFromTemplate": true
                  },
                  "qSortBy": {
                    "qExpression": {}
                  },
                  "qAttributeExpressions": [
                    {},
                    {}
                  ],
                  "qAttributeDimensions": [],
                  "qCalcCond": {},
                  "qCalcCondition": {
                    "qCond": {},
                    "qMsg": {}
                  },
                  "qTrendLines": [],
                  "qMiniChartDef": {
                    "qSortBy": {
                      "qExpression": {}
                    },
                    "qOtherTotalSpec": {
                      "qOtherMode": "OTHER_OFF",
                      "qOtherCounted": {},
                      "qOtherLimit": {},
                      "qOtherLimitMode": "OTHER_GT_LIMIT",
                      "qForceBadValueKeeping": true,
                      "qApplyEvenWhenPossiblyWrongResult": true,
                      "qOtherSortMode": "OTHER_SORT_DESCENDING",
                      "qTotalMode": "TOTAL_OFF",
                      "qReferencedExpression": {}
                    },
                    "qMaxNumberPoints": -1,
                    "qAttributeExpressions": []
                  }
                },
                {
                  "qDef": {
                    "qLabel": "Trigger Level",
                    "qTags": [],
                    "qGrouping": "N",
                    "qDef": "Max({< [SC.DataType]={'TriggerResupply'}, [SC.Measure]={'TL'}>}[SC.Stat_VALUE])",
                    "qNumFormat": {
                      "qType": "U",
                      "qnDec": 10,
                      "qUseThou": 0
                    },
                    "qAccumulate": 0,
                    "qActiveExpression": 0,
                    "qExpressions": [],
                    "autoSort": true,
                    "cId": "RVQWea",
                    "numFormatFromTemplate": true
                  },
                  "qSortBy": {
                    "qExpression": {}
                  },
                  "qAttributeExpressions": [
                    {},
                    {}
                  ],
                  "qAttributeDimensions": [],
                  "qCalcCond": {},
                  "qCalcCondition": {
                    "qCond": {},
                    "qMsg": {}
                  },
                  "qTrendLines": [],
                  "qMiniChartDef": {
                    "qSortBy": {
                      "qExpression": {}
                    },
                    "qOtherTotalSpec": {
                      "qOtherMode": "OTHER_OFF",
                      "qOtherCounted": {},
                      "qOtherLimit": {},
                      "qOtherLimitMode": "OTHER_GT_LIMIT",
                      "qForceBadValueKeeping": true,
                      "qApplyEvenWhenPossiblyWrongResult": true,
                      "qOtherSortMode": "OTHER_SORT_DESCENDING",
                      "qTotalMode": "TOTAL_OFF",
                      "qReferencedExpression": {}
                    },
                    "qMaxNumberPoints": -1,
                    "qAttributeExpressions": []
                  }
                }
              ],
              "qInterColumnSortOrder": [],
              "qInitialDataFetch": [],
              "qReductionMode": "N",
              "qMode": "S",
              "qPseudoDimPos": -1,
              "qNoOfLeftDims": -1,
              "qMaxStackedCells": 5000,
              "qCalcCond": {},
              "qTitle": {},
              "qCalcCondition": {
                "qCond": {},
                "qMsg": {}
              },
              "qColumnOrder": [],
              "qExpansionState": [],
              "qDynamicScript": []
            }
          },
          "columnWidths": [
            [
              112
            ],
            []
          ]
        },
        "showTitles": true,
        "title": "Resupply levels details",
        "subtitle": "",
        "footnote": {
          "qStringExpression": {
            "qExpr": "='*Please select a single site group and product to see the resupply levels'"
          }
        },
        "showDetails": false,
        "visualization": "pivot-table",
        "qLayoutExclude": {}
      },
      "qChildren": []
    },
    {
      "qProperty": {
        "qInfo": {
          "qId": "hFpfbwU",
          "qType": "filterpane"
        },
        "qMetaDef": {},
        "qChildListDef": {
          "qData": {
            "info": "/qInfo"
          }
        },
        "showTitles": false,
        "title": "",
        "subtitle": "",
        "footnote": "",
        "showDetails": false,
        "visualization": "filterpane",
        "disableNavMenu": true
      },
      "qChildren": [
        {
          "qProperty": {
            "qInfo": {
              "qId": "KXeAta",
              "qType": "listbox"
            },
            "qMetaDef": {},
            "qListObjectDef": {
              "qDef": {
                "qGrouping": "N",
                "qFieldDefs": [
                  "Package type"
                ],
                "qFieldLabels": [
                  "Package type label"
                ],
                "qSortCriterias": [
                  {
                    "qSortByState": 1,
                    "qSortByNumeric": 1,
                    "qSortByAscii": 1,
                    "qSortByLoadOrder": 1,
                    "qExpression": {}
                  }
                ],
                "qNumberPresentations": [],
                "qActiveField": 0,
                "autoSort": true,
                "cId": "tDpdNR"
              },
              "qFrequencyMode": "N",
              "qShowAlternatives": true,
              "qInitialDataFetch": [],
              "qExpressions": [],
              "qOtherTotalSpec": {}
            },
            "showTitles": true,
            "title": "Package type",
            "subtitle": "",
            "footnote": "",
            "showDetails": false,
            "visualization": "listbox"
          },
          "qChildren": []
        }
      ]
    },
    {
      "qProperty": {
        "qInfo": {
          "qId": "khJWh",
          "qType": "action-button"
        },
        "qExtendsId": "05038b8a-0049-4065-9cec-db038d443af6",
        "qMetaDef": {}
      },
      "qChildren": []
    },
    {
      "qProperty": {
        "qInfo": {
          "qId": "UTzjyt",
          "qType": "filterpane"
        },
        "qMetaDef": {},
        "qChildListDef": {
          "qData": {
            "info": "/qInfo"
          }
        },
        "showTitles": false,
        "title": "",
        "subtitle": "",
        "footnote": "",
        "showDetails": false,
        "visualization": "filterpane",
        "disableNavMenu": true
      },
      "qChildren": [
        {
          "qProperty": {
            "qInfo": {
              "qId": "b31a8cfa-22aa-4b5d-bc15-744223875a34",
              "qType": "listbox"
            },
            "qMetaDef": {},
            "qListObjectDef": {
              "qDef": {
                "qGrouping": "N",
                "qFieldDefs": [
                  "Product"
                ],
                "qFieldLabels": [
                  "Product label"
                ],
                "qSortCriterias": [
                  {
                    "qSortByState": 1,
                    "qSortByNumeric": 1,
                    "qSortByAscii": 1,
                    "qSortByLoadOrder": 1,
                    "qExpression": {}
                  }
                ],
                "qNumberPresentations": [],
                "qActiveField": 0,
                "autoSort": true,
                "cId": "ZaGGmNx"
              },
              "qFrequencyMode": "N",
              "qShowAlternatives": true,
              "qInitialDataFetch": [],
              "qExpressions": [],
              "qOtherTotalSpec": {}
            },
            "showTitles": true,
            "title": "Product",
            "subtitle": "",
            "footnote": "",
            "showDetails": false,
            "visualization": "listbox"
          },
          "qChildren": []
        }
      ]
    },
    {
      "qProperty": {
        "qInfo": {
          "qId": "AKzaw",
          "qType": "text-image"
        },
        "qMetaDef": {},
        "qHyperCubeDef": {
          "qDimensions": [],
          "qMeasures": [],
          "qInterColumnSortOrder": [],
          "qInitialDataFetch": [],
          "qReductionMode": "N",
          "qMode": "S",
          "qPseudoDimPos": -1,
          "qNoOfLeftDims": -1,
          "qMaxStackedCells": 5000,
          "qCalcCond": {},
          "qTitle": {},
          "qCalcCondition": {
            "qCond": {},
            "qMsg": {}
          },
          "qColumnOrder": [],
          "qExpansionState": [],
          "qDynamicScript": [],
          "qLayoutExclude": {
            "qHyperCubeDef": {
              "qDimensions": [],
              "qMeasures": [],
              "qInterColumnSortOrder": [],
              "qInitialDataFetch": [],
              "qReductionMode": "N",
              "qMode": "S",
              "qPseudoDimPos": -1,
              "qNoOfLeftDims": -1,
              "qMaxStackedCells": 5000,
              "qCalcCond": {},
              "qTitle": {},
              "qCalcCondition": {
                "qCond": {},
                "qMsg": {}
              },
              "qColumnOrder": [],
              "qExpansionState": [],
              "qDynamicScript": []
            }
          }
        },
        "showTitles": false,
        "title": "",
        "subtitle": "",
        "footnote": "",
        "showDetails": false,
        "responsive": "all",
        "markdown": "**#[Do not ship date](3)**  = Do not dispense date  \\-   Minimum storage period at site  \\-  Short window",
        "images": [],
        "background": {
          "isUsed": false,
          "size": "auto",
          "position": "topLeft",
          "url": {}
        },
        "visualization": "text-image"
      },
      "qChildren": []
    },
    {
      "qProperty": {
        "qInfo": {
          "qId": "YZreuk",
          "qType": "action-button"
        },
        "qExtendsId": "d793bc06-1d34-4f28-93d5-c811aff834c6",
        "qMetaDef": {}
      },
      "qChildren": []
    },
    {
      "qProperty": {
        "qInfo": {
          "qId": "mvjRDEH",
          "qType": "action-button"
        },
        "qExtendsId": "e7f2b7a0-f9c6-4cf7-822a-93e727092303",
        "qMetaDef": {}
      },
      "qChildren": []
    },
    {
      "qProperty": {
        "qInfo": {
          "qId": "edLYF",
          "qType": "action-button"
        },
        "qExtendsId": "3cbdcc59-c724-4e20-9f1e-a19dd316980c",
        "qMetaDef": {}
      },
      "qChildren": []
    },
    {
      "qProperty": {
        "qInfo": {
          "qId": "RCKc",
          "qType": "action-button"
        },
        "qExtendsId": "a3f087e9-5fd0-4550-83e7-5912e78059d9",
        "qMetaDef": {}
      },
      "qChildren": []
    },
    {
      "qProperty": {
        "qInfo": {
          "qId": "eSDHk",
          "qType": "action-button"
        },
        "qExtendsId": "c7bacc9f-48b2-40d1-a72f-15847f9d1730",
        "qMetaDef": {}
      },
      "qChildren": []
    },
    {
      "qProperty": {
        "qInfo": {
          "qId": "YrJx",
          "qType": "kpi"
        },
        "qExtendsId": "8fb06240-3f4a-48a4-9410-0d8fde5ec557",
        "qMetaDef": {}
      },
      "qChildren": []
    },
    {
      "qProperty": {
        "qInfo": {
          "qId": "jsFTL",
          "qType": "action-button"
        },
        "qExtendsId": "5b76aa91-d61e-45dc-80a6-f9a23fb743da",
        "qMetaDef": {}
      },
      "qChildren": []
    },
    {
      "qProperty": {
        "qInfo": {
          "qId": "LptgzbW",
          "qType": "action-button"
        },
        "qExtendsId": "75c865db-db7d-412e-a30f-6731d768f815",
        "qMetaDef": {}
      },
      "qChildren": []
    },
    {
      "qProperty": {
        "qInfo": {
          "qId": "nsWHKH",
          "qType": "action-button"
        },
        "qExtendsId": "f816eca2-4aa1-4d47-bd67-d8b7e83811fd",
        "qMetaDef": {}
      },
      "qChildren": []
    },
    {
      "qProperty": {
        "qInfo": {
          "qId": "EYSpC",
          "qType": "action-button"
        },
        "qExtendsId": "14144e52-ada2-4389-aef8-c1d4bfac7cf0",
        "qMetaDef": {}
      },
      "qChildren": []
    },
    {
      "qProperty": {
        "qInfo": {
          "qId": "NyxVZ",
          "qType": "action-button"
        },
        "qExtendsId": "15a86c5c-c517-4220-a6cd-1e7034fcc389",
        "qMetaDef": {}
      },
      "qChildren": []
    },
    {
      "qProperty": {
        "qInfo": {
          "qId": "MUPmwm",
          "qType": "pivot-table"
        },
        "qMetaDef": {},
        "qHyperCubeDef": {
          "qDimensions": [
            {
              "qDef": {
                "qGrouping": "N",
                "qFieldDefs": [
                  "=[Site group]"
                ],
                "qFieldLabels": [
                  "Site group"
                ],
                "qSortCriterias": [
                  {
                    "qSortByNumeric": 1,
                    "qSortByAscii": 1,
                    "qSortByLoadOrder": 1,
                    "qExpression": {}
                  }
                ],
                "qNumberPresentations": [],
                "qActiveField": 0,
                "autoSort": true,
                "cId": "TrJacF",
                "othersLabel": "Others"
              },
              "qNullSuppression": true,
              "qOtherTotalSpec": {
                "qOtherMode": "OTHER_OFF",
                "qOtherCounted": {
                  "qv": "10"
                },
                "qOtherLimit": {
                  "qv": "0"
                },
                "qOtherLimitMode": "OTHER_GE_LIMIT",
                "qForceBadValueKeeping": true,
                "qApplyEvenWhenPossiblyWrongResult": true,
                "qOtherSortMode": "OTHER_SORT_DESCENDING",
                "qTotalMode": "TOTAL_OFF",
                "qReferencedExpression": {}
              },
              "qOtherLabel": {
                "qv": "Others"
              },
              "qTotalLabel": {
                "qv": "Totals"
              },
              "qCalcCond": {},
              "qAttributeExpressions": [],
              "qAttributeDimensions": [],
              "qCalcCondition": {
                "qCond": {},
                "qMsg": {}
              }
            },
            {
              "qDef": {
                "qGrouping": "N",
                "qFieldDefs": [
                  "Package type"
                ],
                "qFieldLabels": [
                  "Package type"
                ],
                "qSortCriterias": [
                  {
                    "qSortByNumeric": 1,
                    "qSortByAscii": 1,
                    "qSortByLoadOrder": 1,
                    "qExpression": {}
                  }
                ],
                "qNumberPresentations": [],
                "qActiveField": 0,
                "autoSort": true,
                "cId": "jFhGjBJ",
                "othersLabel": "Autres",
                "textAlign": {
                  "auto": true,
                  "align": "left"
                },
                "representation": {
                  "type": "text",
                  "urlLabel": ""
                }
              },
              "qNullSuppression": true,
              "qOtherTotalSpec": {
                "qOtherMode": "OTHER_OFF",
                "qOtherCounted": {
                  "qv": "10"
                },
                "qOtherLimit": {
                  "qv": "0"
                },
                "qOtherLimitMode": "OTHER_GE_LIMIT",
                "qForceBadValueKeeping": true,
                "qApplyEvenWhenPossiblyWrongResult": true,
                "qOtherSortMode": "OTHER_SORT_DESCENDING",
                "qTotalMode": "TOTAL_OFF",
                "qReferencedExpression": {}
              },
              "qOtherLabel": {
                "qv": "Autres"
              },
              "qTotalLabel": {
                "qv": "Totaux"
              },
              "qCalcCond": {},
              "qAttributeExpressions": [],
              "qAttributeDimensions": [],
              "qCalcCondition": {
                "qCond": {},
                "qMsg": {}
              },
              "othersLabel": "Autres"
            }
          ],
          "qMeasures": [
            {
              "qDef": {
                "qLabel": "Short window (days)",
                "qTags": [],
                "qGrouping": "N",
                "qDef": "Min(if([Short window]<>null(),[Short window]))",
                "qNumFormat": {
                  "qType": "F",
                  "qnDec": 2,
                  "qUseThou": 0,
                  "qFmt": "#,##0",
                  "qDec": ".",
                  "qThou": ","
                },
                "qAggrFunc": "Expr",
                "qAccumulate": 0,
                "qActiveExpression": 0,
                "qExpressions": [],
                "autoSort": true,
                "cId": "XHstkkh",
                "numFormatFromTemplate": true,
                "textAlign": {
                  "auto": true,
                  "align": "left"
                }
              },
              "qSortBy": {
                "qSortByNumeric": -1,
                "qSortByLoadOrder": 1,
                "qExpression": {}
              },
              "qAttributeExpressions": [
                {
                  "qAttribute": true
                },
                {
                  "qAttribute": true
                }
              ],
              "qAttributeDimensions": [],
              "qCalcCond": {},
              "qCalcCondition": {
                "qCond": {},
                "qMsg": {}
              },
              "qTrendLines": [],
              "qMiniChartDef": {
                "qSortBy": {
                  "qExpression": {}
                },
                "qOtherTotalSpec": {
                  "qOtherMode": "OTHER_OFF",
                  "qOtherCounted": {},
                  "qOtherLimit": {},
                  "qOtherLimitMode": "OTHER_GT_LIMIT",
                  "qForceBadValueKeeping": true,
                  "qApplyEvenWhenPossiblyWrongResult": true,
                  "qOtherSortMode": "OTHER_SORT_DESCENDING",
                  "qTotalMode": "TOTAL_OFF",
                  "qReferencedExpression": {}
                },
                "qMaxNumberPoints": -1,
                "qAttributeExpressions": []
              }
            },
            {
              "qDef": {
                "qLabel": "Long window (days)",
                "qTags": [],
                "qGrouping": "N",
                "qDef": "Min(\r\nif([Short window]<>null(),\n[Short window]\n+\n[Prediction window]*[PWM site]\n)\n)\n//should we include the fact that there is a single DNS? And then a single PW for the whole study?",
                "qNumFormat": {
                  "qType": "F",
                  "qnDec": 2,
                  "qUseThou": 0,
                  "qFmt": "#,##0",
                  "qDec": ".",
                  "qThou": ","
                },
                "qAggrFunc": "Expr",
                "qAccumulate": 0,
                "qActiveExpression": 0,
                "qExpressions": [],
                "autoSort": true,
                "cId": "DZPRW",
                "numFormatFromTemplate": true,
                "textAlign": {
                  "auto": true,
                  "align": "left"
                }
              },
              "qSortBy": {
                "qSortByNumeric": -1,
                "qSortByLoadOrder": 1,
                "qExpression": {}
              },
              "qAttributeExpressions": [
                {
                  "qAttribute": true
                },
                {
                  "qAttribute": true
                }
              ],
              "qAttributeDimensions": [],
              "qCalcCond": {},
              "qCalcCondition": {
                "qCond": {},
                "qMsg": {}
              },
              "qTrendLines": [],
              "qMiniChartDef": {
                "qSortBy": {
                  "qExpression": {}
                },
                "qOtherTotalSpec": {
                  "qOtherMode": "OTHER_OFF",
                  "qOtherCounted": {},
                  "qOtherLimit": {},
                  "qOtherLimitMode": "OTHER_GT_LIMIT",
                  "qForceBadValueKeeping": true,
                  "qApplyEvenWhenPossiblyWrongResult": true,
                  "qOtherSortMode": "OTHER_SORT_DESCENDING",
                  "qTotalMode": "TOTAL_OFF",
                  "qReferencedExpression": {}
                },
                "qMaxNumberPoints": -1,
                "qAttributeExpressions": []
              }
            },
            {
              "qDef": {
                "qLabel": "Minimum storage period",
                "qTags": [],
                "qGrouping": "N",
                "qDef": "Max([Minimum storage period])",
                "qNumFormat": {
                  "qType": "F",
                  "qnDec": 2,
                  "qUseThou": 0,
                  "qFmt": "#,##0",
                  "qDec": ".",
                  "qThou": ","
                },
                "qAggrFunc": "Expr",
                "qAccumulate": 0,
                "qActiveExpression": 0,
                "qExpressions": [],
                "autoSort": true,
                "cId": "WGYeNc",
                "numFormatFromTemplate": true,
                "textAlign": {
                  "auto": true,
                  "align": "left"
                }
              },
              "qSortBy": {
                "qSortByNumeric": -1,
                "qSortByLoadOrder": 1,
                "qExpression": {}
              },
              "qAttributeExpressions": [
                {
                  "qAttribute": true
                },
                {
                  "qAttribute": true
                }
              ],
              "qAttributeDimensions": [],
              "qCalcCond": {},
              "qCalcCondition": {
                "qCond": {},
                "qMsg": {}
              },
              "qTrendLines": [],
              "qMiniChartDef": {
                "qSortBy": {
                  "qExpression": {}
                },
                "qOtherTotalSpec": {
                  "qOtherMode": "OTHER_OFF",
                  "qOtherCounted": {},
                  "qOtherLimit": {},
                  "qOtherLimitMode": "OTHER_GT_LIMIT",
                  "qForceBadValueKeeping": true,
                  "qApplyEvenWhenPossiblyWrongResult": true,
                  "qOtherSortMode": "OTHER_SORT_DESCENDING",
                  "qTotalMode": "TOTAL_OFF",
                  "qReferencedExpression": {}
                },
                "qMaxNumberPoints": -1,
                "qAttributeExpressions": []
              }
            }
          ],
          "qInterColumnSortOrder": [
            0,
            1,
            -1
          ],
          "qSuppressMissing": true,
          "qInitialDataFetch": [
            {
              "qLeft": 0,
              "qTop": 0,
              "qWidth": 50,
              "qHeight": 50
            }
          ],
          "qReductionMode": "N",
          "qMode": "P",
          "qPseudoDimPos": -1,
          "qNoOfLeftDims": 2,
          "qMaxStackedCells": 5000,
          "qShowTotalsAbove": true,
          "qIndentMode": true,
          "qCalcCond": {},
          "qTitle": {},
          "qCalcCondition": {
            "qCond": {},
            "qMsg": {}
          },
          "qColumnOrder": [
            0,
            1,
            2,
            3,
            4
          ],
          "qExpansionState": [],
          "qDynamicScript": [],
          "columnWidths": [
            [
              112
            ],
            [
              null,
              null
            ]
          ],
          "columnOrder": [
            0,
            1,
            2,
            3,
            4
          ],
          "customErrorMessage": {
            "calcCond": "Please select a single Source file and a single Scenario"
          },
          "qLayoutExclude": {
            "qHyperCubeDef": {
              "qDimensions": [],
              "qMeasures": [],
              "qInterColumnSortOrder": [],
              "qInitialDataFetch": [],
              "qReductionMode": "N",
              "qMode": "S",
              "qPseudoDimPos": -1,
              "qNoOfLeftDims": -1,
              "qMaxStackedCells": 5000,
              "qCalcCond": {},
              "qTitle": {},
              "qCalcCondition": {
                "qCond": {},
                "qMsg": {}
              },
              "qColumnOrder": [],
              "qExpansionState": [],
              "qDynamicScript": []
            }
          }
        },
        "showTitles": true,
        "title": "IRT setup at sites",
        "subtitle": "",
        "footnote": {
          "qStringExpression": {
            "qExpr": "='*Please choose a specific site when filtering by site group for consistent data'"
          }
        },
        "showDetails": false,
        "visualization": "pivot-table",
        "qLayoutExclude": {}
      },
      "qChildren": []
    },
    {
      "qProperty": {
        "qInfo": {
          "qId": "JRqVJ",
          "qType": "action-button"
        },
        "qMetaDef": {},
        "actions": [],
        "navigation": {
          "action": "goToSheet",
          "sheet": "e5505282-94d5-4bc1-b80e-1792df8f1e85",
          "story": "",
          "websiteUrl": "",
          "sameWindow": false
        },
        "useEnabledCondition": false,
        "enabledCondition": 1,
        "showTitles": false,
        "title": "",
        "subtitle": "",
        "footnote": "",
        "disableNavMenu": true,
        "showDetails": false,
        "style": {
          "label": "Depot shipments",
          "font": {
            "size": 0.62,
            "useColorExpression": false,
            "color": {
              "index": -1,
              "color": null
            },
            "colorExpression": "",
            "style": {
              "bold": false,
              "italic": false,
              "underline": false
            },
            "align": "center"
          },
          "background": {
            "useColorExpression": false,
            "color": {
              "index": -1,
              "color": "#8CBB13"
            },
            "colorExpression": "",
            "useImage": false,
            "size": "auto",
            "position": "centerCenter",
            "url": {
              "qStaticContentUrlDef": {}
            }
          },
          "border": {
            "useBorder": false,
            "radius": 0,
            "width": 0,
            "useColorExpression": false,
            "color": {
              "index": -1,
              "color": null
            },
            "colorExpression": ""
          },
          "icon": {
            "useIcon": false,
            "iconType": "",
            "position": "left"
          }
        },
        "visualization": "action-button",
        "props": {
          "fullWidth": "auto",
          "useEnabledCondition": null
        },
        "qLayoutExclude": {
          "disabled": {}
        }
      },
      "qChildren": []
    },
    {
      "qProperty": {
        "qInfo": {
          "qId": "HtJEXq",
          "qType": "action-button"
        },
        "qExtendsId": "01a07fb3-b3e2-4d95-b9b1-224d283755c2",
        "qMetaDef": {}
      },
      "qChildren": []
    },
    {
      "qProperty": {
        "qInfo": {
          "qId": "xWjWzm",
          "qType": "action-button"
        },
        "qExtendsId": "a5032de1-0a03-439f-94ac-a5c37e909828",
        "qMetaDef": {}
      },
      "qChildren": []
    }
  ]
}