{
  "qProperty": {
    "qInfo": {
      "qId": "793fb147-c70d-4274-8b75-37db1b627937",
      "qType": "sheet"
    },
    "qMetaDef": {
      "title": "Check release overlap",
      "description": ""
    },
    "rank": 2.125,
    "thumbnail": {
      "qStaticContentUrlDef": {
        "qUrl": "/appcontent/f939c40e-e294-4d8d-8f15-8283cc8a6343/Inventory management-02.jpg"
      }
    },
    "columns": 36,
    "rows": 18,
    "cells": [
      {
        "name": "06d64580-a2e4-440b-87b2-ed0f43245468",
        "type": "kpi",
        "col": 32,
        "row": 7,
        "colspan": 4,
        "rowspan": 3,
        "bounds": {
          "y": 38.88888888888889,
          "x": 88.88888888888889,
          "width": 11.11111111111111,
          "height": 16.666666666666664
        }
      },
      {
        "name": "cvjqvD",
        "type": "action-button",
        "col": 32,
        "row": 12,
        "colspan": 4,
        "rowspan": 1,
        "bounds": {
          "y": 66.66666666666666,
          "x": 88.88888888888889,
          "width": 11.11111111111111,
          "height": 5.555555555555555
        }
      },
      {
        "name": "mBXraYz",
        "type": "action-button",
        "col": 32,
        "row": 11,
        "colspan": 4,
        "rowspan": 1,
        "bounds": {
          "y": 61.111111111111114,
          "x": 88.88888888888889,
          "width": 11.11111111111111,
          "height": 5.555555555555555
        }
      },
      {
        "name": "PjJXNe",
        "type": "action-button",
        "col": 32,
        "row": 13,
        "colspan": 4,
        "rowspan": 1,
        "bounds": {
          "y": 72.22222222222221,
          "x": 88.88888888888889,
          "width": 11.11111111111111,
          "height": 5.555555555555555
        }
      },
      {
        "name": "kjfqTn",
        "type": "filterpane",
        "col": 32,
        "row": 0,
        "colspan": 4,
        "rowspan": 1,
        "bounds": {
          "y": 0,
          "x": 88.88888888888889,
          "width": 11.11111111111111,
          "height": 5.555555555555555
        }
      },
      {
        "name": "SdDhG",
        "type": "text-image",
        "col": 32,
        "row": 3,
        "colspan": 4,
        "rowspan": 4,
        "bounds": {
          "y": 16.666666666666664,
          "x": 88.88888888888889,
          "width": 11.11111111111111,
          "height": 22.22222222222222
        }
      },
      {
        "name": "GaDumC",
        "type": "variable",
        "col": 32,
        "row": 2,
        "colspan": 4,
        "rowspan": 1,
        "bounds": {
          "y": 11.11111111111111,
          "x": 88.88888888888889,
          "width": 11.11111111111111,
          "height": 5.555555555555555
        }
      },
      {
        "name": "mUWLJ",
        "type": "bi-irregular-timeline",
        "col": 0,
        "row": 0,
        "colspan": 31,
        "rowspan": 15,
        "bounds": {
          "y": 0,
          "x": 0,
          "width": 87.5,
          "height": 83.33333333333334
        }
      },
      {
        "name": "QGxmBvC",
        "type": "action-button",
        "col": 32,
        "row": 17,
        "colspan": 4,
        "rowspan": 1,
        "bounds": {
          "y": 94.44444444444444,
          "x": 88.88888888888889,
          "width": 11.11111111111111,
          "height": 5.555555555555555
        }
      },
      {
        "name": "DmpJZN",
        "type": "action-button",
        "col": 32,
        "row": 16,
        "colspan": 4,
        "rowspan": 1,
        "bounds": {
          "y": 88.88888888888889,
          "x": 88.88888888888889,
          "width": 11.11111111111111,
          "height": 5.555555555555555
        }
      },
      {
        "name": "peDtPq",
        "type": "action-button",
        "col": 28,
        "row": 16,
        "colspan": 4,
        "rowspan": 1,
        "bounds": {
          "y": 88.88888888888889,
          "x": 77.77777777777779,
          "width": 11.11111111111111,
          "height": 5.555555555555555
        }
      },
      {
        "name": "UcQeMTt",
        "type": "action-button",
        "col": 4,
        "row": 16,
        "colspan": 4,
        "rowspan": 1,
        "bounds": {
          "y": 88.88888888888889,
          "x": 11.11111111111111,
          "width": 11.11111111111111,
          "height": 5.555555555555555
        }
      },
      {
        "name": "kDkkc",
        "type": "action-button",
        "col": 12,
        "row": 16,
        "colspan": 4,
        "rowspan": 1,
        "bounds": {
          "y": 88.88888888888889,
          "x": 33.33333333333333,
          "width": 11.11111111111111,
          "height": 5.555555555555555
        }
      },
      {
        "name": "pcJyAR",
        "type": "action-button",
        "col": 8,
        "row": 16,
        "colspan": 4,
        "rowspan": 1,
        "bounds": {
          "y": 88.88888888888889,
          "x": 22.22222222222222,
          "width": 11.11111111111111,
          "height": 5.555555555555555
        }
      },
      {
        "name": "zCnsQU",
        "type": "action-button",
        "col": 12,
        "row": 17,
        "colspan": 4,
        "rowspan": 1,
        "bounds": {
          "y": 94.44444444444444,
          "x": 33.33333333333333,
          "width": 11.11111111111111,
          "height": 5.555555555555555
        }
      },
      {
        "name": "BdFKbfk",
        "type": "action-button",
        "col": 16,
        "row": 16,
        "colspan": 4,
        "rowspan": 1,
        "bounds": {
          "y": 88.88888888888889,
          "x": 44.44444444444444,
          "width": 11.11111111111111,
          "height": 5.555555555555555
        }
      },
      {
        "name": "wJRAP",
        "type": "action-button",
        "col": 16,
        "row": 17,
        "colspan": 4,
        "rowspan": 1,
        "bounds": {
          "y": 94.44444444444444,
          "x": 44.44444444444444,
          "width": 11.11111111111111,
          "height": 5.555555555555555
        }
      },
      {
        "name": "CJHhzkj",
        "type": "action-button",
        "col": 20,
        "row": 16,
        "colspan": 4,
        "rowspan": 1,
        "bounds": {
          "y": 88.88888888888889,
          "x": 55.55555555555556,
          "width": 11.11111111111111,
          "height": 5.555555555555555
        }
      },
      {
        "name": "hNAwh",
        "type": "action-button",
        "col": 20,
        "row": 17,
        "colspan": 4,
        "rowspan": 1,
        "bounds": {
          "y": 94.44444444444444,
          "x": 55.55555555555556,
          "width": 11.11111111111111,
          "height": 5.555555555555555
        }
      },
      {
        "name": "QJkTRy",
        "type": "action-button",
        "col": 24,
        "row": 16,
        "colspan": 4,
        "rowspan": 1,
        "bounds": {
          "y": 88.88888888888889,
          "x": 66.66666666666666,
          "width": 11.11111111111111,
          "height": 5.555555555555555
        }
      },
      {
        "name": "SHEWjz",
        "type": "action-button",
        "col": 24,
        "row": 17,
        "colspan": 4,
        "rowspan": 1,
        "bounds": {
          "y": 94.44444444444444,
          "x": 66.66666666666666,
          "width": 11.11111111111111,
          "height": 5.555555555555555
        }
      },
      {
        "name": "mQaXgsP",
        "type": "action-button",
        "col": 28,
        "row": 17,
        "colspan": 4,
        "rowspan": 1,
        "bounds": {
          "y": 94.44444444444444,
          "x": 77.77777777777779,
          "width": 11.11111111111111,
          "height": 5.555555555555555
        }
      },
      {
        "name": "MjELVRU",
        "type": "action-button",
        "col": 32,
        "row": 14,
        "colspan": 4,
        "rowspan": 1,
        "bounds": {
          "y": 77.77777777777779,
          "x": 88.88888888888889,
          "width": 11.11111111111111,
          "height": 5.555555555555555
        }
      }
    ],
    "qChildListDef": {
      "qData": {
        "title": "/title"
      }
    },
    "gridResolution": "large",
    "layoutOptions": {
      "extendable": false,
      "sheetMode": "RESPONSIVE"
    },
    "height": 100,
    "pxHeight": 1024,
    "pxWidth": 1280
  },
  "qChildren": [
    {
      "qProperty": {
        "qInfo": {
          "qId": "cvjqvD",
          "qType": "action-button"
        },
        "qMetaDef": {},
        "actions": [],
        "navigation": {
          "action": "goToSheet",
          "sheet": "3cdc437a-0557-4359-b05d-ee2b475865a2",
          "story": "",
          "websiteUrl": "",
          "sameWindow": false
        },
        "useEnabledCondition": false,
        "enabledCondition": 1,
        "showTitles": false,
        "title": "",
        "subtitle": "",
        "footnote": "",
        "disableNavMenu": true,
        "showDetails": false,
        "style": {
          "label": "Quantities in stock",
          "font": {
            "size": 0.61,
            "useColorExpression": false,
            "color": {
              "index": -1,
              "color": null
            },
            "colorExpression": "",
            "style": {
              "bold": false,
              "italic": false,
              "underline": false
            },
            "align": "center"
          },
          "background": {
            "useColorExpression": false,
            "color": {
              "index": -1,
              "color": "#0AABC2"
            },
            "colorExpression": "",
            "useImage": false,
            "size": "auto",
            "position": "centerCenter",
            "url": {
              "qStaticContentUrlDef": {}
            }
          },
          "border": {
            "useBorder": false,
            "radius": 0,
            "width": 0,
            "useColorExpression": false,
            "color": {
              "index": -1,
              "color": null
            },
            "colorExpression": ""
          },
          "icon": {
            "useIcon": false,
            "iconType": "",
            "position": "left"
          }
        },
        "visualization": "action-button",
        "props": {
          "fullWidth": "auto",
          "useEnabledCondition": null
        },
        "qLayoutExclude": {
          "disabled": {}
        },
        "masterVersion": 0.96
      },
      "qChildren": []
    },
    {
      "qProperty": {
        "qInfo": {
          "qId": "06d64580-a2e4-440b-87b2-ed0f43245468",
          "qType": "kpi"
        },
        "qExtendsId": "8fb06240-3f4a-48a4-9410-0d8fde5ec557",
        "qMetaDef": {}
      },
      "qChildren": []
    },
    {
      "qProperty": {
        "qInfo": {
          "qId": "SdDhG",
          "qType": "text-image"
        },
        "qMetaDef": {},
        "qHyperCubeDef": {
          "qDimensions": [],
          "qMeasures": [],
          "qInterColumnSortOrder": [],
          "qInitialDataFetch": [],
          "qReductionMode": "N",
          "qMode": "S",
          "qPseudoDimPos": -1,
          "qNoOfLeftDims": -1,
          "qMaxStackedCells": 5000,
          "qCalcCond": {},
          "qTitle": {},
          "qCalcCondition": {
            "qCond": {},
            "qMsg": {}
          },
          "qColumnOrder": [],
          "qExpansionState": [],
          "qDynamicScript": [],
          "customErrorMessage": {
            "calcCond": ""
          },
          "qLayoutExclude": {
            "qHyperCubeDef": {
              "qDimensions": [],
              "qMeasures": [],
              "qInterColumnSortOrder": [],
              "qInitialDataFetch": [],
              "qReductionMode": "N",
              "qMode": "S",
              "qPseudoDimPos": -1,
              "qNoOfLeftDims": -1,
              "qMaxStackedCells": 5000,
              "qCalcCond": {},
              "qTitle": {},
              "qCalcCondition": {
                "qCond": {},
                "qMsg": {}
              },
              "qColumnOrder": [],
              "qExpansionState": [],
              "qDynamicScript": []
            }
          }
        },
        "showTitles": false,
        "title": "",
        "subtitle": "",
        "footnote": "",
        "showDetails": false,
        "responsive": "all",
        "markdown": "^[This sheet can be used to evaluate the overlap between releases. Visualizing the **shelf\\-life of products for each of the releases** is a good way to evaluate if expiry replacements can be done in time. A bad overlap between releases could lead to risk. #[ For further information on risk related to a bad overlap and on how to build a safe release schedule, please read this ]({\"index\":-1,\"color\":\"#172b4d\"})@[#[**article**](3)](https://n\\-side.atlassian.net/servicedesk/customer/portal/14/article/829621129)](center)",
        "images": [],
        "background": {
          "isUsed": false,
          "size": "auto",
          "position": "topLeft",
          "url": {}
        },
        "visualization": "text-image",
        "disableNavMenu": true
      },
      "qChildren": []
    },
    {
      "qProperty": {
        "qInfo": {
          "qId": "GaDumC",
          "qType": "variable"
        },
        "qMetaDef": {},
        "showTitles": false,
        "title": "",
        "subtitle": "",
        "footnote": "",
        "showDetails": false,
        "variableName": "vReleaseType",
        "style": "qlik",
        "width": "",
        "customwidth": "",
        "render": "s",
        "alternatives": [
          {
            "value": "IP availability at Central depot",
            "label": {
              "qStringExpression": {
                "qExpr": "'IP availability at Central depot'"
              }
            },
            "cId": "pmqpJf"
          },
          {
            "value": "Release date",
            "label": {
              "qStringExpression": {
                "qExpr": "'Release date'"
              }
            },
            "cId": "cCqfF"
          }
        ],
        "min": 0,
        "max": 100,
        "step": 1,
        "rangelabel": false,
        "visualization": "variable",
        "variableValue": {
          "qStringExpression": {
            "qExpr": "=vReleaseType"
          }
        },
        "version": "2.3.1",
        "extensionMeta": {
          "translationKey": "",
          "icon": "puzzle",
          "iconChar": "g",
          "isLibraryItem": true,
          "visible": true,
          "name": "Variable",
          "description": "Variable extension",
          "template": "variable",
          "isThirdParty": true,
          "version": "2.3.1",
          "type": "visualization",
          "author": "Erik Wetterberg"
        },
        "disableNavMenu": true
      },
      "qChildren": []
    },
    {
      "qProperty": {
        "qInfo": {
          "qId": "mBXraYz",
          "qType": "action-button"
        },
        "qMetaDef": {},
        "actions": [],
        "navigation": {
          "action": "goToSheet",
          "sheet": "05cb512b-226e-496e-a9e6-d7e0bebf15ce",
          "story": "",
          "websiteUrl": "",
          "sameWindow": false
        },
        "useEnabledCondition": false,
        "enabledCondition": 1,
        "showTitles": false,
        "title": "",
        "subtitle": "",
        "footnote": "",
        "disableNavMenu": true,
        "showDetails": false,
        "style": {
          "label": "Quantites to be packaged",
          "font": {
            "size": 0.83,
            "useColorExpression": false,
            "color": {
              "index": -1,
              "color": null
            },
            "colorExpression": "",
            "style": {
              "bold": false,
              "italic": false,
              "underline": false
            },
            "align": "center"
          },
          "background": {
            "useColorExpression": false,
            "color": {
              "index": -1,
              "color": "#0AABC2"
            },
            "colorExpression": "",
            "useImage": false,
            "size": "auto",
            "position": "centerCenter",
            "url": {
              "qStaticContentUrlDef": {}
            }
          },
          "border": {
            "useBorder": false,
            "radius": 0,
            "width": 0,
            "useColorExpression": false,
            "color": {
              "index": -1,
              "color": null
            },
            "colorExpression": ""
          },
          "icon": {
            "useIcon": false,
            "iconType": "",
            "position": "left"
          }
        },
        "visualization": "action-button",
        "props": {
          "fullWidth": "auto",
          "useEnabledCondition": null
        },
        "qLayoutExclude": {
          "disabled": {}
        },
        "masterVersion": 0.96
      },
      "qChildren": []
    },
    {
      "qProperty": {
        "qInfo": {
          "qId": "kjfqTn",
          "qType": "filterpane"
        },
        "qMetaDef": {},
        "qChildListDef": {
          "qData": {
            "info": "/qInfo"
          }
        },
        "showTitles": false,
        "title": "",
        "subtitle": "",
        "footnote": "",
        "showDetails": false,
        "visualization": "filterpane",
        "disableNavMenu": true
      },
      "qChildren": [
        {
          "qProperty": {
            "qInfo": {
              "qId": "PsdCUMp",
              "qType": "listbox"
            },
            "qMetaDef": {},
            "qListObjectDef": {
              "qDef": {
                "qGrouping": "N",
                "qFieldDefs": [
                  "=Product"
                ],
                "qFieldLabels": [
                  "=[Product label]"
                ],
                "qSortCriterias": [
                  {
                    "qSortByState": 1,
                    "qSortByNumeric": 1,
                    "qSortByAscii": 1,
                    "qSortByLoadOrder": 1,
                    "qExpression": {}
                  }
                ],
                "qNumberPresentations": [],
                "qActiveField": 0,
                "autoSort": true,
                "cId": "tDpdNR"
              },
              "qFrequencyMode": "N",
              "qShowAlternatives": true,
              "qInitialDataFetch": [],
              "qExpressions": [],
              "qOtherTotalSpec": {}
            },
            "showTitles": true,
            "title": "Product",
            "subtitle": "",
            "footnote": "",
            "showDetails": false,
            "visualization": "listbox"
          },
          "qChildren": []
        }
      ]
    },
    {
      "qProperty": {
        "qInfo": {
          "qId": "QGxmBvC",
          "qType": "action-button"
        },
        "qExtendsId": "a5032de1-0a03-439f-94ac-a5c37e909828",
        "qMetaDef": {}
      },
      "qChildren": []
    },
    {
      "qProperty": {
        "qInfo": {
          "qId": "mUWLJ",
          "qType": "bi-irregular-timeline"
        },
        "qMetaDef": {},
        "qHyperCubeDef": {
          "qDimensions": [
            {
              "qDef": {
                "qGrouping": "N",
                "qFieldDefs": [
                  "=\r\nif(DataType='Production',Product)  &  \"$(vReleaseType)\" & if ([DataType]='Production' and [LotNumber code]<>null(), [LotNumber code]) & if([DataType]='Production',[Expiry])\n\n"
                ],
                "qFieldLabels": [
                  "Product"
                ],
                "qSortCriterias": [
                  {
                    "qSortByLoadOrder": 1,
                    "qSortByExpression": 1,
                    "qExpression": {
                      "qv": "if($(vReleaseType)=1, [IP availability at Central depot], [Release date]) & if (DataType='Production', Product)"
                    }
                  }
                ],
                "qNumberPresentations": [],
                "qActiveField": 0,
                "autoSort": true,
                "cId": "JMVJjy",
                "othersLabel": "Sonstige"
              },
              "qNullSuppression": true,
              "qOtherTotalSpec": {
                "qOtherMode": "OTHER_OFF",
                "qOtherCounted": {
                  "qv": "10"
                },
                "qOtherLimit": {
                  "qv": "0"
                },
                "qOtherLimitMode": "OTHER_GE_LIMIT",
                "qForceBadValueKeeping": true,
                "qApplyEvenWhenPossiblyWrongResult": true,
                "qOtherSortMode": "OTHER_SORT_DESCENDING",
                "qTotalMode": "TOTAL_OFF",
                "qReferencedExpression": {}
              },
              "qOtherLabel": {},
              "qTotalLabel": {},
              "qCalcCond": {},
              "qAttributeExpressions": [],
              "qAttributeDimensions": [],
              "qCalcCondition": {
                "qCond": {},
                "qMsg": {}
              }
            },
            {
              "qDef": {
                "qGrouping": "N",
                "qFieldDefs": [
                  "=if ([DataType]='Production' and [LotNumber code]<>null(), [LotNumber code],'-') \r\n\n"
                ],
                "qFieldLabels": [
                  "LotNumber"
                ],
                "qSortCriterias": [
                  {
                    "qSortByLoadOrder": 1,
                    "qSortByExpression": 1,
                    "qExpression": {
                      "qv": "if($(vReleaseType)=1, [IP availability at Central depot], [Release date]) & [LotNumber code]"
                    }
                  }
                ],
                "qNumberPresentations": [],
                "qActiveField": 0,
                "autoSort": false,
                "cId": "vxudA",
                "othersLabel": "Sonstige"
              },
              "qOtherTotalSpec": {
                "qOtherMode": "OTHER_OFF",
                "qOtherCounted": {
                  "qv": "10"
                },
                "qOtherLimit": {
                  "qv": "0"
                },
                "qOtherLimitMode": "OTHER_GE_LIMIT",
                "qForceBadValueKeeping": true,
                "qApplyEvenWhenPossiblyWrongResult": true,
                "qOtherSortMode": "OTHER_SORT_DESCENDING",
                "qTotalMode": "TOTAL_OFF",
                "qReferencedExpression": {}
              },
              "qOtherLabel": {},
              "qTotalLabel": {},
              "qCalcCond": {},
              "qAttributeExpressions": [],
              "qAttributeDimensions": [],
              "qCalcCondition": {
                "qCond": {},
                "qMsg": {}
              }
            },
            {
              "qDef": {
                "qGrouping": "N",
                "qFieldDefs": [
                  "=date(\"$(vReleaseType)\")"
                ],
                "qFieldLabels": [
                  "Availability / Release date"
                ],
                "qSortCriterias": [
                  {
                    "qSortByLoadOrder": 1,
                    "qSortByExpression": 1,
                    "qExpression": {
                      "qv": "MinString(if($(vReleaseType)=1, [IP availability at Central depot], [Release date]))"
                    }
                  }
                ],
                "qNumberPresentations": [],
                "qActiveField": 0,
                "autoSort": true,
                "cId": "UqSpBH",
                "othersLabel": "Sonstige"
              },
              "qOtherTotalSpec": {
                "qOtherMode": "OTHER_OFF",
                "qOtherCounted": {
                  "qv": "10"
                },
                "qOtherLimit": {
                  "qv": "0"
                },
                "qOtherLimitMode": "OTHER_GE_LIMIT",
                "qForceBadValueKeeping": true,
                "qApplyEvenWhenPossiblyWrongResult": true,
                "qOtherSortMode": "OTHER_SORT_DESCENDING",
                "qTotalMode": "TOTAL_OFF",
                "qReferencedExpression": {}
              },
              "qOtherLabel": {},
              "qTotalLabel": {},
              "qCalcCond": {},
              "qAttributeExpressions": [],
              "qAttributeDimensions": [],
              "qCalcCondition": {
                "qCond": {},
                "qMsg": {}
              }
            },
            {
              "qDef": {
                "qGrouping": "N",
                "qFieldDefs": [
                  "=if([DataType]='Production',[Expiry])"
                ],
                "qFieldLabels": [
                  "Expiry date"
                ],
                "qSortCriterias": [
                  {
                    "qSortByLoadOrder": 1,
                    "qExpression": {}
                  }
                ],
                "qNumberPresentations": [],
                "qActiveField": 0,
                "autoSort": true,
                "cId": "RjPFPq",
                "othersLabel": "Sonstige"
              },
              "qOtherTotalSpec": {
                "qOtherMode": "OTHER_OFF",
                "qOtherCounted": {
                  "qv": "10"
                },
                "qOtherLimit": {
                  "qv": "0"
                },
                "qOtherLimitMode": "OTHER_GE_LIMIT",
                "qForceBadValueKeeping": true,
                "qApplyEvenWhenPossiblyWrongResult": true,
                "qOtherSortMode": "OTHER_SORT_DESCENDING",
                "qTotalMode": "TOTAL_OFF",
                "qReferencedExpression": {}
              },
              "qOtherLabel": {},
              "qTotalLabel": {},
              "qCalcCond": {},
              "qAttributeExpressions": [],
              "qAttributeDimensions": [],
              "qCalcCondition": {
                "qCond": {},
                "qMsg": {}
              }
            },
            {
              "qDef": {
                "qGrouping": "N",
                "qFieldDefs": [
                  "=''"
                ],
                "qFieldLabels": [
                  ""
                ],
                "qSortCriterias": [
                  {
                    "qSortByAscii": 1,
                    "qSortByLoadOrder": 1,
                    "qExpression": {}
                  }
                ],
                "qNumberPresentations": [],
                "qActiveField": 0,
                "qLabelExpression": "=''",
                "autoSort": true,
                "cId": "LuNDVt",
                "othersLabel": "Sonstige"
              },
              "qOtherTotalSpec": {
                "qOtherMode": "OTHER_OFF",
                "qOtherCounted": {
                  "qv": "10"
                },
                "qOtherLimit": {
                  "qv": "0"
                },
                "qOtherLimitMode": "OTHER_GE_LIMIT",
                "qForceBadValueKeeping": true,
                "qApplyEvenWhenPossiblyWrongResult": true,
                "qOtherSortMode": "OTHER_SORT_DESCENDING",
                "qTotalMode": "TOTAL_OFF",
                "qReferencedExpression": {}
              },
              "qOtherLabel": {},
              "qTotalLabel": {},
              "qCalcCond": {},
              "qAttributeExpressions": [],
              "qAttributeDimensions": [],
              "qCalcCondition": {
                "qCond": {},
                "qMsg": {}
              }
            }
          ],
          "qMeasures": [
            {
              "qDef": {
                "qLabel": "Tool-tip",
                "qTags": [],
                "qGrouping": "N",
                "qDef": "MinString(\r\n\t'<B>' & 'Product: ' & '</B>' \t  & Product & chr(10) & '<br>'\n    & '<B>' & 'Lot number: ' & '</B>' & if([LotNumber code]<>null(), LotNumber,'-') & '<br>'\n    & '<B>' & '$(vReleaseType)' &': '  & '</B>' \t  \n    \t\t\t\t\t\t\t\t  & \"$(vReleaseType)\"& chr(10) & '<br>'\n    & '<B>' & 'Expiry date: ' & '</B>' \t\t  & [Expiry] & chr(10) & '<br>'\n    & '<B>' & 'Shelf-life: ' & '</B>' & Floor(\n    \t\t\t\t\t\t\t\t  (Interval(date([Expiry]) - (\"$(vReleaseType)\") , ' D') /365)\n                    \t\t\t\t  )\n                                      & ' year(s), '\n                                      &\tFloor(\n                                      (Frac(Interval(date([Expiry]) - (\"$(vReleaseType)\") , ' D') /365)*12)\n                                      )\n                                      & ' month(s), '\n                                      &\tCeil(\n                                      Frac(\n                                      (Frac(Interval(date([Expiry]) - (\"$(vReleaseType)\") , ' D') /365)*12)\n                                      ) * 30\n                                      )\n                                      & ' day(s) '\n)\n",
                "qNumFormat": {
                  "qType": "U",
                  "qnDec": 10,
                  "qUseThou": 0
                },
                "qAccumulate": 0,
                "qActiveExpression": 0,
                "qExpressions": [],
                "autoSort": true,
                "cId": "QxRjJs",
                "numFormatFromTemplate": true
              },
              "qSortBy": {
                "qSortByNumeric": -1,
                "qSortByLoadOrder": 1,
                "qExpression": {}
              },
              "qAttributeExpressions": [],
              "qAttributeDimensions": [],
              "qCalcCond": {},
              "qCalcCondition": {
                "qCond": {},
                "qMsg": {}
              },
              "qTrendLines": [],
              "qMiniChartDef": {
                "qSortBy": {
                  "qExpression": {}
                },
                "qOtherTotalSpec": {
                  "qOtherMode": "OTHER_OFF",
                  "qOtherCounted": {},
                  "qOtherLimit": {},
                  "qOtherLimitMode": "OTHER_GT_LIMIT",
                  "qForceBadValueKeeping": true,
                  "qApplyEvenWhenPossiblyWrongResult": true,
                  "qOtherSortMode": "OTHER_SORT_DESCENDING",
                  "qTotalMode": "TOTAL_OFF",
                  "qReferencedExpression": {}
                },
                "qMaxNumberPoints": -1,
                "qAttributeExpressions": []
              }
            },
            {
              "qDef": {
                "qLabel": "Expiry",
                "qTags": [],
                "qGrouping": "N",
                "qDef": "=Max(if([DataType]='Production',[Expiry]))",
                "qNumFormat": {
                  "qType": "F",
                  "qnDec": 2,
                  "qUseThou": 0,
                  "qFmt": "#,##0.00",
                  "qDec": ".",
                  "qThou": ","
                },
                "qAccumulate": 0,
                "qActiveExpression": 0,
                "qExpressions": [],
                "autoSort": true,
                "cId": "UjcBD",
                "numFormatFromTemplate": false,
                "isCustomFormatted": false
              },
              "qSortBy": {
                "qSortByNumeric": -1,
                "qSortByLoadOrder": 1,
                "qExpression": {}
              },
              "qAttributeExpressions": [],
              "qAttributeDimensions": [],
              "qCalcCond": {},
              "qCalcCondition": {
                "qCond": {},
                "qMsg": {}
              },
              "qTrendLines": [],
              "qMiniChartDef": {
                "qSortBy": {
                  "qExpression": {}
                },
                "qOtherTotalSpec": {
                  "qOtherMode": "OTHER_OFF",
                  "qOtherCounted": {},
                  "qOtherLimit": {},
                  "qOtherLimitMode": "OTHER_GT_LIMIT",
                  "qForceBadValueKeeping": true,
                  "qApplyEvenWhenPossiblyWrongResult": true,
                  "qOtherSortMode": "OTHER_SORT_DESCENDING",
                  "qTotalMode": "TOTAL_OFF",
                  "qReferencedExpression": {}
                },
                "qMaxNumberPoints": -1,
                "qAttributeExpressions": []
              }
            },
            {
              "qDef": {
                "qTags": [],
                "qGrouping": "N",
                "qDef": "=maxstring(if (DataType='Production', Product))",
                "qNumFormat": {
                  "qType": "U",
                  "qnDec": 10,
                  "qUseThou": 0
                },
                "qAccumulate": 0,
                "qActiveExpression": 0,
                "qExpressions": [],
                "autoSort": true,
                "cId": "Uqadw",
                "numFormatFromTemplate": true
              },
              "qSortBy": {
                "qSortByNumeric": -1,
                "qSortByLoadOrder": 1,
                "qExpression": {}
              },
              "qAttributeExpressions": [],
              "qAttributeDimensions": [],
              "qCalcCond": {},
              "qCalcCondition": {
                "qCond": {},
                "qMsg": {}
              },
              "qTrendLines": [],
              "qMiniChartDef": {
                "qSortBy": {
                  "qExpression": {}
                },
                "qOtherTotalSpec": {
                  "qOtherMode": "OTHER_OFF",
                  "qOtherCounted": {},
                  "qOtherLimit": {},
                  "qOtherLimitMode": "OTHER_GT_LIMIT",
                  "qForceBadValueKeeping": true,
                  "qApplyEvenWhenPossiblyWrongResult": true,
                  "qOtherSortMode": "OTHER_SORT_DESCENDING",
                  "qTotalMode": "TOTAL_OFF",
                  "qReferencedExpression": {}
                },
                "qMaxNumberPoints": -1,
                "qAttributeExpressions": []
              }
            }
          ],
          "qInterColumnSortOrder": [
            1,
            0,
            2,
            3,
            4,
            6,
            5,
            7
          ],
          "qInitialDataFetch": [
            {
              "qLeft": 0,
              "qTop": 0,
              "qWidth": 8,
              "qHeight": 1250
            }
          ],
          "qReductionMode": "N",
          "qMode": "S",
          "qPseudoDimPos": -1,
          "qNoOfLeftDims": -1,
          "qMaxStackedCells": 5000,
          "qCalcCond": {},
          "qTitle": {},
          "qCalcCondition": {
            "qCond": {},
            "qMsg": {}
          },
          "qColumnOrder": [],
          "qExpansionState": [],
          "qDynamicScript": [],
          "customErrorMessage": {
            "calcCond": ""
          },
          "qLayoutExclude": {
            "qHyperCubeDef": {
              "qDimensions": [],
              "qMeasures": [],
              "qInterColumnSortOrder": [],
              "qInitialDataFetch": [],
              "qReductionMode": "N",
              "qMode": "S",
              "qPseudoDimPos": -1,
              "qNoOfLeftDims": -1,
              "qMaxStackedCells": 5000,
              "qCalcCond": {},
              "qTitle": {},
              "qCalcCondition": {
                "qCond": {},
                "qMsg": {}
              },
              "qColumnOrder": [],
              "qExpansionState": [],
              "qDynamicScript": []
            }
          }
        },
        "showTitles": true,
        "title": {
          "qStringExpression": {
            "qExpr": "='Releases - Time between lot ' & '$(vReleaseType)' & ' and expiry date'"
          }
        },
        "subtitle": "",
        "footnote": {
          "qStringExpression": {
            "qExpr": "='*Selections are not supported for this diagram. Please use the table on the right to see detailed quantities per lot.'"
          }
        },
        "showDetails": false,
        "axisOrientation": "bottom",
        "itemOrientation": "top",
        "stackItems": true,
        "groupSorting": "A",
        "localizeDate": "be",
        "markWeekend": true,
        "weekendDays": "satsun",
        "reverseColor": true,
        "itemOverflow": true,
        "backgroundCss": true,
        "maxItems": 1000,
        "fitAllInWindow": true,
        "moveToTime": 0,
        "rollingMode": false,
        "visibleRangeMin": 0,
        "visibleRangeMax": 0,
        "zoomMin": 0,
        "zoomMax": 0,
        "visualization": "bi-irregular-timeline",
        "version": 0.2,
        "extensionMeta": {
          "translationKey": "",
          "icon": "puzzle",
          "iconChar": "g",
          "isLibraryItem": true,
          "visible": true,
          "name": "Timeline",
          "description": "Extension implementing Vis.js Timeline",
          "template": "bi-irregular-timeline",
          "isThirdParty": true,
          "type": "visualization",
          "version": "0.2",
          "preview": "Timeline.png",
          "author": "Ralf Becher, irregular.bi",
          "previewIconURL": "../extensions/bi-irregular-timeline/Timeline.png"
        }
      },
      "qChildren": []
    },
    {
      "qProperty": {
        "qInfo": {
          "qId": "DmpJZN",
          "qType": "action-button"
        },
        "qExtendsId": "15a86c5c-c517-4220-a6cd-1e7034fcc389",
        "qMetaDef": {}
      },
      "qChildren": []
    },
    {
      "qProperty": {
        "qInfo": {
          "qId": "mQaXgsP",
          "qType": "action-button"
        },
        "qExtendsId": "14144e52-ada2-4389-aef8-c1d4bfac7cf0",
        "qMetaDef": {}
      },
      "qChildren": []
    },
    {
      "qProperty": {
        "qInfo": {
          "qId": "peDtPq",
          "qType": "action-button"
        },
        "qMetaDef": {},
        "actions": [],
        "navigation": {
          "action": "goToSheet",
          "sheet": "e5505282-94d5-4bc1-b80e-1792df8f1e85",
          "story": "",
          "websiteUrl": "",
          "sameWindow": false
        },
        "useEnabledCondition": false,
        "enabledCondition": 1,
        "showTitles": false,
        "title": "",
        "subtitle": "",
        "footnote": "",
        "disableNavMenu": true,
        "showDetails": false,
        "style": {
          "label": "Depot shipments",
          "font": {
            "size": 0.62,
            "useColorExpression": false,
            "color": {
              "index": -1,
              "color": null
            },
            "colorExpression": "",
            "style": {
              "bold": false,
              "italic": false,
              "underline": false
            },
            "align": "center"
          },
          "background": {
            "useColorExpression": false,
            "color": {
              "index": -1,
              "color": "#8CBB13"
            },
            "colorExpression": "",
            "useImage": false,
            "size": "auto",
            "position": "centerCenter",
            "url": {
              "qStaticContentUrlDef": {}
            }
          },
          "border": {
            "useBorder": false,
            "radius": 0,
            "width": 0,
            "useColorExpression": false,
            "color": {
              "index": -1,
              "color": null
            },
            "colorExpression": ""
          },
          "icon": {
            "useIcon": false,
            "iconType": "",
            "position": "left"
          }
        },
        "visualization": "action-button",
        "props": {
          "fullWidth": "auto",
          "useEnabledCondition": null
        },
        "qLayoutExclude": {
          "disabled": {}
        }
      },
      "qChildren": []
    },
    {
      "qProperty": {
        "qInfo": {
          "qId": "UcQeMTt",
          "qType": "action-button"
        },
        "qExtendsId": "e7f2b7a0-f9c6-4cf7-822a-93e727092303",
        "qMetaDef": {}
      },
      "qChildren": []
    },
    {
      "qProperty": {
        "qInfo": {
          "qId": "kDkkc",
          "qType": "action-button"
        },
        "qExtendsId": "8171ce3e-08d3-452e-884b-ef6fd87bab2a",
        "qMetaDef": {}
      },
      "qChildren": []
    },
    {
      "qProperty": {
        "qInfo": {
          "qId": "pcJyAR",
          "qType": "action-button"
        },
        "qExtendsId": "3cbdcc59-c724-4e20-9f1e-a19dd316980c",
        "qMetaDef": {}
      },
      "qChildren": []
    },
    {
      "qProperty": {
        "qInfo": {
          "qId": "zCnsQU",
          "qType": "action-button"
        },
        "qExtendsId": "a3f087e9-5fd0-4550-83e7-5912e78059d9",
        "qMetaDef": {}
      },
      "qChildren": []
    },
    {
      "qProperty": {
        "qInfo": {
          "qId": "BdFKbfk",
          "qType": "action-button"
        },
        "qExtendsId": "c7bacc9f-48b2-40d1-a72f-15847f9d1730",
        "qMetaDef": {}
      },
      "qChildren": []
    },
    {
      "qProperty": {
        "qInfo": {
          "qId": "wJRAP",
          "qType": "action-button"
        },
        "qExtendsId": "469552b2-e1da-4e46-adc8-841b21953423",
        "qMetaDef": {}
      },
      "qChildren": []
    },
    {
      "qProperty": {
        "qInfo": {
          "qId": "CJHhzkj",
          "qType": "action-button"
        },
        "qExtendsId": "5b76aa91-d61e-45dc-80a6-f9a23fb743da",
        "qMetaDef": {}
      },
      "qChildren": []
    },
    {
      "qProperty": {
        "qInfo": {
          "qId": "hNAwh",
          "qType": "action-button"
        },
        "qExtendsId": "75c865db-db7d-412e-a30f-6731d768f815",
        "qMetaDef": {}
      },
      "qChildren": []
    },
    {
      "qProperty": {
        "qInfo": {
          "qId": "QJkTRy",
          "qType": "action-button"
        },
        "qExtendsId": "f816eca2-4aa1-4d47-bd67-d8b7e83811fd",
        "qMetaDef": {}
      },
      "qChildren": []
    },
    {
      "qProperty": {
        "qInfo": {
          "qId": "SHEWjz",
          "qType": "action-button"
        },
        "qExtendsId": "01a07fb3-b3e2-4d95-b9b1-224d283755c2",
        "qMetaDef": {}
      },
      "qChildren": []
    },
    {
      "qProperty": {
        "qInfo": {
          "qId": "PjJXNe",
          "qType": "action-button"
        },
        "qMetaDef": {},
        "actions": [],
        "navigation": {
          "action": "goToSheet",
          "sheet": "793fb147-c70d-4274-8b75-37db1b627937",
          "story": "",
          "websiteUrl": "",
          "sameWindow": false
        },
        "useEnabledCondition": false,
        "enabledCondition": 1,
        "showTitles": false,
        "title": "",
        "subtitle": "",
        "footnote": "",
        "disableNavMenu": true,
        "showDetails": false,
        "style": {
          "label": "Check release overlap",
          "font": {
            "size": 0.72,
            "useColorExpression": false,
            "color": {
              "index": -1,
              "color": "#3583D0"
            },
            "colorExpression": "",
            "style": {
              "bold": false,
              "italic": false,
              "underline": false
            },
            "align": "center"
          },
          "background": {
            "useColorExpression": false,
            "color": {
              "index": 1,
              "color": "#ffffff"
            },
            "colorExpression": "",
            "useImage": false,
            "size": "auto",
            "position": "centerCenter",
            "url": {
              "qStaticContentUrlDef": {}
            }
          },
          "border": {
            "useBorder": true,
            "radius": 0,
            "width": 0.055,
            "useColorExpression": false,
            "color": {
              "index": -1,
              "color": "#3583D0"
            },
            "colorExpression": ""
          },
          "icon": {
            "useIcon": false,
            "iconType": "",
            "position": "left"
          }
        },
        "visualization": "action-button",
        "props": {
          "fullWidth": "auto",
          "useEnabledCondition": null
        },
        "qLayoutExclude": {
          "disabled": {}
        },
        "masterVersion": 0.96
      },
      "qChildren": []
    },
    {
      "qProperty": {
        "qInfo": {
          "qId": "MjELVRU",
          "qType": "action-button"
        },
        "qMetaDef": {},
        "actions": [],
        "navigation": {
          "action": "goToSheet",
          "sheet": {
            "qStringExpression": {
              "qExpr": "='ef844366-a89d-4695-9d07-f679f85e93b9'"
            }
          },
          "story": "",
          "websiteUrl": "",
          "sameWindow": false
        },
        "useEnabledCondition": false,
        "enabledCondition": 1,
        "showTitles": false,
        "title": "",
        "subtitle": "",
        "footnote": "",
        "disableNavMenu": true,
        "showDetails": false,
        "style": {
          "label": "Check expiry extesions",
          "font": {
            "size": 0.72,
            "useColorExpression": false,
            "color": {
              "index": -1,
              "color": "#FFFFFF"
            },
            "colorExpression": "",
            "style": {
              "bold": false,
              "italic": false,
              "underline": false
            },
            "align": "center"
          },
          "background": {
            "useColorExpression": false,
            "color": {
              "index": -1,
              "color": "#3583D0"
            },
            "colorExpression": "",
            "useImage": false,
            "size": "auto",
            "position": "centerCenter",
            "url": {
              "qStaticContentUrlDef": {}
            }
          },
          "border": {
            "useBorder": true,
            "radius": 0,
            "width": 0,
            "useColorExpression": false,
            "color": {
              "index": -1,
              "color": "#FFFFFF"
            },
            "colorExpression": ""
          },
          "icon": {
            "useIcon": false,
            "iconType": "",
            "position": "left"
          }
        },
        "visualization": "action-button",
        "props": {
          "fullWidth": "auto",
          "useEnabledCondition": null
        },
        "qLayoutExclude": {
          "disabled": {}
        },
        "masterVersion": 0.96
      },
      "qChildren": []
    }
  ]
}