{
  "qProperty": {
    "qInfo": {
      "qId": "ab213a64-530c-4ee9-bf7d-47beaf895ba0",
      "qType": "sheet"
    },
    "qMetaDef": {
      "title": "Number of depot shipments - Strategic estimation",
      "description": ""
    },
    "rank": 3.1875,
    "thumbnail": {
      "qStaticContentUrlDef": {
        "qUrl": "/appcontent/f939c40e-e294-4d8d-8f15-8283cc8a6343/Distribution Management-03.jpg"
      }
    },
    "columns": 36,
    "rows": 18,
    "cells": [
      {
        "name": "eccd9046-787a-466e-bd18-c2b559b758a5",
        "type": "pivot-table",
        "col": 0,
        "row": 8,
        "colspan": 24,
        "rowspan": 7,
        "bounds": {
          "y": 41.66666666666667,
          "x": 0,
          "width": 66.66666666666666,
          "height": 41.66666666666667
        }
      },
      {
        "name": "pcacGJc",
        "type": "action-button",
        "col": 4,
        "row": 16,
        "colspan": 4,
        "rowspan": 1,
        "bounds": {
          "y": 88.88888888888889,
          "x": 11.11111111111111,
          "width": 11.11111111111111,
          "height": 5.555555555555555
        }
      },
      {
        "name": "ZQeqAUp",
        "type": "action-button",
        "col": 8,
        "row": 16,
        "colspan": 4,
        "rowspan": 1,
        "bounds": {
          "y": 88.88888888888889,
          "x": 22.22222222222222,
          "width": 11.11111111111111,
          "height": 5.555555555555555
        }
      },
      {
        "name": "ZhHrwfu",
        "type": "action-button",
        "col": 12,
        "row": 16,
        "colspan": 4,
        "rowspan": 1,
        "bounds": {
          "y": 88.88888888888889,
          "x": 33.33333333333333,
          "width": 11.11111111111111,
          "height": 5.555555555555555
        }
      },
      {
        "name": "JmTXwT",
        "type": "action-button",
        "col": 12,
        "row": 17,
        "colspan": 4,
        "rowspan": 1,
        "bounds": {
          "y": 94.44444444444444,
          "x": 33.33333333333333,
          "width": 11.11111111111111,
          "height": 5.555555555555555
        }
      },
      {
        "name": "fQfsQE",
        "type": "action-button",
        "col": 16,
        "row": 16,
        "colspan": 4,
        "rowspan": 1,
        "bounds": {
          "y": 88.88888888888889,
          "x": 44.44444444444444,
          "width": 11.11111111111111,
          "height": 5.555555555555555
        }
      },
      {
        "name": "hAjg",
        "type": "action-button",
        "col": 16,
        "row": 17,
        "colspan": 4,
        "rowspan": 1,
        "bounds": {
          "y": 94.44444444444444,
          "x": 44.44444444444444,
          "width": 11.11111111111111,
          "height": 5.555555555555555
        }
      },
      {
        "name": "fzhfn",
        "type": "action-button",
        "col": 20,
        "row": 16,
        "colspan": 4,
        "rowspan": 1,
        "bounds": {
          "y": 88.88888888888889,
          "x": 55.55555555555556,
          "width": 11.11111111111111,
          "height": 5.555555555555555
        }
      },
      {
        "name": "KxPbsD",
        "type": "action-button",
        "col": 20,
        "row": 17,
        "colspan": 4,
        "rowspan": 1,
        "bounds": {
          "y": 94.44444444444444,
          "x": 55.55555555555556,
          "width": 11.11111111111111,
          "height": 5.555555555555555
        }
      },
      {
        "name": "VJPc",
        "type": "action-button",
        "col": 24,
        "row": 16,
        "colspan": 4,
        "rowspan": 1,
        "bounds": {
          "y": 88.88888888888889,
          "x": 66.66666666666666,
          "width": 11.11111111111111,
          "height": 5.555555555555555
        }
      },
      {
        "name": "Bkugjsb",
        "type": "action-button",
        "col": 24,
        "row": 17,
        "colspan": 4,
        "rowspan": 1,
        "bounds": {
          "y": 94.44444444444444,
          "x": 66.66666666666666,
          "width": 11.11111111111111,
          "height": 5.555555555555555
        }
      },
      {
        "name": "179f61e6-9189-4107-9749-d73f76430529",
        "type": "filterpane",
        "col": 32,
        "row": 0,
        "colspan": 4,
        "rowspan": 1,
        "bounds": {
          "y": 0,
          "x": 88.88888888888889,
          "width": 11.11111111111111,
          "height": 5.555555555555555
        }
      },
      {
        "name": "vXEtgZ",
        "type": "action-button",
        "col": 32,
        "row": 13,
        "colspan": 4,
        "rowspan": 1,
        "bounds": {
          "y": 72.22222222222221,
          "x": 88.88888888888889,
          "width": 11.11111111111111,
          "height": 5.555555555555555
        }
      },
      {
        "name": "CPtYRA",
        "type": "action-button",
        "col": 32,
        "row": 14,
        "colspan": 4,
        "rowspan": 1,
        "bounds": {
          "y": 77.77777777777779,
          "x": 88.88888888888889,
          "width": 11.11111111111111,
          "height": 5.555555555555555
        }
      },
      {
        "name": "UtpJqLQ",
        "type": "barchart",
        "col": 0,
        "row": 0,
        "colspan": 31,
        "rowspan": 7,
        "bounds": {
          "y": 0,
          "x": 0,
          "width": 87.5,
          "height": 41.66666666666667
        }
      },
      {
        "name": "GPVWRa",
        "type": "filterpane",
        "col": 32,
        "row": 1,
        "colspan": 4,
        "rowspan": 1,
        "bounds": {
          "y": 5.555555555555555,
          "x": 88.88888888888889,
          "width": 11.11111111111111,
          "height": 5.555555555555555
        }
      },
      {
        "name": "rZyv",
        "type": "text-image",
        "col": 24,
        "row": 8,
        "colspan": 7,
        "rowspan": 7,
        "bounds": {
          "y": 41.66666666666667,
          "x": 66.66666666666666,
          "width": 20.833333333333336,
          "height": 41.66666666666667
        }
      },
      {
        "name": "cxbwqvm",
        "type": "filterpane",
        "col": 32,
        "row": 2,
        "colspan": 4,
        "rowspan": 1,
        "bounds": {
          "y": 11.11111111111111,
          "x": 88.88888888888889,
          "width": 11.11111111111111,
          "height": 5.555555555555555
        }
      },
      {
        "name": "TEKvxFd",
        "type": "action-button",
        "col": 32,
        "row": 17,
        "colspan": 4,
        "rowspan": 1,
        "bounds": {
          "y": 94.44444444444444,
          "x": 88.88888888888889,
          "width": 11.11111111111111,
          "height": 5.555555555555555
        }
      },
      {
        "name": "yXgjtKA",
        "type": "action-button",
        "col": 32,
        "row": 16,
        "colspan": 4,
        "rowspan": 1,
        "bounds": {
          "y": 88.88888888888889,
          "x": 88.88888888888889,
          "width": 11.11111111111111,
          "height": 5.555555555555555
        }
      },
      {
        "name": "GBhQ",
        "type": "action-button",
        "col": 28,
        "row": 16,
        "colspan": 4,
        "rowspan": 1,
        "bounds": {
          "y": 88.88888888888889,
          "x": 77.77777777777779,
          "width": 11.11111111111111,
          "height": 5.555555555555555
        }
      },
      {
        "name": "UpUj",
        "type": "action-button",
        "col": 28,
        "row": 17,
        "colspan": 4,
        "rowspan": 1,
        "bounds": {
          "y": 94.44444444444444,
          "x": 77.77777777777779,
          "width": 11.11111111111111,
          "height": 5.555555555555555
        }
      }
    ],
    "qChildListDef": {
      "qData": {
        "title": "/title"
      }
    },
    "gridResolution": "large"
  },
  "qChildren": [
    {
      "qProperty": {
        "qInfo": {
          "qId": "vXEtgZ",
          "qType": "action-button"
        },
        "qMetaDef": {},
        "actions": [],
        "navigation": {
          "action": "goToSheet",
          "sheet": "e5505282-94d5-4bc1-b80e-1792df8f1e85",
          "story": "",
          "websiteUrl": "",
          "sameWindow": false
        },
        "useEnabledCondition": false,
        "enabledCondition": 1,
        "showTitles": false,
        "title": "",
        "subtitle": "",
        "footnote": "",
        "disableNavMenu": true,
        "showDetails": false,
        "style": {
          "label": "Quantities shipped",
          "font": {
            "size": 0.65,
            "useColorExpression": false,
            "color": {
              "index": 1,
              "color": "#ffffff"
            },
            "colorExpression": "",
            "style": {
              "bold": false,
              "italic": false,
              "underline": false
            },
            "align": "center"
          },
          "background": {
            "useColorExpression": false,
            "color": {
              "index": -1,
              "color": "#0AABC2"
            },
            "colorExpression": "",
            "useImage": false,
            "size": "auto",
            "position": "centerCenter",
            "url": {
              "qStaticContentUrlDef": {}
            }
          },
          "border": {
            "useBorder": false,
            "radius": 0,
            "width": 0.055,
            "useColorExpression": false,
            "color": {
              "index": -1,
              "color": "#0AABC2"
            },
            "colorExpression": ""
          },
          "icon": {
            "useIcon": false,
            "iconType": "",
            "position": "left"
          }
        },
        "visualization": "action-button",
        "props": {
          "fullWidth": "auto",
          "useEnabledCondition": null
        },
        "qLayoutExclude": {
          "disabled": {}
        },
        "masterVersion": 0.96
      },
      "qChildren": []
    },
    {
      "qProperty": {
        "qInfo": {
          "qId": "eccd9046-787a-466e-bd18-c2b559b758a5",
          "qType": "pivot-table"
        },
        "qMetaDef": {},
        "qHyperCubeDef": {
          "qDimensions": [
            {
              "qDef": {
                "qGrouping": "N",
                "qFieldDefs": [
                  "=Month"
                ],
                "qFieldLabels": [
                  "Month"
                ],
                "qSortCriterias": [
                  {
                    "qSortByNumeric": 1,
                    "qSortByLoadOrder": 1,
                    "qExpression": {}
                  }
                ],
                "qNumberPresentations": [],
                "qActiveField": 0,
                "autoSort": false,
                "cId": "WPXtyrh",
                "othersLabel": "Others"
              },
              "qOtherTotalSpec": {
                "qOtherMode": "OTHER_OFF",
                "qOtherCounted": {
                  "qv": "10"
                },
                "qOtherLimit": {
                  "qv": "0"
                },
                "qOtherLimitMode": "OTHER_GE_LIMIT",
                "qForceBadValueKeeping": true,
                "qApplyEvenWhenPossiblyWrongResult": true,
                "qOtherSortMode": "OTHER_SORT_DESCENDING",
                "qTotalMode": "TOTAL_EXPR",
                "qReferencedExpression": {}
              },
              "qOtherLabel": {
                "qv": "Others"
              },
              "qTotalLabel": {
                "qv": "Totals"
              },
              "qCalcCond": {},
              "qAttributeExpressions": [],
              "qAttributeDimensions": [],
              "qCalcCondition": {
                "qCond": {},
                "qMsg": {}
              }
            },
            {
              "qDef": {
                "qGrouping": "N",
                "qFieldDefs": [
                  "=Supplier"
                ],
                "qFieldLabels": [
                  "Supplier"
                ],
                "qSortCriterias": [
                  {
                    "qSortByNumeric": 1,
                    "qSortByAscii": 1,
                    "qSortByLoadOrder": 1,
                    "qExpression": {}
                  }
                ],
                "qNumberPresentations": [],
                "qActiveField": 0,
                "autoSort": true,
                "cId": "ECaMb",
                "othersLabel": "Others"
              },
              "qOtherTotalSpec": {
                "qOtherMode": "OTHER_OFF",
                "qOtherCounted": {
                  "qv": "10"
                },
                "qOtherLimit": {
                  "qv": "0"
                },
                "qOtherLimitMode": "OTHER_GE_LIMIT",
                "qForceBadValueKeeping": true,
                "qApplyEvenWhenPossiblyWrongResult": true,
                "qOtherSortMode": "OTHER_SORT_DESCENDING",
                "qTotalMode": "TOTAL_EXPR",
                "qReferencedExpression": {}
              },
              "qOtherLabel": {
                "qv": "Others"
              },
              "qTotalLabel": {
                "qv": "Totals"
              },
              "qCalcCond": {},
              "qAttributeExpressions": [],
              "qAttributeDimensions": [],
              "qCalcCondition": {
                "qCond": {},
                "qMsg": {}
              }
            },
            {
              "qDef": {
                "qGrouping": "N",
                "qFieldDefs": [
                  "=Depot"
                ],
                "qFieldLabels": [
                  "Depot"
                ],
                "qSortCriterias": [
                  {
                    "qSortByNumeric": 1,
                    "qSortByAscii": 1,
                    "qSortByLoadOrder": 1,
                    "qExpression": {}
                  }
                ],
                "qNumberPresentations": [],
                "qActiveField": 0,
                "autoSort": true,
                "cId": "UWevXP",
                "othersLabel": "Others"
              },
              "qNullSuppression": true,
              "qOtherTotalSpec": {
                "qOtherMode": "OTHER_OFF",
                "qOtherCounted": {
                  "qv": "10"
                },
                "qOtherLimit": {
                  "qv": "0"
                },
                "qOtherLimitMode": "OTHER_GE_LIMIT",
                "qForceBadValueKeeping": true,
                "qApplyEvenWhenPossiblyWrongResult": true,
                "qOtherSortMode": "OTHER_SORT_DESCENDING",
                "qTotalMode": "TOTAL_EXPR",
                "qReferencedExpression": {}
              },
              "qOtherLabel": {
                "qv": "Others"
              },
              "qTotalLabel": {
                "qv": "Totals"
              },
              "qCalcCond": {},
              "qAttributeExpressions": [],
              "qAttributeDimensions": [],
              "qCalcCondition": {
                "qCond": {},
                "qMsg": {}
              }
            }
          ],
          "qMeasures": [
            {
              "qDef": {
                "qTags": [],
                "qGrouping": "N",
                "qDef": "Sum({<[Shipments measure]={'Number of shipments'},[is_site]={'false'}>}[Shipments Stat_MEAN])",
                "qNumFormat": {
                  "qType": "F",
                  "qnDec": 2,
                  "qUseThou": 0,
                  "qFmt": "#,##0.00",
                  "qDec": ".",
                  "qThou": ","
                },
                "qAccumulate": 0,
                "qActiveExpression": 0,
                "qExpressions": [],
                "autoSort": true,
                "cId": "RaEWfA",
                "numFormatFromTemplate": true
              },
              "qSortBy": {
                "qSortByNumeric": -1,
                "qSortByLoadOrder": 1,
                "qExpression": {}
              },
              "qAttributeExpressions": [
                {
                  "qAttribute": true
                },
                {
                  "qAttribute": true
                }
              ],
              "qAttributeDimensions": [],
              "qCalcCond": {},
              "qCalcCondition": {
                "qCond": {},
                "qMsg": {}
              },
              "qTrendLines": [],
              "qMiniChartDef": {
                "qSortBy": {
                  "qExpression": {}
                },
                "qOtherTotalSpec": {
                  "qOtherMode": "OTHER_OFF",
                  "qOtherCounted": {},
                  "qOtherLimit": {},
                  "qOtherLimitMode": "OTHER_GT_LIMIT",
                  "qForceBadValueKeeping": true,
                  "qApplyEvenWhenPossiblyWrongResult": true,
                  "qOtherSortMode": "OTHER_SORT_DESCENDING",
                  "qTotalMode": "TOTAL_OFF",
                  "qReferencedExpression": {}
                },
                "qMaxNumberPoints": -1,
                "qAttributeExpressions": []
              }
            }
          ],
          "qInterColumnSortOrder": [
            0,
            1,
            2
          ],
          "qSuppressMissing": true,
          "qInitialDataFetch": [
            {
              "qLeft": 0,
              "qTop": 0,
              "qWidth": 50,
              "qHeight": 50
            }
          ],
          "qReductionMode": "N",
          "qMode": "P",
          "qPseudoDimPos": -1,
          "qNoOfLeftDims": 1,
          "qAlwaysFullyExpanded": true,
          "qMaxStackedCells": 5000,
          "qShowTotalsAbove": true,
          "qCalcCond": {},
          "qTitle": {},
          "qCalcCondition": {
            "qCond": {},
            "qMsg": {}
          },
          "qColumnOrder": [],
          "qExpansionState": [],
          "qDynamicScript": [],
          "columnWidths": [],
          "customErrorMessage": {
            "calcCond": "Please select a single Source file and a single Scenario"
          },
          "qLayoutExclude": {
            "qHyperCubeDef": {
              "qDimensions": [],
              "qMeasures": [],
              "qInterColumnSortOrder": [],
              "qInitialDataFetch": [],
              "qReductionMode": "N",
              "qMode": "S",
              "qPseudoDimPos": -1,
              "qNoOfLeftDims": -1,
              "qMaxStackedCells": 5000,
              "qCalcCond": {},
              "qTitle": {},
              "qCalcCondition": {
                "qCond": {},
                "qMsg": {}
              },
              "qColumnOrder": [],
              "qExpansionState": [],
              "qDynamicScript": []
            }
          }
        },
        "showTitles": false,
        "title": "",
        "subtitle": "",
        "footnote": "",
        "showDetails": false,
        "visualization": "pivot-table"
      },
      "qChildren": []
    },
    {
      "qProperty": {
        "qInfo": {
          "qId": "ZQeqAUp",
          "qType": "action-button"
        },
        "qExtendsId": "3cbdcc59-c724-4e20-9f1e-a19dd316980c",
        "qMetaDef": {}
      },
      "qChildren": []
    },
    {
      "qProperty": {
        "qInfo": {
          "qId": "Bkugjsb",
          "qType": "action-button"
        },
        "qExtendsId": "01a07fb3-b3e2-4d95-b9b1-224d283755c2",
        "qMetaDef": {}
      },
      "qChildren": []
    },
    {
      "qProperty": {
        "qInfo": {
          "qId": "ZhHrwfu",
          "qType": "action-button"
        },
        "qExtendsId": "d793bc06-1d34-4f28-93d5-c811aff834c6",
        "qMetaDef": {}
      },
      "qChildren": []
    },
    {
      "qProperty": {
        "qInfo": {
          "qId": "pcacGJc",
          "qType": "action-button"
        },
        "qExtendsId": "e7f2b7a0-f9c6-4cf7-822a-93e727092303",
        "qMetaDef": {}
      },
      "qChildren": []
    },
    {
      "qProperty": {
        "qInfo": {
          "qId": "hAjg",
          "qType": "action-button"
        },
        "qExtendsId": "469552b2-e1da-4e46-adc8-841b21953423",
        "qMetaDef": {}
      },
      "qChildren": []
    },
    {
      "qProperty": {
        "qInfo": {
          "qId": "JmTXwT",
          "qType": "action-button"
        },
        "qExtendsId": "a3f087e9-5fd0-4550-83e7-5912e78059d9",
        "qMetaDef": {}
      },
      "qChildren": []
    },
    {
      "qProperty": {
        "qInfo": {
          "qId": "TEKvxFd",
          "qType": "action-button"
        },
        "qExtendsId": "a5032de1-0a03-439f-94ac-a5c37e909828",
        "qMetaDef": {}
      },
      "qChildren": []
    },
    {
      "qProperty": {
        "qInfo": {
          "qId": "cxbwqvm",
          "qType": "filterpane"
        },
        "qMetaDef": {},
        "qChildListDef": {
          "qData": {
            "info": "/qInfo"
          }
        },
        "showTitles": false,
        "title": "",
        "subtitle": "",
        "footnote": "",
        "showDetails": false,
        "visualization": "filterpane",
        "disableNavMenu": true
      },
      "qChildren": [
        {
          "qProperty": {
            "qInfo": {
              "qId": "pkMLX",
              "qType": "listbox"
            },
            "qMetaDef": {},
            "qListObjectDef": {
              "qDef": {
                "qGrouping": "N",
                "qFieldDefs": [
                  "=[Temperature type]"
                ],
                "qFieldLabels": [
                  "=[Temperature label]"
                ],
                "qSortCriterias": [
                  {
                    "qSortByState": 1,
                    "qSortByNumeric": 1,
                    "qSortByAscii": 1,
                    "qSortByLoadOrder": 1,
                    "qExpression": {}
                  }
                ],
                "qNumberPresentations": [],
                "qActiveField": 0,
                "autoSort": true,
                "cId": "tDpdNR"
              },
              "qFrequencyMode": "N",
              "qShowAlternatives": true,
              "qInitialDataFetch": [],
              "qExpressions": [],
              "qOtherTotalSpec": {}
            },
            "showTitles": true,
            "title": "Temperature type",
            "subtitle": "",
            "footnote": "",
            "showDetails": false,
            "visualization": "listbox"
          },
          "qChildren": []
        }
      ]
    },
    {
      "qProperty": {
        "qInfo": {
          "qId": "fzhfn",
          "qType": "action-button"
        },
        "qExtendsId": "5b76aa91-d61e-45dc-80a6-f9a23fb743da",
        "qMetaDef": {}
      },
      "qChildren": []
    },
    {
      "qProperty": {
        "qInfo": {
          "qId": "KxPbsD",
          "qType": "action-button"
        },
        "qExtendsId": "75c865db-db7d-412e-a30f-6731d768f815",
        "qMetaDef": {}
      },
      "qChildren": []
    },
    {
      "qProperty": {
        "qInfo": {
          "qId": "VJPc",
          "qType": "action-button"
        },
        "qExtendsId": "f816eca2-4aa1-4d47-bd67-d8b7e83811fd",
        "qMetaDef": {}
      },
      "qChildren": []
    },
    {
      "qProperty": {
        "qInfo": {
          "qId": "UpUj",
          "qType": "action-button"
        },
        "qExtendsId": "14144e52-ada2-4389-aef8-c1d4bfac7cf0",
        "qMetaDef": {}
      },
      "qChildren": []
    },
    {
      "qProperty": {
        "qInfo": {
          "qId": "yXgjtKA",
          "qType": "action-button"
        },
        "qExtendsId": "15a86c5c-c517-4220-a6cd-1e7034fcc389",
        "qMetaDef": {}
      },
      "qChildren": []
    },
    {
      "qProperty": {
        "qInfo": {
          "qId": "rZyv",
          "qType": "text-image"
        },
        "qMetaDef": {},
        "qHyperCubeDef": {
          "qDimensions": [],
          "qMeasures": [],
          "qInterColumnSortOrder": [],
          "qInitialDataFetch": [],
          "qReductionMode": "N",
          "qMode": "S",
          "qPseudoDimPos": -1,
          "qNoOfLeftDims": -1,
          "qMaxStackedCells": 5000,
          "qCalcCond": {},
          "qTitle": {},
          "qCalcCondition": {
            "qCond": {},
            "qMsg": {}
          },
          "qColumnOrder": [],
          "qExpansionState": [],
          "qDynamicScript": [],
          "qLayoutExclude": {
            "qHyperCubeDef": {
              "qDimensions": [],
              "qMeasures": [],
              "qInterColumnSortOrder": [],
              "qInitialDataFetch": [],
              "qReductionMode": "N",
              "qMode": "S",
              "qPseudoDimPos": -1,
              "qNoOfLeftDims": -1,
              "qMaxStackedCells": 5000,
              "qCalcCond": {},
              "qTitle": {},
              "qCalcCondition": {
                "qCond": {},
                "qMsg": {}
              },
              "qColumnOrder": [],
              "qExpansionState": [],
              "qDynamicScript": []
            }
          }
        },
        "showTitles": false,
        "title": "",
        "subtitle": "",
        "footnote": "",
        "showDetails": false,
        "responsive": "all",
        "markdown": "This sheet presents a **strategic** analysis and l**ong term considerations.**^[The **estimation of the number of depot shipments expected in the long term** provides a view on long term planning activities and budgeting. ](inherit)^[~Note~ : the estimation considers the future expiry replacements, the prediction window and the resupply strategy used \\(All products vs Products at min\\).](inherit)^[\n](inherit)^[The** fixed costs** of depot shipments are based on this strategic estimation.](inherit)^[\n](inherit)^[For **operational purposes** \\(including planning of shipments to cover short term needs\\), the **Quantities shipped **sheet can be used along with the **Planned shipments** sheet to deep dive on already planned shipments details.](inherit)",
        "images": [],
        "background": {
          "isUsed": false,
          "size": "auto",
          "position": "topLeft",
          "url": {}
        },
        "visualization": "text-image",
        "disableNavMenu": true
      },
      "qChildren": []
    },
    {
      "qProperty": {
        "qInfo": {
          "qId": "fQfsQE",
          "qType": "action-button"
        },
        "qExtendsId": "c7bacc9f-48b2-40d1-a72f-15847f9d1730",
        "qMetaDef": {}
      },
      "qChildren": []
    },
    {
      "qProperty": {
        "qInfo": {
          "qId": "179f61e6-9189-4107-9749-d73f76430529",
          "qType": "filterpane"
        },
        "qMetaDef": {},
        "qChildListDef": {
          "qData": {
            "info": "/qInfo"
          }
        },
        "showTitles": false,
        "title": "",
        "subtitle": "",
        "footnote": "",
        "showDetails": false,
        "visualization": "filterpane",
        "disableNavMenu": true
      },
      "qChildren": [
        {
          "qProperty": {
            "qInfo": {
              "qId": "b5a98dae-864a-46b1-89a0-6fb9c5542fb8",
              "qType": "listbox"
            },
            "qMetaDef": {},
            "qListObjectDef": {
              "qDef": {
                "qGrouping": "N",
                "qFieldDefs": [
                  "=Supplier\r\n\n"
                ],
                "qFieldLabels": [
                  "=[Supplier label]\r\n\n"
                ],
                "qSortCriterias": [
                  {
                    "qSortByState": 1,
                    "qSortByNumeric": 1,
                    "qSortByAscii": 1,
                    "qSortByLoadOrder": 1,
                    "qExpression": {}
                  }
                ],
                "qNumberPresentations": [],
                "qActiveField": 0,
                "autoSort": true,
                "cId": "tDpdNR"
              },
              "qFrequencyMode": "N",
              "qShowAlternatives": true,
              "qInitialDataFetch": [],
              "qExpressions": [],
              "qOtherTotalSpec": {}
            },
            "showTitles": true,
            "title": "Supplier",
            "subtitle": "",
            "footnote": "",
            "showDetails": false,
            "visualization": "listbox"
          },
          "qChildren": []
        }
      ]
    },
    {
      "qProperty": {
        "qInfo": {
          "qId": "UtpJqLQ",
          "qType": "barchart"
        },
        "qMetaDef": {},
        "qHyperCubeDef": {
          "qDimensions": [
            {
              "qDef": {
                "qGrouping": "N",
                "qFieldDefs": [
                  "Month"
                ],
                "qFieldLabels": [
                  ""
                ],
                "qSortCriterias": [
                  {
                    "qSortByNumeric": -1,
                    "qSortByLoadOrder": 1,
                    "qExpression": {}
                  }
                ],
                "qNumberPresentations": [],
                "qActiveField": 0,
                "autoSort": false,
                "cId": "zuSPgn",
                "othersLabel": "Others"
              },
              "qOtherTotalSpec": {
                "qOtherMode": "OTHER_OFF",
                "qOtherCounted": {
                  "qv": "10"
                },
                "qOtherLimit": {
                  "qv": "0"
                },
                "qOtherLimitMode": "OTHER_GE_LIMIT",
                "qForceBadValueKeeping": true,
                "qApplyEvenWhenPossiblyWrongResult": true,
                "qOtherSortMode": "OTHER_SORT_DESCENDING",
                "qTotalMode": "TOTAL_OFF",
                "qReferencedExpression": {}
              },
              "qOtherLabel": {
                "qv": "Others"
              },
              "qTotalLabel": {},
              "qCalcCond": {},
              "qAttributeExpressions": [],
              "qAttributeDimensions": [],
              "qCalcCondition": {
                "qCond": {},
                "qMsg": {}
              }
            },
            {
              "qDef": {
                "qGrouping": "N",
                "qFieldDefs": [
                  "Depot"
                ],
                "qFieldLabels": [
                  ""
                ],
                "qSortCriterias": [
                  {
                    "qSortByNumeric": 1,
                    "qSortByAscii": 1,
                    "qSortByLoadOrder": 1,
                    "qExpression": {}
                  }
                ],
                "qNumberPresentations": [],
                "qActiveField": 0,
                "autoSort": true,
                "cId": "TtmGBj",
                "othersLabel": "Others"
              },
              "qOtherTotalSpec": {
                "qOtherMode": "OTHER_OFF",
                "qOtherCounted": {
                  "qv": "10"
                },
                "qOtherLimit": {
                  "qv": "0"
                },
                "qOtherLimitMode": "OTHER_GE_LIMIT",
                "qForceBadValueKeeping": true,
                "qApplyEvenWhenPossiblyWrongResult": true,
                "qOtherSortMode": "OTHER_SORT_DESCENDING",
                "qTotalMode": "TOTAL_OFF",
                "qReferencedExpression": {}
              },
              "qOtherLabel": {
                "qv": "Others"
              },
              "qTotalLabel": {},
              "qCalcCond": {},
              "qAttributeExpressions": [],
              "qAttributeDimensions": [],
              "qCalcCondition": {
                "qCond": {},
                "qMsg": {}
              }
            }
          ],
          "qMeasures": [
            {
              "qDef": {
                "qLabel": "Estimated number of shipment per depot",
                "qTags": [],
                "qGrouping": "N",
                "qDef": "Sum({<[Shipments measure]={'Number of shipments'},[is_site]={'false'}>}[Shipments Stat_MEAN])",
                "qNumFormat": {
                  "qType": "U",
                  "qnDec": 10,
                  "qUseThou": 0
                },
                "qAccumulate": 0,
                "qActiveExpression": 0,
                "qExpressions": [],
                "autoSort": true,
                "cId": "jKPwpkn",
                "numFormatFromTemplate": true
              },
              "qSortBy": {
                "qSortByNumeric": -1,
                "qSortByLoadOrder": 1,
                "qExpression": {}
              },
              "qAttributeExpressions": [
                {
                  "qExpression": "RGB(DRed,DGreen,DBlue)",
                  "qAttribute": true,
                  "id": "colorByExpression"
                }
              ],
              "qAttributeDimensions": [],
              "qCalcCond": {},
              "qCalcCondition": {
                "qCond": {},
                "qMsg": {}
              },
              "qTrendLines": [],
              "qMiniChartDef": {
                "qSortBy": {
                  "qExpression": {}
                },
                "qOtherTotalSpec": {
                  "qOtherMode": "OTHER_OFF",
                  "qOtherCounted": {},
                  "qOtherLimit": {},
                  "qOtherLimitMode": "OTHER_GT_LIMIT",
                  "qForceBadValueKeeping": true,
                  "qApplyEvenWhenPossiblyWrongResult": true,
                  "qOtherSortMode": "OTHER_SORT_DESCENDING",
                  "qTotalMode": "TOTAL_OFF",
                  "qReferencedExpression": {}
                },
                "qMaxNumberPoints": -1,
                "qAttributeExpressions": []
              }
            }
          ],
          "qInterColumnSortOrder": [
            0,
            2,
            1
          ],
          "qSuppressMissing": true,
          "qInitialDataFetch": [
            {
              "qLeft": 0,
              "qTop": 0,
              "qWidth": 17,
              "qHeight": 500
            }
          ],
          "qReductionMode": "N",
          "qMode": "K",
          "qPseudoDimPos": -1,
          "qNoOfLeftDims": -1,
          "qAlwaysFullyExpanded": true,
          "qMaxStackedCells": 5000,
          "qCalcCond": {},
          "qTitle": {},
          "qCalcCondition": {
            "qCond": {},
            "qMsg": {}
          },
          "qColumnOrder": [],
          "qExpansionState": [],
          "qDynamicScript": [],
          "qLayoutExclude": {
            "qHyperCubeDef": {
              "qDimensions": [],
              "qMeasures": [],
              "qInterColumnSortOrder": [],
              "qInitialDataFetch": [],
              "qReductionMode": "N",
              "qMode": "S",
              "qPseudoDimPos": -1,
              "qNoOfLeftDims": -1,
              "qMaxStackedCells": 5000,
              "qCalcCond": {},
              "qTitle": {},
              "qCalcCondition": {
                "qCond": {},
                "qMsg": {}
              },
              "qColumnOrder": [],
              "qExpansionState": [],
              "qDynamicScript": []
            }
          }
        },
        "refLine": {
          "refLines": []
        },
        "showTitles": true,
        "title": "Estimated number of shipment per depot",
        "subtitle": "",
        "footnote": "",
        "showDetails": false,
        "barGrouping": {
          "grouping": "stacked"
        },
        "orientation": "vertical",
        "scrollStartPos": 0,
        "gridLine": {
          "auto": true,
          "spacing": 2
        },
        "dataPoint": {
          "showLabels": false
        },
        "color": {
          "auto": false,
          "mode": "byExpression",
          "useBaseColors": "off",
          "paletteColor": {
            "index": 6
          },
          "useDimColVal": true,
          "useMeasureGradient": true,
          "persistent": true,
          "expressionIsColor": true,
          "expressionLabel": "",
          "measureScheme": "sg",
          "reverseScheme": false,
          "dimensionScheme": "12",
          "autoMinMax": true,
          "measureMin": 0,
          "measureMax": 10,
          "altLabel": {
            "qStringExpression": {
              "qExpr": "Depot"
            }
          },
          "byDimDef": {
            "label": "=Depot",
            "key": "=RGB(DRed,DGreen,DBlue)",
            "type": "expression"
          },
          "colorExpression": "RGB(DRed,DGreen,DBlue)"
        },
        "legend": {
          "show": true,
          "dock": "right",
          "showTitle": false
        },
        "dimensionAxis": {
          "continuousAuto": true,
          "show": "all",
          "label": "auto",
          "dock": "near"
        },
        "preferContinuousAxis": true,
        "showMiniChartForContinuousAxis": true,
        "measureAxis": {
          "show": "labels",
          "dock": "near",
          "spacing": 1,
          "autoMinMax": true,
          "minMax": "min",
          "min": 0,
          "max": 10
        },
        "visualization": "barchart"
      },
      "qChildren": []
    },
    {
      "qProperty": {
        "qInfo": {
          "qId": "GPVWRa",
          "qType": "filterpane"
        },
        "qMetaDef": {},
        "qChildListDef": {
          "qData": {
            "info": "/qInfo"
          }
        },
        "showTitles": false,
        "title": "",
        "subtitle": "",
        "footnote": "",
        "showDetails": false,
        "visualization": "filterpane",
        "disableNavMenu": true
      },
      "qChildren": [
        {
          "qProperty": {
            "qInfo": {
              "qId": "pdVmRP",
              "qType": "listbox"
            },
            "qMetaDef": {},
            "qListObjectDef": {
              "qDef": {
                "qGrouping": "N",
                "qFieldDefs": [
                  "=Depot"
                ],
                "qFieldLabels": [
                  "=Depot"
                ],
                "qSortCriterias": [
                  {
                    "qSortByState": 1,
                    "qSortByNumeric": 1,
                    "qSortByAscii": 1,
                    "qSortByLoadOrder": 1,
                    "qExpression": {}
                  }
                ],
                "qNumberPresentations": [],
                "qActiveField": 0,
                "autoSort": true,
                "cId": "tDpdNR"
              },
              "qFrequencyMode": "N",
              "qShowAlternatives": true,
              "qInitialDataFetch": [],
              "qExpressions": [],
              "qOtherTotalSpec": {}
            },
            "showTitles": true,
            "title": "Depot",
            "subtitle": "",
            "footnote": "",
            "showDetails": false,
            "visualization": "listbox"
          },
          "qChildren": []
        }
      ]
    },
    {
      "qProperty": {
        "qInfo": {
          "qId": "GBhQ",
          "qType": "action-button"
        },
        "qExtendsId": "2ca1867b-cc07-4950-b17f-5c813b16fb93",
        "qMetaDef": {}
      },
      "qChildren": []
    },
    {
      "qProperty": {
        "qInfo": {
          "qId": "CPtYRA",
          "qType": "action-button"
        },
        "qMetaDef": {},
        "actions": [],
        "navigation": {
          "action": "goToSheet",
          "sheet": "ab213a64-530c-4ee9-bf7d-47beaf895ba0",
          "story": "",
          "websiteUrl": "",
          "sameWindow": false
        },
        "useEnabledCondition": false,
        "enabledCondition": 1,
        "showTitles": false,
        "title": "",
        "subtitle": "",
        "footnote": "",
        "disableNavMenu": true,
        "showDetails": false,
        "style": {
          "label": "Number of shipments",
          "font": {
            "size": 0.72,
            "useColorExpression": false,
            "color": {
              "index": -1,
              "color": "#0AABC2"
            },
            "colorExpression": "",
            "style": {
              "bold": false,
              "italic": false,
              "underline": false
            },
            "align": "center"
          },
          "background": {
            "useColorExpression": false,
            "color": {
              "index": 1,
              "color": "#ffffff"
            },
            "colorExpression": "",
            "useImage": false,
            "size": "auto",
            "position": "centerCenter",
            "url": {
              "qStaticContentUrlDef": {}
            }
          },
          "border": {
            "useBorder": true,
            "radius": 0,
            "width": 0.055,
            "useColorExpression": false,
            "color": {
              "index": -1,
              "color": "#0AABC2"
            },
            "colorExpression": ""
          },
          "icon": {
            "useIcon": false,
            "iconType": "",
            "position": "left"
          }
        },
        "visualization": "action-button",
        "props": {
          "fullWidth": "auto",
          "useEnabledCondition": null
        },
        "qLayoutExclude": {
          "disabled": {}
        },
        "masterVersion": 0.96
      },
      "qChildren": []
    }
  ]
}