{
  "qProperty": {
    "qInfo": {
      "qId": "01a07fb3-b3e2-4d95-b9b1-224d283755c2",
      "qType": "masterobject"
    },
    "qMetaDef": {
      "title": "BTN_Risks",
      "description": "",
      "tags": [
        "Button"
      ]
    },
    "actions": [],
    "navigation": {
      "action": "goToSheet",
      "sheet": "a40adaef-1ae6-4fcf-8727-51216cfa7b80",
      "story": "",
      "websiteUrl": "",
      "sameWindow": false
    },
    "useEnabledCondition": false,
    "enabledCondition": 1,
    "showTitles": false,
    "title": "",
    "subtitle": "",
    "footnote": "",
    "disableNavMenu": true,
    "showDetails": false,
    "style": {
      "label": {
        "qStringExpression": {
          "qExpr": "=\r\nRepeat(chr(160),12)\n&\n'Risks'\n&\nRepeat(chr(160),12)"
        }
      },
      "font": {
        "size": 0.6,
        "useColorExpression": false,
        "color": {
          "index": -1,
          "color": null
        },
        "colorExpression": "",
        "style": {
          "bold": false,
          "italic": false,
          "underline": false
        },
        "align": "center"
      },
      "background": {
        "useColorExpression": false,
        "color": {
          "index": -1,
          "color": "#8CBB13"
        },
        "colorExpression": "",
        "useImage": false,
        "size": "auto",
        "position": "centerCenter",
        "url": {
          "qStaticContentUrlDef": {}
        }
      },
      "border": {
        "useBorder": false,
        "radius": 0,
        "width": 0,
        "useColorExpression": false,
        "color": {
          "index": -1,
          "color": null
        },
        "colorExpression": ""
      },
      "icon": {
        "useIcon": false,
        "iconType": "",
        "position": "left"
      }
    },
    "visualization": "action-button",
    "props": {
      "fullWidth": "auto",
      "useEnabledCondition": null
    },
    "qLayoutExclude": {
      "disabled": {}
    },
    "masterVersion": 0.96
  },
  "qChildren": []
}