{
  "qProperty": {
    "qInfo": {
      "qId": "8fb06240-3f4a-48a4-9410-0d8fde5ec557",
      "qType": "masterobject"
    },
    "qMetaDef": {
      "title": "Simulation start date KPI",
      "tags": []
    },
    "qHyperCubeDef": {
      "qDimensions": [],
      "qMeasures": [
        {
          "qDef": {
            "qLabel": "Simulation start date",
            "qTags": [],
            "qGrouping": "N",
            "qDef": "date([Reevaluation date],'DD-MMM-YY')",
            "qNumFormat": {
              "qType": "U",
              "qnDec": 10,
              "qUseThou": 0
            },
            "qAccumulate": 0,
            "qActiveExpression": 0,
            "qExpressions": [],
            "autoSort": true,
            "cId": "spyKTq",
            "numFormatFromTemplate": true,
            "measureAxis": {
              "min": 0,
              "max": 100
            },
            "conditionalColoring": {
              "useConditionalColoring": false,
              "singleColor": 3,
              "paletteSingleColor": {
                "index": -1,
                "color": "#00acc2"
              },
              "segments": {
                "limits": [],
                "paletteColors": [
                  {
                    "index": 6
                  }
                ]
              }
            }
          },
          "qSortBy": {
            "qSortByNumeric": -1,
            "qSortByLoadOrder": 1,
            "qExpression": {}
          },
          "qAttributeExpressions": [],
          "qAttributeDimensions": [],
          "qCalcCond": {},
          "qCalcCondition": {
            "qCond": {},
            "qMsg": {}
          },
          "qTrendLines": [],
          "qMiniChartDef": {
            "qSortBy": {
              "qExpression": {}
            },
            "qOtherTotalSpec": {
              "qOtherMode": "OTHER_OFF",
              "qOtherCounted": {},
              "qOtherLimit": {},
              "qOtherLimitMode": "OTHER_GT_LIMIT",
              "qForceBadValueKeeping": true,
              "qApplyEvenWhenPossiblyWrongResult": true,
              "qOtherSortMode": "OTHER_SORT_DESCENDING",
              "qTotalMode": "TOTAL_OFF",
              "qReferencedExpression": {}
            },
            "qMaxNumberPoints": -1,
            "qAttributeExpressions": []
          }
        }
      ],
      "qInterColumnSortOrder": [
        0
      ],
      "qSuppressMissing": true,
      "qInitialDataFetch": [
        {
          "qLeft": 0,
          "qTop": 0,
          "qWidth": 500,
          "qHeight": 10
        }
      ],
      "qReductionMode": "N",
      "qMode": "S",
      "qPseudoDimPos": -1,
      "qNoOfLeftDims": -1,
      "qMaxStackedCells": 5000,
      "qCalcCond": {},
      "qTitle": {},
      "qCalcCondition": {
        "qCond": {},
        "qMsg": {}
      },
      "qColumnOrder": [],
      "qExpansionState": [],
      "qDynamicScript": [],
      "qLayoutExclude": {
        "qHyperCubeDef": {
          "qDimensions": [],
          "qMeasures": [],
          "qInterColumnSortOrder": [],
          "qInitialDataFetch": [],
          "qReductionMode": "N",
          "qMode": "S",
          "qPseudoDimPos": -1,
          "qNoOfLeftDims": -1,
          "qMaxStackedCells": 5000,
          "qCalcCond": {},
          "qTitle": {},
          "qCalcCondition": {
            "qCond": {},
            "qMsg": {}
          },
          "qColumnOrder": [],
          "qExpansionState": [],
          "qDynamicScript": []
        }
      }
    },
    "showTitles": false,
    "title": "",
    "subtitle": "",
    "footnote": "",
    "showDetails": false,
    "showMeasureTitle": true,
    "textAlign": "center",
    "fontSize": "S",
    "useLink": false,
    "sheetLink": "",
    "openUrlInNewTab": true,
    "color": {
      "useBaseColors": "measure"
    },
    "visualization": "kpi",
    "masterVersion": 0.96,
    "metadata": {},
    "disableNavMenu": true
  },
  "qChildren": []
}