{
  "qProperty": {
    "qInfo": {
      "qId": "d6648fab-9fd3-474f-9cb2-9d69b0a90191",
      "qType": "masterobject"
    },
    "qMetaDef": {
      "title": "BTN_L_PatientDemand",
      "description": "",
      "tags": [
        "Button"
      ]
    },
    "actions": [],
    "navigation": {
      "action": "goToSheet",
      "sheet": "a65635fd-0393-400d-8501-beabd58b0886",
      "story": "",
      "websiteUrl": "",
      "sameWindow": false
    },
    "useEnabledCondition": false,
    "enabledCondition": 1,
    "showTitles": false,
    "title": "",
    "subtitle": "",
    "footnote": "",
    "disableNavMenu": true,
    "showDetails": false,
    "style": {
      "label": {
        "qStringExpression": {
          "qExpr": "=\r\nRepeat(chr(160),3)\n&\n'Patient demand'\n&\nRepeat(chr(160),3)"
        }
      },
      "font": {
        "size": 0.64,
        "useColorExpression": false,
        "color": {
          "index": -1,
          "color": "#8CBB13"
        },
        "colorExpression": "",
        "style": {
          "bold": false,
          "italic": false,
          "underline": false
        },
        "align": "center"
      },
      "background": {
        "useColorExpression": false,
        "color": {
          "index": 1,
          "color": "#ffffff"
        },
        "colorExpression": "",
        "useImage": false,
        "size": "auto",
        "position": "centerCenter",
        "url": {
          "qStaticContentUrlDef": {}
        }
      },
      "border": {
        "useBorder": true,
        "radius": 0,
        "width": 0.055,
        "useColorExpression": false,
        "color": {
          "index": -1,
          "color": "#8CBB13"
        },
        "colorExpression": ""
      },
      "icon": {
        "useIcon": false,
        "iconType": "",
        "position": "left"
      }
    },
    "visualization": "action-button",
    "props": {
      "fullWidth": "auto",
      "useEnabledCondition": null
    },
    "qLayoutExclude": {
      "disabled": {}
    },
    "masterVersion": 0.96
  },
  "qChildren": []
}