{
  "qInfo": {
    "qId": "KpsXPR",
    "qType": "measure"
  },
  "qMeasure": {
    "qLabel": "Missed visits",
    "qDef": "Sum({<[DataType]={'Risk'},[Risk measure]={'Missed visit'}>}[Risk Stat_MEAN])",
    "qGrouping": "N",
    "qExpressions": [],
    "qActiveExpression": 0,
    "qNumFormat": {
      "qType": "U",
      "qnDec": 10,
      "qUseThou": 0
    },
    "coloring": {
      "baseColor": {
        "color": "#00acc2",
        "index": -1
      }
    }
  },
  "qMetaDef": {
    "title": "Missed visits",
    "description": "",
    "tags": []
  }
}