{
  "qInfo": {
    "qId": "nvCJMJ",
    "qType": "measure"
  },
  "qMeasure": {
    "qLabel": "Avg patient demand (#kits)",
    "qDef": "Sum({<Cumulative={'true'},[Aggregated]={'true'}>}[Demand Stat_MEAN])",
    "qGrouping": "N",
    "qExpressions": [],
    "qActiveExpression": 0,
    "qNumFormat": {
      "qType": "U",
      "qnDec": 10,
      "qUseThou": 0
    },
    "coloring": {
      "baseColor": {
        "color": "#8cbb13",
        "index": -1
      }
    }
  },
  "qMetaDef": {
    "title": "Avg patient demand (#kits)",
    "description": "",
    "tags": []
  }
}