{
  "qInfo": {
    "qId": "Snxhp",
    "qType": "measure"
  },
  "qMeasure": {
    "qLabel": "Trigger level",
    "qDef": "Max({< [DataType]={'Trigger & Resupply'}>}[TL])",
    "qGrouping": "N",
    "qExpressions": [],
    "qActiveExpression": 0,
    "qNumFormat": {
      "qType": "U",
      "qnDec": 10,
      "qUseThou": 0
    },
    "coloring": {
      "baseColor": {
        "color": "#f4a74f",
        "index": -1
      }
    }
  },
  "qMetaDef": {
    "title": "Trigger level",
    "description": "",
    "tags": []
  }
}