{
  "qInfo": {
    "qId": "zyYdZm",
    "qType": "measure"
  },
  "qMeasure": {
    "qLabel": "Patients enrolled",
    "qDef": "\r\nif(\n$(vDepot)>0,\nSum({<DataType={'Study Results'},[SR.Measure]={'Enrolled'},[Aggregated]={'false'}, [Warehouse level]={'Depots'}>}[SR.Stat_MEAN])\n,\nSum({<[DataType]={'Study Results'},[SR.Measure]={'Enrolled'},[Aggregated]={'true'}>}[SR.Stat_MEAN])\n)",
    "qGrouping": "N",
    "qExpressions": [],
    "qActiveExpression": 0,
    "qNumFormat": {
      "qType": "U",
      "qnDec": 10,
      "qUseThou": 0
    },
    "coloring": {
      "baseColor": {
        "color": "#8cbb13",
        "index": -1
      }
    }
  },
  "qMetaDef": {
    "title": "Patients enrolled",
    "description": "",
    "tags": []
  }
}